8.080656114880309382e-02
3.505180053350331892e-02
2.901745472935249315e-02
6.686480461318542248e-03
1.184942394395130383e-02
3.675954979655647326e-01
4.163431297239825885e-02
7.181155543116754525e-03
4.907708454085191879e-02
2.245129140971158579e-02
1.450234962975801845e-01
3.840534398802123578e-02
1.102494369240039108e-02
1.137440734773966259e-03
1.530577120386537038e-01
