7.09675609266 7.16351603299 7.07598408968 2
7.04186295196 7.33428672392 7.07444129816 6
7.06865364362 7.20309177726 7.13481396949 10
7.06329292937 7.07349161126 7.27374951989 14
7.08313388675 6.99776305882 7.28406195671 18
18
7.13442913055 7.06610620522 7.06889630574  0.239351714596 0.889692657377 0.942247257634 0
7.09842304846 7.15203135667 7.08977555368  0.241585136871 0.890107718154 0.941901373654 0.1
7.09425454884 7.14597273254 7.08528151107  0.247119280561 0.887706295088 0.940498072932 0.2
7.11655565562 7.09596180298 7.09387610521  0.231841091017 0.891007016504 0.94196066805 0.3
7.09034879761 7.09211304362 7.19865546733  0.249441644431 0.888892183022 0.939361596996 0.4
7.10651967205 7.13001796536 7.14893066253  0.238165826663 0.889712422176 0.941100899298 0.5
7.10726104732 7.09560792386 7.12935220092  0.234370985275 0.889168890207 0.941219488092 0.6
7.02483311245 7.22368546184 7.27136739026  0.242039727246 0.893121849985 0.941911256053 0.7
6.96879062434 7.42718844311 7.31017807328  0.238788417828 0.894969858682 0.941100899298 0.8
7.04153243952 7.64532448147 7.1463890071  0.245636920644 0.88910959581 0.941021840103 0.9
