34.1594261942 34.164263571 34.2841248214 2
34.0251255175 34.5499334191 34.3061549929 6
34.1054550421 34.3084926599 34.2961258432 10
34.098317812 34.3469979281 34.2322335302 14
34.2327098902 34.2770070402 33.9279600916 18
2
34.1671386609 34.17774744 34.2442620958  0.00322712418301 0.488674428105 0.748223039216 0
34.205392338 34.1294810768 34.1899175299  0.00300245098039 0.486785130719 0.749152369281 0.1
34.1546915773 34.2519133334 34.1225887089  0.00289011437908 0.494383169935 0.748886846405 0.2
34.0565857388 34.3261602796 34.3497282807  0.0031045751634 0.503176062092 0.745996732026 0.3
34.113791754 34.1627386129 34.2882406522  0.00340073529412 0.484528186275 0.750265522876 0.4
34.1424903244 34.1275812031 34.1904478888  0.00300245098039 0.482301879085 0.749509803922 0.5
34.0763179377 34.1009133112 34.195288525  0.00296160130719 0.489297385621 0.751654411765 0.6
34.0616106552 34.6903760799 34.2256477995  0.00302287581699 0.455545343137 0.750990604575 0.7
34.1713021656 34.9619941442 35.3521026416  0.00419730392157 0.451725898693 0.74831495098 0.8
34.3098049837 36.1288088913 37.0839761736  0.00596405228758 0.397273284314 0.739920343137 0.9
