12.3194075553 12.3342721389 12.2955105114 0.1 0.01
12.316072836 12.3216954381 12.3265422142 0.1 0.1
12.3303992157 12.3237693184 12.2826993392 0.1 1
12.3118283842 12.32365941 12.3622409428 0.1 10
12.512422057 12.5141182267 12.4948773544 0.1 100
12.3055338915 12.3105732982 12.2882985752 0.3 0.01
12.3053417402 12.2874071359 12.3133198095 0.3 0.1
12.3097300565 12.2972967935 12.2905073681 0.3 1
12.2905321424 12.32817937 12.3260932129 0.3 10
12.4754526605 12.5068158331 12.4464960313 0.3 100
12.3011725861 12.3222447385 12.2899545861 0.5 0.01
12.2968659845 12.337673212 12.2873899608 0.5 0.1
12.3002081353 12.3105577491 12.3044092952 0.5 1
12.3110833957 12.2825091112 12.3097633552 0.5 10
12.4863324753 12.4775994046 12.4437394452 0.5 100
12.2857070785 12.3362522968 12.3213536968 0.7 0.01
12.3135549999 12.2983103165 12.2770775748 0.7 0.1
12.3213434192 12.2877319646 12.2636617367 0.7 1
12.3087092026 12.3080779245 12.2927033554 0.7 10
12.459126123 12.4952179859 12.5056556982 0.7 100
12.2978615547 12.3028827542 12.3190707512 0.9 0.01
12.3052842732 12.3262412896 12.2738631283 0.9 0.1
12.3018687002 12.3374382893 12.2726395339 0.9 1
12.3060270519 12.3145440768 12.2919659206 0.9 10
12.4630229474 12.5108657806 12.4582405217 0.9 100
0.5 10
12.29099193 12.3475591895 12.3050158174  0.0165257352941 0.76763378268 0.930635212418 0
12.2985451318 12.3097950015 12.3191035847  0.0167984068627 0.76863255719 0.930849673203 0.1
12.3094203789 12.2727125571 12.3314978237  0.0166237745098 0.768350694444 0.930748570261 0.2
12.2841666355 12.3100313767 12.3411610493  0.0166625816993 0.768423202614 0.930527982026 0.3
12.3256846113 12.2869226078 12.3216852975  0.0166533905229 0.769969362745 0.930734272876 0.4
12.3004463163 12.3075482985 12.3237166615  0.0165982434641 0.770807802288 0.930845588235 0.5
12.3371321806 12.2774134987 12.3088240114  0.0166268382353 0.772263071895 0.931233660131 0.6
12.3601781925 12.3179090901 12.3344177287  0.0167156862745 0.775496323529 0.930724060458 0.7
12.382706675 12.3061624929 12.3522245612  0.0171527777778 0.781651348039 0.930216503268 0.8
12.4438552186 12.4217980097 12.4241054  0.0175520833333 0.796761642157 0.927703227124 0.9
