13.6433906513 13.6437031491 13.6649703808 0.1 0.01
13.650061722 13.6257607958 13.6356615302 0.1 0.1
13.6514279346 13.695865901 13.6583987484 0.1 1
13.6732394803 13.6685341206 13.6937489809 0.1 10
14.0182469475 14.0473614497 14.0198967373 0.1 100
13.5530206583 13.5693291234 13.4962354117 0.3 0.01
13.5391337138 13.539340484 13.567595485 0.3 0.1
13.5478950821 13.559542915 13.5203956077 0.3 1
13.5649265903 13.5350435749 13.5184749534 0.3 10
13.8771531046 13.8493972167 13.8915249355 0.3 100
13.5575114127 13.4789326812 13.5718786792 0.5 0.01
13.5517500431 13.5479648462 13.5209905728 0.5 0.1
13.5482032463 13.5538996215 13.5268379714 0.5 1
13.5498005027 13.5341046213 13.5629781895 0.5 10
13.8704008848 13.9065089868 13.8838631219 0.5 100
13.5434441341 13.535763068 13.5582535603 0.7 0.01
13.5250475695 13.5676486277 13.5810945999 0.7 0.1
13.5448949492 13.5571709257 13.5315364139 0.7 1
13.5543372393 13.5269422292 13.5585752817 0.7 10
13.8604403155 13.8735704642 13.9355506439 0.7 100
13.53962839 13.5772488113 13.5276226689 0.9 0.01
13.5431052342 13.5365479504 13.5584047483 0.9 0.1
13.5376684229 13.5824772285 13.5278209333 0.9 1
13.5263307809 13.5806138604 13.5861828905 0.9 10
13.8796015087 13.8630454015 13.8654588166 0.9 100
0.5 0.01
13.547841101 13.5551240283 13.525180356  0.0159466911765 0.759126838235 0.892784926471 0
13.5521761288 13.5432542298 13.526042961  0.0158649918301 0.759360702614 0.893100490196 0.1
13.5551098831 13.5425018789 13.5185311411  0.015685253268 0.758715277778 0.892999387255 0.2
13.5503486274 13.5360289151 13.5492399186  0.0158578431373 0.758517156863 0.893135212418 0.3
13.5562108892 13.5252944764 13.5356094717  0.015883374183 0.758710171569 0.893121936275 0.4
13.5073768743 13.5812653394 13.5510594777  0.0163071895425 0.758350694444 0.893067810458 0.5
13.5439842308 13.5641183698 13.5562366537  0.0163368055556 0.758106617647 0.892837009804 0.6
13.5455423881 13.5777851656 13.5258170929  0.0160590277778 0.757822712418 0.893641748366 0.7
13.5155243323 13.5357458958 13.544249236  0.0166431781046 0.756919934641 0.893597834967 0.8
13.5546978366 13.5200687811 13.5481686185  0.0172426470588 0.75613255719 0.894467933007 0.9
