8.83021575735 8.82359570325 8.82190266561 0.1 0.01
8.77846160558 8.78069709249 8.76574450824 0.1 0.1
8.75653589593 8.78196154991 8.77494732954 0.1 1
8.85349464205 8.85268123666 8.85037683858 0.1 10
9.5467510762 9.54425387362 9.53416559235 0.1 100
6.78764112791 6.77998226066 6.78832314874 0.3 0.01
6.76215644073 6.78075565469 6.76025692698 0.3 0.1
6.80336173815 6.79351284672 6.79710517645 0.3 1
6.90488146483 6.92867036497 6.92948466112 0.3 10
8.34172308652 8.34949329163 8.34054391997 0.3 100
6.55774689065 6.55695982066 6.57524649252 0.5 0.01
6.55806491521 6.57881264351 6.5681666025 0.5 0.1
6.57450957941 6.56288677991 6.55487529197 0.5 1
6.66941676787 6.65668391967 6.67682156624 0.5 10
8.16987525187 8.16783567768 8.18452655757 0.5 100
6.48647534114 6.50801830066 6.56029475259 0.7 0.01
6.48486899997 6.50976822092 6.503237557 0.7 0.1
6.4978677055 6.49077467595 6.55341396425 0.7 1
6.58190816651 6.58653260633 6.58214253049 0.7 10
8.2014816689 8.19218329921 8.21270540184 0.7 100
6.46254949468 6.48661248818 6.52666605976 0.9 0.01
6.47444286596 6.50294228285 6.4654546426 0.9 0.1
6.47727803857 6.50617008003 6.45755517496 0.9 1
6.55467947699 6.56644825016 6.57054209989 0.9 10
8.23795522475 8.23139593063 8.22625475417 0.9 100
0.9 0.01
6.49387640817 6.49961052878 6.4956524577  0.0122986461113 0.838801264947 0.96786342524 0
6.46454263809 6.47849390971 6.45295548764  0.0128362486412 0.846560924993 0.96981618737 0.1
6.44899646773 6.48519276558 6.45403507856  0.0131712619824 0.848580887439 0.970650261884 0.2
6.45608312515 6.47314534709 6.45511556022  0.013018084791 0.848656981915 0.970204565669 0.3
6.45176028083 6.45618357143 6.46773679567  0.0137691471489 0.851226405771 0.970501037652 0.4
6.42441865408 6.47666833381 6.45150816978  0.0139529597786 0.854033995454 0.971329182726 0.5
6.41665653804 6.46101834217 6.42787646169  0.0147613400534 0.860298448463 0.972605988734 0.6
6.38320193495 6.40104735389 6.45833834058  0.0172971637514 0.863299733175 0.97250815298 0.7
6.33027808574 6.47401478388 6.43086361347  0.0211799584939 0.869623480581 0.973073426228 0.8
6.10808734862 6.58876583984 6.53478803774  0.0422017985967 0.884434232632 0.972659353691 0.9
