9.63874655428 10.748397269 11.3175529506 5
9.8182188434 9.92471861709 10.0957980524 10
7.55777587526 7.74590332142 7.38299077009 15
7.97702666411 8.79035187592 8.99552220061 20
6.80468593622 7.04976437192 6.90447866261 25
6.99978128153 7.09734245156 7.26993945857 30
25
6.953413354 7.55151414278 7.71533753043  0.674530228758 0.972069035948 0.983251633987 0
6.97219413832 6.78052487729 6.96341768316  0.689797794118 0.97283496732 0.985243055556 0.1
6.97172374593 6.98701695936 7.30938301751  0.689133986928 0.97079248366 0.984834558824 0.2
6.95069743603 7.59146075372 7.20439344236  0.687755310458 0.972324346405 0.983864379085 0.3
7.29140529424 7.15354816682 7.4509742937  0.673968545752 0.967881944444 0.982741013072 0.4
7.38927477164 7.5810779538 7.93090496108  0.653390522876 0.96977124183 0.981770833333 0.5
6.89779943782 9.47633836337 8.88830494513  0.68852124183 0.968903186275 0.981158088235 0.6
6.53966773873 7.70678154259 8.57842756338  0.672436683007 0.970894607843 0.984732434641 0.7
6.84041604784 9.14582539056 9.73632526726  0.723651960784 0.967575571895 0.983098447712 0.8
7.09314594489 9.72950933554 8.98370740378  0.6953125 0.964409722222 0.977481617647 0.9
