8.420516229896507499e-03 7.492626822788259894e-04 3.940606778854372494e-01 4.060665246804499341e-03 7.158682932453442997e-03 6.847801813581497025e-05 5.619651973690664476e-05 1.179623785191136561e-04 1.546001587907799130e-05 5.641127157804252112e-01
2.436663540670029517e-03 6.058050419673796086e-04 3.730919740169740262e-01 2.958069310730754992e-02 3.325566851022740411e-02 2.638113167545741693e-03 6.459584512547300865e-05 1.182600942882846954e-04 3.445585122373238501e-05 5.679636511729342363e-01
9.013991576038638725e-04 3.479318440812918410e-04 4.628192484336356993e-01 3.136427368446914263e-03 6.586514561148774059e-03 1.040480230033301034e-05 6.432938092677493254e-05 8.960966275799582504e-05 8.513341572358559115e-06 5.633873813698663247e-01
5.450399512531864388e-02 2.222458980667725917e-02 7.213255344890403542e-01 8.612387111943250670e-03 1.330050179666547074e-02 1.112347465587581585e-03 8.752555745836530310e-04 7.517842986620867311e-04 5.348339583098881837e-05 6.377405163626285178e-01
2.271895778477812586e-02 9.522282568734621866e-03 5.351338095332053291e-01 7.351038627933333645e-03 1.240413480842514002e-02 5.388385411517339178e-04 4.176074512472113787e-04 1.553841501145451179e-04 2.910522614304127771e-05 6.309700654844060397e-01
2.359523932906603533e-02 6.299415942355879316e-02 5.838092738314323293e-01 1.920134297611876539e-01 2.003766517193573404e-01 4.559561407288892886e-03 6.314809601149592132e-03 2.471575060393397735e-02 2.588169403528812751e-01 6.915965798885568283e-01
2.825805136904976228e-02 1.267379173936676595e-02 6.963789061009235670e-01 4.146822938217032371e-03 8.451039108090406884e-03 1.053559772550256542e-03 7.582651941947875750e-04 1.744253555168758104e-04 3.279114499101362581e-05 6.364377304244424050e-01
1.152517268650756106e-02 9.860609968706956011e-03 3.451514453691164053e-01 2.958284678735774442e-03 5.763629023578625311e-03 5.833686289599487006e-05 2.485886591226787516e-05 9.451068937363033896e-05 1.124181405914289610e-05 5.671927376719635427e-01
9.656349261377804305e-02 9.651127531012014538e-02 6.957271778275500029e-01 5.317832296295305072e-01 5.443417189745920481e-01 3.793226401102098300e-01 4.975879149992074590e-01 3.505915371047041689e-03 1.240698585771294574e-04 7.411039868974284017e-01
2.866669358633376283e-02 1.276188770007373290e-02 5.988140003409160306e-01 5.390199170842374134e-03 9.803160458063607877e-03 1.038251110033916891e-03 7.563288439245115582e-04 1.763571403898114083e-04 3.242636024729865746e-05 6.383495130443640475e-01
2.038085660836727944e-02 2.244347124415088657e-02 5.358350899549949586e-01 7.764974549128274284e-02 7.149748313150301737e-02 1.972494851938108151e-03 1.960765306719068277e-03 6.128323140348309467e-02 1.297343535968330068e-02 6.337310036578693850e-01
2.121052246330755800e-02 8.567180975077566193e-03 6.142929318622724066e-01 3.096482683551581017e-03 6.852102284191405324e-03 4.139879208476913855e-04 3.552643297893088095e-04 1.672115180551755626e-04 2.886423949812049345e-05 6.270367607460988202e-01
2.440765632813716481e-03 5.713649638074332635e-04 4.120921817728495640e-01 6.369608245126291701e-02 6.788433673966315363e-02 1.794388073763276850e-04 2.519348368162628127e-04 9.605944280527468383e-04 1.586738316873885176e-04 5.700277302546491454e-01
3.066770641938262008e-03 2.976723151250942239e-04 3.405144239244849436e-01 2.409763434809046069e-03 5.272523714665398355e-03 1.296139775937191790e-05 4.179500746411087453e-05 1.060629313193874425e-04 1.175503461153858546e-05 5.634528565976295589e-01
1.198388406186274169e-03 4.112879806521682830e-04 3.894500185880955812e-01 5.888286038827027051e-03 9.350076305921859593e-03 2.319582480202183469e-05 5.749700990276891444e-05 1.106288292825376445e-04 2.177738991636732972e-05 5.637014412230686444e-01
