2.085800785914500213e-03 1.174445239055927920e-03 3.270678239987158675e-01 4.080119175319050356e-02 1.172302106830872166e-02 2.280401747557904782e-04 2.916761580423939950e-04 3.102141825761023028e-02 2.928958714749794242e-03 6.009102884979936610e-01
6.516289964605286901e-04 3.840916348957773151e-04 3.898120285661804130e-01 3.411488830360631230e-03 6.666394706141424813e-03 1.481082972306653620e-05 6.744500779900818629e-05 1.070689781953366743e-04 2.226373146971910523e-05 5.809592337601234835e-01
2.857358642741521584e-02 3.603233529140759117e-02 7.279419709705156061e-01 6.717017668474911662e-02 7.300719571740492408e-02 1.207101632156473356e-03 9.501231583858438115e-04 9.116095528372274159e-03 8.194429276981304855e-02 6.691638794308603089e-01
3.918739019641932146e-04 3.128051839085556319e-04 4.221379835483250464e-01 8.048274498330012031e-03 1.077195854641725334e-02 2.948802137625602674e-05 7.448238822053659231e-05 1.075045282943735042e-04 2.701981841657516157e-05 5.786154567507686419e-01
1.317901948029142484e-02 1.227447968049452491e-02 6.951487860088451098e-01 4.542148070862682234e-03 8.825872672780801786e-03 1.060496816571573344e-03 6.865346937877100453e-04 1.726834886461932513e-04 3.282309789102247783e-05 6.462946914521756625e-01
1.583803095566493901e-03 5.778287432541649856e-04 4.366397243522422977e-01 6.677680172862350549e-02 7.055880717210646913e-02 9.832454346754203550e-05 1.573601171403404754e-04 8.440450103088059739e-04 1.151742950822614875e-04 5.865259175808616998e-01
1.214375567406439718e-02 1.283438895181914820e-02 6.279957958582488287e-01 2.316216358129104952e-02 2.727198772673021174e-02 1.396653173050935864e-03 2.611851383798912893e-02 6.032687762699995293e-02 2.312217426440948184e-03 6.537342891284415591e-01
5.898621291646269360e-04 3.255258472085878008e-04 4.862569116415846882e-01 2.556391632268434962e-03 5.479908187926362320e-03 1.151791665512992240e-05 4.858621463468357367e-05 8.957753886989289411e-05 8.257144203821918890e-06 5.806558123466041277e-01
9.926066193268287541e-03 8.372230372779433660e-03 6.130077407737476447e-01 3.214786290477767566e-03 7.112951226737723384e-03 4.239822930705226508e-04 3.036320135993634118e-04 1.707022315344247231e-04 2.861779880199961750e-05 6.371187466107840480e-01
5.003825338710500559e-03 9.436056602512860741e-03 3.232093160999077730e-01 3.079701206959503581e-03 5.825596878677987735e-03 1.580474694726055729e-05 9.436163453306864500e-04 1.085906913110078984e-04 1.189359668797862151e-05 5.836608524884048244e-01
1.722111063091179327e-03 5.638621412248984643e-04 3.255187830310641295e-01 2.471338272096826327e-02 2.748206414379751952e-02 2.141460886745978219e-05 1.213042018995475445e-03 1.050912069410838714e-04 2.403998078231219535e-05 5.840573473582928443e-01
1.392659080460835344e-03 3.559289670003585693e-04 3.462206934668131675e-01 3.321432607981054854e-03 6.382007612959914901e-03 1.481292409416130433e-05 8.801419780235125473e-05 1.006631998639080519e-04 1.186641023119584837e-05 5.813732452609897683e-01
3.777167631481367742e-03 7.445369521295481250e-04 3.192874340315970394e-01 3.067180971447758253e-03 5.821287229159808826e-03 1.329709842191220474e-05 1.550749310769112621e-04 1.081267949496213221e-04 1.219452698871528200e-05 5.805578770551844681e-01
5.634606092722248966e-02 9.366329768104636466e-02 6.913411115039821420e-01 6.644843309744428161e-01 6.699852257070200157e-01 5.293110476863410740e-01 4.968147763037050191e-01 5.462313557258301026e-03 1.387366232680488603e-04 7.615547663819220991e-01
1.379682029868019863e-03 3.121002683952749145e-04 3.145152185578354298e-01 2.623402752097572961e-03 5.321872835148798268e-03 1.314698893953350908e-05 8.210663810518222189e-05 1.003617690185862614e-04 1.156004358744864212e-05 5.796809260423416710e-01
