1.560990708738526668e-02 5.482254314746080881e-02 4.137580355408035926e-01 1.041166473420774563e-01 1.129100865477140475e-01 4.343283158266822907e-04 3.754892686255629922e-04 2.363115693603411865e-02 2.596543667937142308e-01 6.981102735605457799e-01
5.281734980906791291e-03 6.594444739089273160e-04 3.801596755181950171e-01 5.262079625144891817e-03 8.905364671375093355e-03 1.410569402076030124e-05 9.497634737772388291e-05 1.023983731451915080e-04 1.342808609550222053e-05 5.751245743666683063e-01
1.091057362630173814e-03 4.808338829058835581e-04 4.017184395203367009e-01 4.228502657491606948e-02 4.587437032018928246e-02 7.661171863663170426e-05 8.325514914859424712e-05 1.220014641971887167e-04 4.666465614548795816e-05 5.761654196640255687e-01
2.898878063113947794e-03 3.118526659779110514e-04 3.023640699020584410e-01 2.627425686672831082e-03 5.774904668937021202e-03 8.792809224594485325e-06 6.716643630414094197e-05 9.851657051462774464e-05 1.131360898901506605e-05 5.733861086526744755e-01
5.393592661450567934e-03 4.050986018553835895e-03 4.240038927209461850e-01 6.855585148835667553e-02 7.260391469165575207e-02 3.880028087412781053e-05 6.945085576204513720e-05 1.142350068753233966e-04 6.544282303569229386e-05 5.809354930193583177e-01
9.811199082628272762e-04 4.638024913425279456e-04 4.228862912756320425e-01 6.312655254134065703e-03 9.836157382966871643e-03 1.694951559832101292e-05 1.598683053229706905e-05 1.031536223809594391e-04 1.889206687825573561e-05 5.741012311823603387e-01
8.314002850664255857e-04 3.674406917077638400e-04 4.832059862122832783e-01 3.024129334956276224e-03 6.369546962788023153e-03 8.878776511242366239e-06 4.411728109500507878e-05 8.060409494329458919e-05 5.241009550208704266e-06 5.740027854300692178e-01
2.648326418883501128e-03 7.539003324579744009e-04 3.776280770044779800e-01 7.197541485898037959e-03 1.073396999580596492e-02 3.178278306604365036e-04 2.963840283449711865e-04 4.999236709717984686e-03 7.270004380758175906e-04 5.788147698206606018e-01
9.475326352152331228e-04 4.442028971882073943e-04 3.839035415692983455e-01 5.738390488241569901e-03 9.048556099181736742e-03 1.774224446121311726e-05 1.644349417499855827e-05 1.012684735414993547e-04 2.062437927267806389e-05 5.737563734730750653e-01
2.206702428938403862e-02 1.027709239982935695e-02 6.203592054006435985e-01 4.583908885431396858e-03 8.805689719822385950e-03 6.632078730901252300e-04 4.474875551384090307e-04 1.563247762739204455e-04 2.757859302214664342e-05 6.415019150224687827e-01
9.243516839301822718e-02 8.735384623407242699e-02 6.726753198746773243e-01 6.171440712832944042e-01 6.232496497524160350e-01 4.782599515849388916e-01 5.174192024268989831e-01 1.164565711876112963e-02 2.520800179299172747e-04 7.643199722004456742e-01
5.566557459383026513e-02 6.698280475939155654e-02 7.779686466286167557e-01 3.215023721983408800e-01 2.693498941166099780e-01 7.553819266774664670e-03 1.149026418699747309e-02 6.975707301011180219e-04 6.904479104902067868e-05 7.016640690607213182e-01
3.074504174540880833e-02 1.388304713370633152e-02 7.604563061253929446e-01 4.586436013798961264e-03 8.943421566945943327e-03 9.844082381770561871e-04 6.308470869862367082e-04 1.688162445523822420e-04 2.965079107069970506e-05 6.466495611059571713e-01
7.164939946664187521e-03 6.824141941597236744e-04 3.049712779828547271e-01 7.894007809443539733e-03 1.113443335163608917e-02 1.208330212459781179e-05 5.374104956878245467e-04 1.059040984485637351e-04 1.420031059346720644e-05 5.748549821248393199e-01
2.325818286746509159e-02 1.111604086120574451e-02 6.938773102879397525e-01 2.867475408553279721e-03 6.836877448294496895e-03 8.247709386625248296e-04 5.272660125068692142e-04 1.615958559794478317e-04 2.871107267658428401e-05 6.424824019070899395e-01
