%!PS-Adobe-3.0 EPSF-3.0
%%Title: ./nodes-power.eps
%%Creator: matplotlib version 1.1.1, http://matplotlib.sourceforge.net/
%%CreationDate: Sat Mar  8 11:40:10 2014
%%Orientation: portrait
%%BoundingBox: 18 180 594 612
%%EndComments
%%BeginProlog
/mpldict 8 dict def
mpldict begin
/m { moveto } bind def
/l { lineto } bind def
/r { rlineto } bind def
/c { curveto } bind def
/cl { closepath } bind def
/box {
m
1 index 0 r
0 exch r
neg 0 r
cl
} bind def
/clipbox {
box
clip
newpath
} bind def
%!PS-Adobe-3.0 Resource-Font
%%Title: Bitstream Vera Sans
%%Copyright: Copyright (c) 2003 by Bitstream, Inc. All Rights Reserved.
%%Creator: Converted from TrueType to type 3 by PPR
25 dict begin
/_d{bind def}bind def
/_m{moveto}_d
/_l{lineto}_d
/_cl{closepath eofill}_d
/_c{curveto}_d
/_sc{7 -1 roll{setcachedevice}{pop pop pop pop pop pop}ifelse}_d
/_e{exec}_d
/FontName /BitstreamVeraSans-Roman def
/PaintType 0 def
/FontMatrix[.001 0 0 .001 0 0]def
/FontBBox[-183 -236 1287 928]def
/FontType 3 def
/Encoding [ /space /parenleft /parenright /period /zero /one /two /three /four /five /six /eight /C /D /F /G /H /N /P /U /W /a /b /d /e /h /i /m /n /o /p /r /s /t /u /w ] def
/FontInfo 10 dict dup begin
/FamilyName (Bitstream Vera Sans) def
/FullName (Bitstream Vera Sans) def
/Notice (Copyright (c) 2003 by Bitstream, Inc. All Rights Reserved. Bitstream Vera is a trademark of Bitstream, Inc.) def
/Weight (Roman) def
/Version (Release 1.10) def
/ItalicAngle 0.0 def
/isFixedPitch false def
/UnderlinePosition -213 def
/UnderlineThickness 143 def
end readonly def
/CharStrings 36 dict dup begin
/space{318 0 0 0 0 0 _sc
}_d
/parenleft{390 0 86 -131 310 759 _sc
310 759 _m
266 683 234 609 213 536 _c
191 463 181 389 181 314 _c
181 238 191 164 213 91 _c
234 17 266 -56 310 -131 _c
232 -131 _l
183 -54 146 20 122 94 _c
98 168 86 241 86 314 _c
86 386 98 459 122 533 _c
146 607 182 682 232 759 _c
310 759 _l
_cl}_d
/parenright{390 0 80 -131 304 759 _sc
80 759 _m
158 759 _l
206 682 243 607 267 533 _c
291 459 304 386 304 314 _c
304 241 291 168 267 94 _c
243 20 206 -54 158 -131 _c
80 -131 _l
123 -56 155 17 177 91 _c
198 164 209 238 209 314 _c
209 389 198 463 177 536 _c
155 609 123 683 80 759 _c
_cl}_d
/period{318 0 107 0 210 124 _sc
107 124 _m
210 124 _l
210 0 _l
107 0 _l
107 124 _l
_cl}_d
/zero{636 0 66 -13 570 742 _sc
318 664 _m
267 664 229 639 203 589 _c
177 539 165 464 165 364 _c
165 264 177 189 203 139 _c
229 89 267 64 318 64 _c
369 64 407 89 433 139 _c
458 189 471 264 471 364 _c
471 464 458 539 433 589 _c
407 639 369 664 318 664 _c
318 742 _m
399 742 461 709 505 645 _c
548 580 570 486 570 364 _c
570 241 548 147 505 83 _c
461 19 399 -13 318 -13 _c
236 -13 173 19 130 83 _c
87 147 66 241 66 364 _c
66 486 87 580 130 645 _c
173 709 236 742 318 742 _c
_cl}_d
/one{636 0 110 0 544 729 _sc
124 83 _m
285 83 _l
285 639 _l
110 604 _l
110 694 _l
284 729 _l
383 729 _l
383 83 _l
544 83 _l
544 0 _l
124 0 _l
124 83 _l
_cl}_d
/two{{636 0 73 0 536 742 _sc
192 83 _m
536 83 _l
536 0 _l
73 0 _l
73 83 _l
110 121 161 173 226 239 _c
290 304 331 346 348 365 _c
380 400 402 430 414 455 _c
426 479 433 504 433 528 _c
433 566 419 598 392 622 _c
365 646 330 659 286 659 _c
255 659 222 653 188 643 _c
154 632 117 616 78 594 _c
78 694 _l
118 710 155 722 189 730 _c
223 738 255 742 284 742 _c
}_e{359 742 419 723 464 685 _c
509 647 532 597 532 534 _c
532 504 526 475 515 449 _c
504 422 484 390 454 354 _c
446 344 420 317 376 272 _c
332 227 271 164 192 83 _c
_cl}_e}_d
/three{{636 0 76 -13 556 742 _sc
406 393 _m
453 383 490 362 516 330 _c
542 298 556 258 556 212 _c
556 140 531 84 482 45 _c
432 6 362 -13 271 -13 _c
240 -13 208 -10 176 -4 _c
144 1 110 10 76 22 _c
76 117 _l
103 101 133 89 166 81 _c
198 73 232 69 268 69 _c
330 69 377 81 409 105 _c
441 129 458 165 458 212 _c
458 254 443 288 413 312 _c
383 336 341 349 287 349 _c
}_e{202 349 _l
202 430 _l
291 430 _l
339 430 376 439 402 459 _c
428 478 441 506 441 543 _c
441 580 427 609 401 629 _c
374 649 336 659 287 659 _c
260 659 231 656 200 650 _c
169 644 135 635 98 623 _c
98 711 _l
135 721 170 729 203 734 _c
235 739 266 742 296 742 _c
370 742 429 725 473 691 _c
517 657 539 611 539 553 _c
539 513 527 479 504 451 _c
481 423 448 403 406 393 _c
_cl}_e}_d
/four{636 0 49 0 580 729 _sc
378 643 _m
129 254 _l
378 254 _l
378 643 _l
352 729 _m
476 729 _l
476 254 _l
580 254 _l
580 172 _l
476 172 _l
476 0 _l
378 0 _l
378 172 _l
49 172 _l
49 267 _l
352 729 _l
_cl}_d
/five{{636 0 77 -13 549 729 _sc
108 729 _m
495 729 _l
495 646 _l
198 646 _l
198 467 _l
212 472 227 476 241 478 _c
255 480 270 482 284 482 _c
365 482 429 459 477 415 _c
525 370 549 310 549 234 _c
549 155 524 94 475 51 _c
426 8 357 -13 269 -13 _c
238 -13 207 -10 175 -6 _c
143 -1 111 6 77 17 _c
77 116 _l
106 100 136 88 168 80 _c
199 72 232 69 267 69 _c
}_e{323 69 368 83 401 113 _c
433 143 450 183 450 234 _c
450 284 433 324 401 354 _c
368 384 323 399 267 399 _c
241 399 214 396 188 390 _c
162 384 135 375 108 363 _c
108 729 _l
_cl}_e}_d
/six{{636 0 70 -13 573 742 _sc
330 404 _m
286 404 251 388 225 358 _c
199 328 186 286 186 234 _c
186 181 199 139 225 109 _c
251 79 286 64 330 64 _c
374 64 409 79 435 109 _c
461 139 474 181 474 234 _c
474 286 461 328 435 358 _c
409 388 374 404 330 404 _c
526 713 _m
526 623 _l
501 635 476 644 451 650 _c
425 656 400 659 376 659 _c
310 659 260 637 226 593 _c
}_e{192 549 172 482 168 394 _c
187 422 211 444 240 459 _c
269 474 301 482 336 482 _c
409 482 467 459 509 415 _c
551 371 573 310 573 234 _c
573 159 550 99 506 54 _c
462 9 403 -13 330 -13 _c
246 -13 181 19 137 83 _c
92 147 70 241 70 364 _c
70 479 97 571 152 639 _c
206 707 280 742 372 742 _c
396 742 421 739 447 735 _c
472 730 498 723 526 713 _c
_cl}_e}_d
/eight{{636 0 68 -13 568 742 _sc
318 346 _m
271 346 234 333 207 308 _c
180 283 167 249 167 205 _c
167 161 180 126 207 101 _c
234 76 271 64 318 64 _c
364 64 401 76 428 102 _c
455 127 469 161 469 205 _c
469 249 455 283 429 308 _c
402 333 365 346 318 346 _c
219 388 _m
177 398 144 418 120 447 _c
96 476 85 511 85 553 _c
85 611 105 657 147 691 _c
188 725 245 742 318 742 _c
}_e{390 742 447 725 489 691 _c
530 657 551 611 551 553 _c
551 511 539 476 515 447 _c
491 418 459 398 417 388 _c
464 377 501 355 528 323 _c
554 291 568 251 568 205 _c
568 134 546 80 503 43 _c
459 5 398 -13 318 -13 _c
237 -13 175 5 132 43 _c
89 80 68 134 68 205 _c
68 251 81 291 108 323 _c
134 355 171 377 219 388 _c
183 544 _m
183 506 194 476 218 455 _c
}_e{242 434 275 424 318 424 _c
360 424 393 434 417 455 _c
441 476 453 506 453 544 _c
453 582 441 611 417 632 _c
393 653 360 664 318 664 _c
275 664 242 653 218 632 _c
194 611 183 582 183 544 _c
_cl}_e}_d
/C{{698 0 56 -13 644 742 _sc
644 673 _m
644 569 _l
610 599 575 622 537 638 _c
499 653 460 661 418 661 _c
334 661 270 635 226 584 _c
182 533 160 460 160 364 _c
160 268 182 194 226 143 _c
270 92 334 67 418 67 _c
460 67 499 74 537 90 _c
575 105 610 128 644 159 _c
644 56 _l
609 32 572 15 534 4 _c
496 -7 455 -13 412 -13 _c
302 -13 215 20 151 87 _c
}_e{87 154 56 246 56 364 _c
56 481 87 573 151 641 _c
215 708 302 742 412 742 _c
456 742 497 736 535 725 _c
573 713 610 696 644 673 _c
_cl}_e}_d
/D{770 0 98 0 711 729 _sc
197 648 _m
197 81 _l
316 81 _l
416 81 490 103 537 149 _c
583 195 607 267 607 365 _c
607 463 583 534 537 580 _c
490 625 416 648 316 648 _c
197 648 _l
98 729 _m
301 729 _l
442 729 546 699 612 641 _c
678 582 711 490 711 365 _c
711 239 677 147 611 88 _c
545 29 441 0 301 0 _c
98 0 _l
98 729 _l
_cl}_d
/F{575 0 98 0 517 729 _sc
98 729 _m
517 729 _l
517 646 _l
197 646 _l
197 431 _l
486 431 _l
486 348 _l
197 348 _l
197 0 _l
98 0 _l
98 729 _l
_cl}_d
/G{{775 0 56 -13 693 742 _sc
595 104 _m
595 300 _l
434 300 _l
434 381 _l
693 381 _l
693 68 _l
655 40 613 20 567 7 _c
521 -6 472 -13 420 -13 _c
306 -13 216 20 152 86 _c
88 152 56 245 56 364 _c
56 482 88 575 152 642 _c
216 708 306 742 420 742 _c
467 742 512 736 555 724 _c
598 712 638 695 674 673 _c
674 568 _l
637 598 598 621 557 637 _c
516 653 473 661 428 661 _c
}_e{338 661 271 636 227 586 _c
182 536 160 462 160 364 _c
160 265 182 191 227 141 _c
271 91 338 67 428 67 _c
462 67 493 70 521 76 _c
549 82 573 91 595 104 _c
_cl}_e}_d
/H{752 0 98 0 654 729 _sc
98 729 _m
197 729 _l
197 430 _l
555 430 _l
555 729 _l
654 729 _l
654 0 _l
555 0 _l
555 347 _l
197 347 _l
197 0 _l
98 0 _l
98 729 _l
_cl}_d
/N{748 0 98 0 650 729 _sc
98 729 _m
231 729 _l
554 119 _l
554 729 _l
650 729 _l
650 0 _l
517 0 _l
194 610 _l
194 0 _l
98 0 _l
98 729 _l
_cl}_d
/P{603 0 98 0 569 729 _sc
197 648 _m
197 374 _l
321 374 _l
367 374 402 385 427 409 _c
452 433 465 467 465 511 _c
465 555 452 588 427 612 _c
402 636 367 648 321 648 _c
197 648 _l
98 729 _m
321 729 _l
402 729 464 710 506 673 _c
548 636 569 582 569 511 _c
569 439 548 384 506 348 _c
464 311 402 293 321 293 _c
197 293 _l
197 0 _l
98 0 _l
98 729 _l
_cl}_d
/U{732 0 87 -13 645 729 _sc
87 729 _m
186 729 _l
186 286 _l
186 208 200 151 228 117 _c
256 83 302 66 366 66 _c
429 66 475 83 503 117 _c
531 151 546 208 546 286 _c
546 729 _l
645 729 _l
645 274 _l
645 178 621 107 574 59 _c
527 11 458 -13 366 -13 _c
274 -13 204 11 157 59 _c
110 107 87 178 87 274 _c
87 729 _l
_cl}_d
/W{989 0 33 0 956 729 _sc
33 729 _m
133 729 _l
286 113 _l
439 729 _l
550 729 _l
703 113 _l
856 729 _l
956 729 _l
773 0 _l
649 0 _l
495 633 _l
340 0 _l
216 0 _l
33 729 _l
_cl}_d
/a{{613 0 60 -13 522 560 _sc
343 275 _m
270 275 220 266 192 250 _c
164 233 150 205 150 165 _c
150 133 160 107 181 89 _c
202 70 231 61 267 61 _c
317 61 357 78 387 114 _c
417 149 432 196 432 255 _c
432 275 _l
343 275 _l
522 312 _m
522 0 _l
432 0 _l
432 83 _l
411 49 385 25 355 10 _c
325 -5 287 -13 243 -13 _c
187 -13 142 2 109 33 _c
76 64 60 106 60 159 _c
}_e{60 220 80 266 122 298 _c
163 329 224 345 306 345 _c
432 345 _l
432 354 _l
432 395 418 427 391 450 _c
364 472 326 484 277 484 _c
245 484 215 480 185 472 _c
155 464 127 453 100 439 _c
100 522 _l
132 534 164 544 195 550 _c
226 556 256 560 286 560 _c
365 560 424 539 463 498 _c
502 457 522 395 522 312 _c
_cl}_e}_d
/b{{635 0 91 -13 580 760 _sc
487 273 _m
487 339 473 390 446 428 _c
418 466 381 485 334 485 _c
286 485 249 466 222 428 _c
194 390 181 339 181 273 _c
181 207 194 155 222 117 _c
249 79 286 61 334 61 _c
381 61 418 79 446 117 _c
473 155 487 207 487 273 _c
181 464 _m
199 496 223 520 252 536 _c
281 552 316 560 356 560 _c
422 560 476 533 518 481 _c
559 428 580 359 580 273 _c
}_e{580 187 559 117 518 65 _c
476 13 422 -13 356 -13 _c
316 -13 281 -5 252 10 _c
223 25 199 49 181 82 _c
181 0 _l
91 0 _l
91 760 _l
181 760 _l
181 464 _l
_cl}_e}_d
/d{{635 0 55 -13 544 760 _sc
454 464 _m
454 760 _l
544 760 _l
544 0 _l
454 0 _l
454 82 _l
435 49 411 25 382 10 _c
353 -5 319 -13 279 -13 _c
213 -13 159 13 117 65 _c
75 117 55 187 55 273 _c
55 359 75 428 117 481 _c
159 533 213 560 279 560 _c
319 560 353 552 382 536 _c
411 520 435 496 454 464 _c
148 273 _m
148 207 161 155 188 117 _c
215 79 253 61 301 61 _c
}_e{348 61 385 79 413 117 _c
440 155 454 207 454 273 _c
454 339 440 390 413 428 _c
385 466 348 485 301 485 _c
253 485 215 466 188 428 _c
161 390 148 339 148 273 _c
_cl}_e}_d
/e{{615 0 55 -13 562 560 _sc
562 296 _m
562 252 _l
149 252 _l
153 190 171 142 205 110 _c
238 78 284 62 344 62 _c
378 62 412 66 444 74 _c
476 82 509 95 541 113 _c
541 28 _l
509 14 476 3 442 -3 _c
408 -9 373 -13 339 -13 _c
251 -13 182 12 131 62 _c
80 112 55 181 55 268 _c
55 357 79 428 127 481 _c
175 533 241 560 323 560 _c
397 560 455 536 498 489 _c
}_e{540 441 562 377 562 296 _c
472 322 _m
471 371 457 410 431 440 _c
404 469 368 484 324 484 _c
274 484 234 469 204 441 _c
174 413 156 373 152 322 _c
472 322 _l
_cl}_e}_d
/h{634 0 91 0 549 760 _sc
549 330 _m
549 0 _l
459 0 _l
459 327 _l
459 379 448 417 428 443 _c
408 469 378 482 338 482 _c
289 482 251 466 223 435 _c
195 404 181 362 181 309 _c
181 0 _l
91 0 _l
91 760 _l
181 760 _l
181 462 _l
202 494 227 519 257 535 _c
286 551 320 560 358 560 _c
420 560 468 540 500 501 _c
532 462 549 405 549 330 _c
_cl}_d
/i{278 0 94 0 184 760 _sc
94 547 _m
184 547 _l
184 0 _l
94 0 _l
94 547 _l
94 760 _m
184 760 _l
184 646 _l
94 646 _l
94 760 _l
_cl}_d
/m{{974 0 91 0 889 560 _sc
520 442 _m
542 482 569 511 600 531 _c
631 550 668 560 711 560 _c
767 560 811 540 842 500 _c
873 460 889 403 889 330 _c
889 0 _l
799 0 _l
799 327 _l
799 379 789 418 771 444 _c
752 469 724 482 686 482 _c
639 482 602 466 575 435 _c
548 404 535 362 535 309 _c
535 0 _l
445 0 _l
445 327 _l
445 379 435 418 417 444 _c
398 469 369 482 331 482 _c
}_e{285 482 248 466 221 435 _c
194 404 181 362 181 309 _c
181 0 _l
91 0 _l
91 547 _l
181 547 _l
181 462 _l
201 495 226 520 255 536 _c
283 552 317 560 357 560 _c
397 560 430 550 458 530 _c
486 510 506 480 520 442 _c
_cl}_e}_d
/n{634 0 91 0 549 560 _sc
549 330 _m
549 0 _l
459 0 _l
459 327 _l
459 379 448 417 428 443 _c
408 469 378 482 338 482 _c
289 482 251 466 223 435 _c
195 404 181 362 181 309 _c
181 0 _l
91 0 _l
91 547 _l
181 547 _l
181 462 _l
202 494 227 519 257 535 _c
286 551 320 560 358 560 _c
420 560 468 540 500 501 _c
532 462 549 405 549 330 _c
_cl}_d
/o{612 0 55 -13 557 560 _sc
306 484 _m
258 484 220 465 192 427 _c
164 389 150 338 150 273 _c
150 207 163 156 191 118 _c
219 80 257 62 306 62 _c
354 62 392 80 420 118 _c
448 156 462 207 462 273 _c
462 337 448 389 420 427 _c
392 465 354 484 306 484 _c
306 560 _m
384 560 445 534 490 484 _c
534 433 557 363 557 273 _c
557 183 534 113 490 63 _c
445 12 384 -13 306 -13 _c
227 -13 165 12 121 63 _c
77 113 55 183 55 273 _c
55 363 77 433 121 484 _c
165 534 227 560 306 560 _c
_cl}_d
/p{{635 0 91 -207 580 560 _sc
181 82 _m
181 -207 _l
91 -207 _l
91 547 _l
181 547 _l
181 464 _l
199 496 223 520 252 536 _c
281 552 316 560 356 560 _c
422 560 476 533 518 481 _c
559 428 580 359 580 273 _c
580 187 559 117 518 65 _c
476 13 422 -13 356 -13 _c
316 -13 281 -5 252 10 _c
223 25 199 49 181 82 _c
487 273 _m
487 339 473 390 446 428 _c
418 466 381 485 334 485 _c
}_e{286 485 249 466 222 428 _c
194 390 181 339 181 273 _c
181 207 194 155 222 117 _c
249 79 286 61 334 61 _c
381 61 418 79 446 117 _c
473 155 487 207 487 273 _c
_cl}_e}_d
/r{411 0 91 0 411 560 _sc
411 463 _m
401 469 390 473 378 476 _c
366 478 353 480 339 480 _c
288 480 249 463 222 430 _c
194 397 181 350 181 288 _c
181 0 _l
91 0 _l
91 547 _l
181 547 _l
181 462 _l
199 495 224 520 254 536 _c
284 552 321 560 365 560 _c
371 560 378 559 386 559 _c
393 558 401 557 411 555 _c
411 463 _l
_cl}_d
/s{{521 0 54 -13 472 560 _sc
443 531 _m
443 446 _l
417 458 391 468 364 475 _c
336 481 308 485 279 485 _c
234 485 200 478 178 464 _c
156 450 145 430 145 403 _c
145 382 153 366 169 354 _c
185 342 217 330 265 320 _c
296 313 _l
360 299 405 279 432 255 _c
458 230 472 195 472 151 _c
472 100 452 60 412 31 _c
372 1 316 -13 246 -13 _c
216 -13 186 -10 154 -5 _c
}_e{122 0 89 8 54 20 _c
54 113 _l
87 95 120 82 152 74 _c
184 65 216 61 248 61 _c
290 61 323 68 346 82 _c
368 96 380 117 380 144 _c
380 168 371 187 355 200 _c
339 213 303 226 247 238 _c
216 245 _l
160 257 119 275 95 299 _c
70 323 58 356 58 399 _c
58 450 76 490 112 518 _c
148 546 200 560 268 560 _c
301 560 332 557 362 552 _c
391 547 418 540 443 531 _c
}_e{_cl}_e}_d
/t{392 0 27 0 368 702 _sc
183 702 _m
183 547 _l
368 547 _l
368 477 _l
183 477 _l
183 180 _l
183 135 189 106 201 94 _c
213 81 238 75 276 75 _c
368 75 _l
368 0 _l
276 0 _l
206 0 158 13 132 39 _c
106 65 93 112 93 180 _c
93 477 _l
27 477 _l
27 547 _l
93 547 _l
93 702 _l
183 702 _l
_cl}_d
/u{634 0 85 -13 543 547 _sc
85 216 _m
85 547 _l
175 547 _l
175 219 _l
175 167 185 129 205 103 _c
225 77 255 64 296 64 _c
344 64 383 79 411 110 _c
439 141 453 183 453 237 _c
453 547 _l
543 547 _l
543 0 _l
453 0 _l
453 84 _l
431 50 405 26 377 10 _c
348 -5 315 -13 277 -13 _c
214 -13 166 6 134 45 _c
101 83 85 140 85 216 _c
_cl}_d
/w{818 0 42 0 776 547 _sc
42 547 _m
132 547 _l
244 120 _l
356 547 _l
462 547 _l
574 120 _l
686 547 _l
776 547 _l
633 0 _l
527 0 _l
409 448 _l
291 0 _l
185 0 _l
42 547 _l
_cl}_d
end readonly def

/BuildGlyph
 {exch begin
 CharStrings exch
 2 copy known not{pop /.notdef}if
 true 3 1 roll get exec
 end}_d

/BuildChar {
 1 index /Encoding get exch get
 1 index /BuildGlyph get exec
}_d

FontName currentdict end definefont pop
end
%%EndProlog
mpldict begin
18 180 translate
576 432 0 0 clipbox
gsave
0 0 m
576 0 l
576 432 l
0 432 l
cl
1.000 setgray
fill
grestore
gsave
72 231.709 m
518.4 231.709 l
518.4 388.8 l
72 388.8 l
cl
1.000 setgray
fill
grestore
1.000 setlinewidth
1 setlinejoin
2 setlinecap
[] 0 setdash
0.000 setgray
gsave
446.4 157.1 72 231.7 clipbox
72 231.709 m
72 231.709 l
72 233.018 l
72 233.018 l
cl
gsave
0.000 0.000 1.000 setrgbcolor
fill
grestore
stroke
grestore
gsave
446.4 157.1 72 231.7 clipbox
72 233.018 m
72 233.018 l
72 234.327 l
72 234.327 l
cl
gsave
0.000 0.000 1.000 setrgbcolor
fill
grestore
stroke
grestore
gsave
446.4 157.1 72 231.7 clipbox
72 234.327 m
72 234.327 l
72 235.636 l
72 235.636 l
cl
gsave
0.000 0.000 1.000 setrgbcolor
fill
grestore
stroke
grestore
gsave
446.4 157.1 72 231.7 clipbox
72 235.636 m
72.0044 235.636 l
72.0044 236.945 l
72 236.945 l
cl
gsave
0.000 0.000 1.000 setrgbcolor
fill
grestore
stroke
grestore
gsave
446.4 157.1 72 231.7 clipbox
72 236.945 m
72 236.945 l
72 238.255 l
72 238.255 l
cl
gsave
0.000 0.000 1.000 setrgbcolor
fill
grestore
stroke
grestore
gsave
446.4 157.1 72 231.7 clipbox
72 238.255 m
72 238.255 l
72 239.564 l
72 239.564 l
cl
gsave
0.000 0.000 1.000 setrgbcolor
fill
grestore
stroke
grestore
gsave
446.4 157.1 72 231.7 clipbox
72 239.564 m
72 239.564 l
72 240.873 l
72 240.873 l
cl
gsave
0.000 0.000 1.000 setrgbcolor
fill
grestore
stroke
grestore
gsave
446.4 157.1 72 231.7 clipbox
72 240.873 m
72 240.873 l
72 242.182 l
72 242.182 l
cl
gsave
0.000 0.000 1.000 setrgbcolor
fill
grestore
stroke
grestore
gsave
446.4 157.1 72 231.7 clipbox
72 242.182 m
72 242.182 l
72 243.491 l
72 243.491 l
cl
gsave
0.000 0.000 1.000 setrgbcolor
fill
grestore
stroke
grestore
gsave
446.4 157.1 72 231.7 clipbox
72 243.491 m
72 243.491 l
72 244.8 l
72 244.8 l
cl
gsave
0.000 0.000 1.000 setrgbcolor
fill
grestore
stroke
grestore
gsave
446.4 157.1 72 231.7 clipbox
72 244.8 m
72.0044 244.8 l
72.0044 246.109 l
72 246.109 l
cl
gsave
0.000 0.000 1.000 setrgbcolor
fill
grestore
stroke
grestore
gsave
446.4 157.1 72 231.7 clipbox
72 246.109 m
72 246.109 l
72 247.418 l
72 247.418 l
cl
gsave
0.000 0.000 1.000 setrgbcolor
fill
grestore
stroke
grestore
gsave
446.4 157.1 72 231.7 clipbox
72 247.418 m
72 247.418 l
72 248.727 l
72 248.727 l
cl
gsave
0.000 0.000 1.000 setrgbcolor
fill
grestore
stroke
grestore
gsave
446.4 157.1 72 231.7 clipbox
72 248.727 m
72.0044 248.727 l
72.0044 250.036 l
72 250.036 l
cl
gsave
0.000 0.000 1.000 setrgbcolor
fill
grestore
stroke
grestore
gsave
446.4 157.1 72 231.7 clipbox
72 250.036 m
72.0088 250.036 l
72.0088 251.345 l
72 251.345 l
cl
gsave
0.000 0.000 1.000 setrgbcolor
fill
grestore
stroke
grestore
gsave
446.4 157.1 72 231.7 clipbox
72 251.345 m
73.0943 251.345 l
73.0943 252.655 l
72 252.655 l
cl
gsave
0.000 0.000 1.000 setrgbcolor
fill
grestore
stroke
grestore
gsave
446.4 157.1 72 231.7 clipbox
72 252.655 m
184.002 252.655 l
184.002 253.964 l
72 253.964 l
cl
gsave
0.000 0.000 1.000 setrgbcolor
fill
grestore
stroke
grestore
gsave
446.4 157.1 72 231.7 clipbox
72 253.964 m
485.697 253.964 l
485.697 255.273 l
72 255.273 l
cl
gsave
0.000 0.000 1.000 setrgbcolor
fill
grestore
stroke
grestore
gsave
446.4 157.1 72 231.7 clipbox
72 255.273 m
431.805 255.273 l
431.805 256.582 l
72 256.582 l
cl
gsave
0.000 0.000 1.000 setrgbcolor
fill
grestore
stroke
grestore
gsave
446.4 157.1 72 231.7 clipbox
72 256.582 m
195.664 256.582 l
195.664 257.891 l
72 257.891 l
cl
gsave
0.000 0.000 1.000 setrgbcolor
fill
grestore
stroke
grestore
gsave
446.4 157.1 72 231.7 clipbox
72 257.891 m
163.529 257.891 l
163.529 259.2 l
72 259.2 l
cl
gsave
0.000 0.000 1.000 setrgbcolor
fill
grestore
stroke
grestore
gsave
446.4 157.1 72 231.7 clipbox
72 259.2 m
121.44 259.2 l
121.44 260.509 l
72 260.509 l
cl
gsave
0.000 0.000 1.000 setrgbcolor
fill
grestore
stroke
grestore
gsave
446.4 157.1 72 231.7 clipbox
72 260.509 m
94.4189 260.509 l
94.4189 261.818 l
72 261.818 l
cl
gsave
0.000 0.000 1.000 setrgbcolor
fill
grestore
stroke
grestore
gsave
446.4 157.1 72 231.7 clipbox
72 261.818 m
130.476 261.818 l
130.476 263.127 l
72 263.127 l
cl
gsave
0.000 0.000 1.000 setrgbcolor
fill
grestore
stroke
grestore
gsave
446.4 157.1 72 231.7 clipbox
72 263.127 m
155.525 263.127 l
155.525 264.436 l
72 264.436 l
cl
gsave
0.000 0.000 1.000 setrgbcolor
fill
grestore
stroke
grestore
gsave
446.4 157.1 72 231.7 clipbox
72 264.436 m
85.5766 264.436 l
85.5766 265.745 l
72 265.745 l
cl
gsave
0.000 0.000 1.000 setrgbcolor
fill
grestore
stroke
grestore
gsave
446.4 157.1 72 231.7 clipbox
72 265.745 m
75.1239 265.745 l
75.1239 267.055 l
72 267.055 l
cl
gsave
0.000 0.000 1.000 setrgbcolor
fill
grestore
stroke
grestore
gsave
446.4 157.1 72 231.7 clipbox
72 267.055 m
78.9008 267.055 l
78.9008 268.364 l
72 268.364 l
cl
gsave
0.000 0.000 1.000 setrgbcolor
fill
grestore
stroke
grestore
gsave
446.4 157.1 72 231.7 clipbox
72 268.364 m
89.0491 268.364 l
89.0491 269.673 l
72 269.673 l
cl
gsave
0.000 0.000 1.000 setrgbcolor
fill
grestore
stroke
grestore
gsave
446.4 157.1 72 231.7 clipbox
72 269.673 m
101.156 269.673 l
101.156 270.982 l
72 270.982 l
cl
gsave
0.000 0.000 1.000 setrgbcolor
fill
grestore
stroke
grestore
gsave
446.4 157.1 72 231.7 clipbox
72 270.982 m
107.237 270.982 l
107.237 272.291 l
72 272.291 l
cl
gsave
0.000 0.000 1.000 setrgbcolor
fill
grestore
stroke
grestore
gsave
446.4 157.1 72 231.7 clipbox
72 272.291 m
109.315 272.291 l
109.315 273.6 l
72 273.6 l
cl
gsave
0.000 0.000 1.000 setrgbcolor
fill
grestore
stroke
grestore
gsave
446.4 157.1 72 231.7 clipbox
72 273.6 m
101.042 273.6 l
101.042 274.909 l
72 274.909 l
cl
gsave
0.000 0.000 1.000 setrgbcolor
fill
grestore
stroke
grestore
gsave
446.4 157.1 72 231.7 clipbox
72 274.909 m
91.723 274.909 l
91.723 276.218 l
72 276.218 l
cl
gsave
0.000 0.000 1.000 setrgbcolor
fill
grestore
stroke
grestore
gsave
446.4 157.1 72 231.7 clipbox
72 276.218 m
84.8354 276.218 l
84.8354 277.527 l
72 277.527 l
cl
gsave
0.000 0.000 1.000 setrgbcolor
fill
grestore
stroke
grestore
gsave
446.4 157.1 72 231.7 clipbox
72 277.527 m
77.2021 277.527 l
77.2021 278.836 l
72 278.836 l
cl
gsave
0.000 0.000 1.000 setrgbcolor
fill
grestore
stroke
grestore
gsave
446.4 157.1 72 231.7 clipbox
72 278.836 m
74.793 278.836 l
74.793 280.145 l
72 280.145 l
cl
gsave
0.000 0.000 1.000 setrgbcolor
fill
grestore
stroke
grestore
gsave
446.4 157.1 72 231.7 clipbox
72 280.145 m
75.7063 280.145 l
75.7063 281.455 l
72 281.455 l
cl
gsave
0.000 0.000 1.000 setrgbcolor
fill
grestore
stroke
grestore
gsave
446.4 157.1 72 231.7 clipbox
72 281.455 m
78.4817 281.455 l
78.4817 282.764 l
72 282.764 l
cl
gsave
0.000 0.000 1.000 setrgbcolor
fill
grestore
stroke
grestore
gsave
446.4 157.1 72 231.7 clipbox
72 282.764 m
83.6617 282.764 l
83.6617 284.073 l
72 284.073 l
cl
gsave
0.000 0.000 1.000 setrgbcolor
fill
grestore
stroke
grestore
gsave
446.4 157.1 72 231.7 clipbox
72 284.073 m
84.478 284.073 l
84.478 285.382 l
72 285.382 l
cl
gsave
0.000 0.000 1.000 setrgbcolor
fill
grestore
stroke
grestore
gsave
446.4 157.1 72 231.7 clipbox
72 285.382 m
83.0219 285.382 l
83.0219 286.691 l
72 286.691 l
cl
gsave
0.000 0.000 1.000 setrgbcolor
fill
grestore
stroke
grestore
gsave
446.4 157.1 72 231.7 clipbox
72 286.691 m
79.8407 286.691 l
79.8407 288 l
72 288 l
cl
gsave
0.000 0.000 1.000 setrgbcolor
fill
grestore
stroke
grestore
gsave
446.4 157.1 72 231.7 clipbox
72 288 m
79.3641 288 l
79.3641 289.309 l
72 289.309 l
cl
gsave
0.000 0.000 1.000 setrgbcolor
fill
grestore
stroke
grestore
gsave
446.4 157.1 72 231.7 clipbox
72 289.309 m
85.4752 289.309 l
85.4752 290.618 l
72 290.618 l
cl
gsave
0.000 0.000 1.000 setrgbcolor
fill
grestore
stroke
grestore
gsave
446.4 157.1 72 231.7 clipbox
72 290.618 m
81.1158 290.618 l
81.1158 291.927 l
72 291.927 l
cl
gsave
0.000 0.000 1.000 setrgbcolor
fill
grestore
stroke
grestore
gsave
446.4 157.1 72 231.7 clipbox
72 291.927 m
79.1259 291.927 l
79.1259 293.236 l
72 293.236 l
cl
gsave
0.000 0.000 1.000 setrgbcolor
fill
grestore
stroke
grestore
gsave
446.4 157.1 72 231.7 clipbox
72 293.236 m
78.014 293.236 l
78.014 294.545 l
72 294.545 l
cl
gsave
0.000 0.000 1.000 setrgbcolor
fill
grestore
stroke
grestore
gsave
446.4 157.1 72 231.7 clipbox
72 294.545 m
77.6433 294.545 l
77.6433 295.855 l
72 295.855 l
cl
gsave
0.000 0.000 1.000 setrgbcolor
fill
grestore
stroke
grestore
gsave
446.4 157.1 72 231.7 clipbox
72 295.855 m
78.3405 295.855 l
78.3405 297.164 l
72 297.164 l
cl
gsave
0.000 0.000 1.000 setrgbcolor
fill
grestore
stroke
grestore
gsave
446.4 157.1 72 231.7 clipbox
72 297.164 m
76.8315 297.164 l
76.8315 298.473 l
72 298.473 l
cl
gsave
0.000 0.000 1.000 setrgbcolor
fill
grestore
stroke
grestore
gsave
446.4 157.1 72 231.7 clipbox
72 298.473 m
77.0609 298.473 l
77.0609 299.782 l
72 299.782 l
cl
gsave
0.000 0.000 1.000 setrgbcolor
fill
grestore
stroke
grestore
gsave
446.4 157.1 72 231.7 clipbox
72 299.782 m
86.6974 299.782 l
86.6974 301.091 l
72 301.091 l
cl
gsave
0.000 0.000 1.000 setrgbcolor
fill
grestore
stroke
grestore
gsave
446.4 157.1 72 231.7 clipbox
72 301.091 m
83.569 301.091 l
83.569 302.4 l
72 302.4 l
cl
gsave
0.000 0.000 1.000 setrgbcolor
fill
grestore
stroke
grestore
gsave
446.4 157.1 72 231.7 clipbox
72 302.4 m
77.2771 302.4 l
77.2771 303.709 l
72 303.709 l
cl
gsave
0.000 0.000 1.000 setrgbcolor
fill
grestore
stroke
grestore
gsave
446.4 157.1 72 231.7 clipbox
72 303.709 m
79.9157 303.709 l
79.9157 305.018 l
72 305.018 l
cl
gsave
0.000 0.000 1.000 setrgbcolor
fill
grestore
stroke
grestore
gsave
446.4 157.1 72 231.7 clipbox
72 305.018 m
79.5936 305.018 l
79.5936 306.327 l
72 306.327 l
cl
gsave
0.000 0.000 1.000 setrgbcolor
fill
grestore
stroke
grestore
gsave
446.4 157.1 72 231.7 clipbox
72 306.327 m
76.6241 306.327 l
76.6241 307.636 l
72 307.636 l
cl
gsave
0.000 0.000 1.000 setrgbcolor
fill
grestore
stroke
grestore
gsave
446.4 157.1 72 231.7 clipbox
72 307.636 m
81.7159 307.636 l
81.7159 308.945 l
72 308.945 l
cl
gsave
0.000 0.000 1.000 setrgbcolor
fill
grestore
stroke
grestore
gsave
446.4 157.1 72 231.7 clipbox
72 308.945 m
80.2686 308.945 l
80.2686 310.255 l
72 310.255 l
cl
gsave
0.000 0.000 1.000 setrgbcolor
fill
grestore
stroke
grestore
gsave
446.4 157.1 72 231.7 clipbox
72 310.255 m
76.8315 310.255 l
76.8315 311.564 l
72 311.564 l
cl
gsave
0.000 0.000 1.000 setrgbcolor
fill
grestore
stroke
grestore
gsave
446.4 157.1 72 231.7 clipbox
72 311.564 m
79.6686 311.564 l
79.6686 312.873 l
72 312.873 l
cl
gsave
0.000 0.000 1.000 setrgbcolor
fill
grestore
stroke
grestore
gsave
446.4 157.1 72 231.7 clipbox
72 312.873 m
76.0681 312.873 l
76.0681 314.182 l
72 314.182 l
cl
gsave
0.000 0.000 1.000 setrgbcolor
fill
grestore
stroke
grestore
gsave
446.4 157.1 72 231.7 clipbox
72 314.182 m
74.3253 314.182 l
74.3253 315.491 l
72 315.491 l
cl
gsave
0.000 0.000 1.000 setrgbcolor
fill
grestore
stroke
grestore
gsave
446.4 157.1 72 231.7 clipbox
72 315.491 m
73.8885 315.491 l
73.8885 316.8 l
72 316.8 l
cl
gsave
0.000 0.000 1.000 setrgbcolor
fill
grestore
stroke
grestore
gsave
446.4 157.1 72 231.7 clipbox
72 316.8 m
73.7914 316.8 l
73.7914 318.109 l
72 318.109 l
cl
gsave
0.000 0.000 1.000 setrgbcolor
fill
grestore
stroke
grestore
gsave
446.4 157.1 72 231.7 clipbox
72 318.109 m
73.7429 318.109 l
73.7429 319.418 l
72 319.418 l
cl
gsave
0.000 0.000 1.000 setrgbcolor
fill
grestore
stroke
grestore
gsave
446.4 157.1 72 231.7 clipbox
72 319.418 m
74.9695 319.418 l
74.9695 320.727 l
72 320.727 l
cl
gsave
0.000 0.000 1.000 setrgbcolor
fill
grestore
stroke
grestore
gsave
446.4 157.1 72 231.7 clipbox
72 320.727 m
77.8772 320.727 l
77.8772 322.036 l
72 322.036 l
cl
gsave
0.000 0.000 1.000 setrgbcolor
fill
grestore
stroke
grestore
gsave
446.4 157.1 72 231.7 clipbox
72 322.036 m
74.1488 322.036 l
74.1488 323.345 l
72 323.345 l
cl
gsave
0.000 0.000 1.000 setrgbcolor
fill
grestore
stroke
grestore
gsave
446.4 157.1 72 231.7 clipbox
72 323.345 m
73.7826 323.345 l
73.7826 324.655 l
72 324.655 l
cl
gsave
0.000 0.000 1.000 setrgbcolor
fill
grestore
stroke
grestore
gsave
446.4 157.1 72 231.7 clipbox
72 324.655 m
73.637 324.655 l
73.637 325.964 l
72 325.964 l
cl
gsave
0.000 0.000 1.000 setrgbcolor
fill
grestore
stroke
grestore
gsave
446.4 157.1 72 231.7 clipbox
72 325.964 m
73.3193 325.964 l
73.3193 327.273 l
72 327.273 l
cl
gsave
0.000 0.000 1.000 setrgbcolor
fill
grestore
stroke
grestore
gsave
446.4 157.1 72 231.7 clipbox
72 327.273 m
72.9884 327.273 l
72.9884 328.582 l
72 328.582 l
cl
gsave
0.000 0.000 1.000 setrgbcolor
fill
grestore
stroke
grestore
gsave
446.4 157.1 72 231.7 clipbox
72 328.582 m
72.8472 328.582 l
72.8472 329.891 l
72 329.891 l
cl
gsave
0.000 0.000 1.000 setrgbcolor
fill
grestore
stroke
grestore
gsave
446.4 157.1 72 231.7 clipbox
72 329.891 m
72.7633 329.891 l
72.7633 331.2 l
72 331.2 l
cl
gsave
0.000 0.000 1.000 setrgbcolor
fill
grestore
stroke
grestore
gsave
446.4 157.1 72 231.7 clipbox
72 331.2 m
72.7457 331.2 l
72.7457 332.509 l
72 332.509 l
cl
gsave
0.000 0.000 1.000 setrgbcolor
fill
grestore
stroke
grestore
gsave
446.4 157.1 72 231.7 clipbox
72 332.509 m
72.5559 332.509 l
72.5559 333.818 l
72 333.818 l
cl
gsave
0.000 0.000 1.000 setrgbcolor
fill
grestore
stroke
grestore
gsave
446.4 157.1 72 231.7 clipbox
72 333.818 m
72.4412 333.818 l
72.4412 335.127 l
72 335.127 l
cl
gsave
0.000 0.000 1.000 setrgbcolor
fill
grestore
stroke
grestore
gsave
446.4 157.1 72 231.7 clipbox
72 335.127 m
72.4103 335.127 l
72.4103 336.436 l
72 336.436 l
cl
gsave
0.000 0.000 1.000 setrgbcolor
fill
grestore
stroke
grestore
gsave
446.4 157.1 72 231.7 clipbox
72 336.436 m
72.3927 336.436 l
72.3927 337.745 l
72 337.745 l
cl
gsave
0.000 0.000 1.000 setrgbcolor
fill
grestore
stroke
grestore
gsave
446.4 157.1 72 231.7 clipbox
72 337.745 m
72.4412 337.745 l
72.4412 339.055 l
72 339.055 l
cl
gsave
0.000 0.000 1.000 setrgbcolor
fill
grestore
stroke
grestore
gsave
446.4 157.1 72 231.7 clipbox
72 339.055 m
72.375 339.055 l
72.375 340.364 l
72 340.364 l
cl
gsave
0.000 0.000 1.000 setrgbcolor
fill
grestore
stroke
grestore
gsave
446.4 157.1 72 231.7 clipbox
72 340.364 m
72.4148 340.364 l
72.4148 341.673 l
72 341.673 l
cl
gsave
0.000 0.000 1.000 setrgbcolor
fill
grestore
stroke
grestore
gsave
446.4 157.1 72 231.7 clipbox
72 341.673 m
72.4148 341.673 l
72.4148 342.982 l
72 342.982 l
cl
gsave
0.000 0.000 1.000 setrgbcolor
fill
grestore
stroke
grestore
gsave
446.4 157.1 72 231.7 clipbox
72 342.982 m
72.3309 342.982 l
72.3309 344.291 l
72 344.291 l
cl
gsave
0.000 0.000 1.000 setrgbcolor
fill
grestore
stroke
grestore
gsave
446.4 157.1 72 231.7 clipbox
72 344.291 m
72.4721 344.291 l
72.4721 345.6 l
72 345.6 l
cl
gsave
0.000 0.000 1.000 setrgbcolor
fill
grestore
stroke
grestore
gsave
446.4 157.1 72 231.7 clipbox
72 345.6 m
73.6281 345.6 l
73.6281 346.909 l
72 346.909 l
cl
gsave
0.000 0.000 1.000 setrgbcolor
fill
grestore
stroke
grestore
gsave
446.4 157.1 72 231.7 clipbox
72 346.909 m
74.6871 346.909 l
74.6871 348.218 l
72 348.218 l
cl
gsave
0.000 0.000 1.000 setrgbcolor
fill
grestore
stroke
grestore
gsave
446.4 157.1 72 231.7 clipbox
72 348.218 m
74.6297 348.218 l
74.6297 349.527 l
72 349.527 l
cl
gsave
0.000 0.000 1.000 setrgbcolor
fill
grestore
stroke
grestore
gsave
446.4 157.1 72 231.7 clipbox
72 349.527 m
74.6474 349.527 l
74.6474 350.836 l
72 350.836 l
cl
gsave
0.000 0.000 1.000 setrgbcolor
fill
grestore
stroke
grestore
gsave
446.4 157.1 72 231.7 clipbox
72 350.836 m
74.2812 350.836 l
74.2812 352.145 l
72 352.145 l
cl
gsave
0.000 0.000 1.000 setrgbcolor
fill
grestore
stroke
grestore
gsave
446.4 157.1 72 231.7 clipbox
72 352.145 m
74.8503 352.145 l
74.8503 353.455 l
72 353.455 l
cl
gsave
0.000 0.000 1.000 setrgbcolor
fill
grestore
stroke
grestore
gsave
446.4 157.1 72 231.7 clipbox
72 353.455 m
72.9795 353.455 l
72.9795 354.764 l
72 354.764 l
cl
gsave
0.000 0.000 1.000 setrgbcolor
fill
grestore
stroke
grestore
gsave
446.4 157.1 72 231.7 clipbox
72 354.764 m
72.4059 354.764 l
72.4059 356.073 l
72 356.073 l
cl
gsave
0.000 0.000 1.000 setrgbcolor
fill
grestore
stroke
grestore
gsave
446.4 157.1 72 231.7 clipbox
72 356.073 m
72.3044 356.073 l
72.3044 357.382 l
72 357.382 l
cl
gsave
0.000 0.000 1.000 setrgbcolor
fill
grestore
stroke
grestore
gsave
446.4 157.1 72 231.7 clipbox
72 357.382 m
72.2692 357.382 l
72.2692 358.691 l
72 358.691 l
cl
gsave
0.000 0.000 1.000 setrgbcolor
fill
grestore
stroke
grestore
gsave
446.4 157.1 72 231.7 clipbox
72 358.691 m
72.2162 358.691 l
72.2162 360 l
72 360 l
cl
gsave
0.000 0.000 1.000 setrgbcolor
fill
grestore
stroke
grestore
gsave
446.4 157.1 72 231.7 clipbox
72 360 m
72.2824 360 l
72.2824 361.309 l
72 361.309 l
cl
gsave
0.000 0.000 1.000 setrgbcolor
fill
grestore
stroke
grestore
gsave
446.4 157.1 72 231.7 clipbox
72 361.309 m
73.4693 361.309 l
73.4693 362.618 l
72 362.618 l
cl
gsave
0.000 0.000 1.000 setrgbcolor
fill
grestore
stroke
grestore
gsave
446.4 157.1 72 231.7 clipbox
72 362.618 m
72.8825 362.618 l
72.8825 363.927 l
72 363.927 l
cl
gsave
0.000 0.000 1.000 setrgbcolor
fill
grestore
stroke
grestore
gsave
446.4 157.1 72 231.7 clipbox
72 363.927 m
72.2515 363.927 l
72.2515 365.236 l
72 365.236 l
cl
gsave
0.000 0.000 1.000 setrgbcolor
fill
grestore
stroke
grestore
gsave
446.4 157.1 72 231.7 clipbox
72 365.236 m
72.2118 365.236 l
72.2118 366.545 l
72 366.545 l
cl
gsave
0.000 0.000 1.000 setrgbcolor
fill
grestore
stroke
grestore
gsave
446.4 157.1 72 231.7 clipbox
72 366.545 m
72.2559 366.545 l
72.2559 367.855 l
72 367.855 l
cl
gsave
0.000 0.000 1.000 setrgbcolor
fill
grestore
stroke
grestore
gsave
446.4 157.1 72 231.7 clipbox
72 367.855 m
72.2074 367.855 l
72.2074 369.164 l
72 369.164 l
cl
gsave
0.000 0.000 1.000 setrgbcolor
fill
grestore
stroke
grestore
gsave
446.4 157.1 72 231.7 clipbox
72 369.164 m
72.1897 369.164 l
72.1897 370.473 l
72 370.473 l
cl
gsave
0.000 0.000 1.000 setrgbcolor
fill
grestore
stroke
grestore
gsave
446.4 157.1 72 231.7 clipbox
72 370.473 m
72.2559 370.473 l
72.2559 371.782 l
72 371.782 l
cl
gsave
0.000 0.000 1.000 setrgbcolor
fill
grestore
stroke
grestore
gsave
446.4 157.1 72 231.7 clipbox
72 371.782 m
72.2427 371.782 l
72.2427 373.091 l
72 373.091 l
cl
gsave
0.000 0.000 1.000 setrgbcolor
fill
grestore
stroke
grestore
gsave
446.4 157.1 72 231.7 clipbox
72 373.091 m
72.1588 373.091 l
72.1588 374.4 l
72 374.4 l
cl
gsave
0.000 0.000 1.000 setrgbcolor
fill
grestore
stroke
grestore
gsave
446.4 157.1 72 231.7 clipbox
72 374.4 m
72.1588 374.4 l
72.1588 375.709 l
72 375.709 l
cl
gsave
0.000 0.000 1.000 setrgbcolor
fill
grestore
stroke
grestore
gsave
446.4 157.1 72 231.7 clipbox
72 375.709 m
72.1633 375.709 l
72.1633 377.018 l
72 377.018 l
cl
gsave
0.000 0.000 1.000 setrgbcolor
fill
grestore
stroke
grestore
gsave
446.4 157.1 72 231.7 clipbox
72 377.018 m
72.1633 377.018 l
72.1633 378.327 l
72 378.327 l
cl
gsave
0.000 0.000 1.000 setrgbcolor
fill
grestore
stroke
grestore
gsave
446.4 157.1 72 231.7 clipbox
72 378.327 m
72.1897 378.327 l
72.1897 379.636 l
72 379.636 l
cl
gsave
0.000 0.000 1.000 setrgbcolor
fill
grestore
stroke
grestore
gsave
446.4 157.1 72 231.7 clipbox
72 379.636 m
72.1544 379.636 l
72.1544 380.945 l
72 380.945 l
cl
gsave
0.000 0.000 1.000 setrgbcolor
fill
grestore
stroke
grestore
gsave
446.4 157.1 72 231.7 clipbox
72 380.945 m
72.1324 380.945 l
72.1324 382.255 l
72 382.255 l
cl
gsave
0.000 0.000 1.000 setrgbcolor
fill
grestore
stroke
grestore
gsave
446.4 157.1 72 231.7 clipbox
72 382.255 m
72.0574 382.255 l
72.0574 383.564 l
72 383.564 l
cl
gsave
0.000 0.000 1.000 setrgbcolor
fill
grestore
stroke
grestore
gsave
446.4 157.1 72 231.7 clipbox
72 383.564 m
72.0706 383.564 l
72.0706 384.873 l
72 384.873 l
cl
gsave
0.000 0.000 1.000 setrgbcolor
fill
grestore
stroke
grestore
gsave
446.4 157.1 72 231.7 clipbox
72 384.873 m
72.0529 384.873 l
72.0529 386.182 l
72 386.182 l
cl
gsave
0.000 0.000 1.000 setrgbcolor
fill
grestore
stroke
grestore
gsave
446.4 157.1 72 231.7 clipbox
72 386.182 m
72.0574 386.182 l
72.0574 387.491 l
72 387.491 l
cl
gsave
0.000 0.000 1.000 setrgbcolor
fill
grestore
stroke
grestore
0.500 setlinewidth
0 setlinecap
gsave
/o {
gsave
newpath
translate
0.5 setlinewidth
1 setlinejoin
0 setlinecap
0 0 m
0 4 l
gsave
0.000 setgray
fill
grestore
stroke
grestore
} bind def
72 231.709 o
grestore
gsave
/o {
gsave
newpath
translate
0.5 setlinewidth
1 setlinejoin
0 setlinecap
0 0 m
0 -4 l
gsave
0.000 setgray
fill
grestore
stroke
grestore
} bind def
72 388.8 o
grestore
gsave
/o {
gsave
newpath
translate
0.5 setlinewidth
1 setlinejoin
0 setlinecap
0 0 m
0 4 l
gsave
0.000 setgray
fill
grestore
stroke
grestore
} bind def
161.28 231.709 o
grestore
gsave
/o {
gsave
newpath
translate
0.5 setlinewidth
1 setlinejoin
0 setlinecap
0 0 m
0 -4 l
gsave
0.000 setgray
fill
grestore
stroke
grestore
} bind def
161.28 388.8 o
grestore
gsave
/o {
gsave
newpath
translate
0.5 setlinewidth
1 setlinejoin
0 setlinecap
0 0 m
0 4 l
gsave
0.000 setgray
fill
grestore
stroke
grestore
} bind def
250.56 231.709 o
grestore
gsave
/o {
gsave
newpath
translate
0.5 setlinewidth
1 setlinejoin
0 setlinecap
0 0 m
0 -4 l
gsave
0.000 setgray
fill
grestore
stroke
grestore
} bind def
250.56 388.8 o
grestore
gsave
/o {
gsave
newpath
translate
0.5 setlinewidth
1 setlinejoin
0 setlinecap
0 0 m
0 4 l
gsave
0.000 setgray
fill
grestore
stroke
grestore
} bind def
339.84 231.709 o
grestore
gsave
/o {
gsave
newpath
translate
0.5 setlinewidth
1 setlinejoin
0 setlinecap
0 0 m
0 -4 l
gsave
0.000 setgray
fill
grestore
stroke
grestore
} bind def
339.84 388.8 o
grestore
gsave
/o {
gsave
newpath
translate
0.5 setlinewidth
1 setlinejoin
0 setlinecap
0 0 m
0 4 l
gsave
0.000 setgray
fill
grestore
stroke
grestore
} bind def
429.12 231.709 o
grestore
gsave
/o {
gsave
newpath
translate
0.5 setlinewidth
1 setlinejoin
0 setlinecap
0 0 m
0 -4 l
gsave
0.000 setgray
fill
grestore
stroke
grestore
} bind def
429.12 388.8 o
grestore
gsave
/o {
gsave
newpath
translate
0.5 setlinewidth
1 setlinejoin
0 setlinecap
0 0 m
0 4 l
gsave
0.000 setgray
fill
grestore
stroke
grestore
} bind def
518.4 231.709 o
grestore
gsave
/o {
gsave
newpath
translate
0.5 setlinewidth
1 setlinejoin
0 setlinecap
0 0 m
0 -4 l
gsave
0.000 setgray
fill
grestore
stroke
grestore
} bind def
518.4 388.8 o
grestore
gsave
/o {
gsave
newpath
translate
0.5 setlinewidth
1 setlinejoin
0 setlinecap
0 0 m
4 0 l
gsave
0.000 setgray
fill
grestore
stroke
grestore
} bind def
72 231.709 o
grestore
gsave
/o {
gsave
newpath
translate
0.5 setlinewidth
1 setlinejoin
0 setlinecap
0 0 m
-4 0 l
gsave
0.000 setgray
fill
grestore
stroke
grestore
} bind def
518.4 231.709 o
grestore
/BitstreamVeraSans-Roman findfont
12.000 scalefont
setfont
gsave
47.187500 227.170028 translate
0.000000 rotate
0.000000 0.171875 m /one glyphshow
7.634766 0.171875 m /zero glyphshow
15.269531 0.171875 m /zero glyphshow
grestore
gsave
/o {
gsave
newpath
translate
0.5 setlinewidth
1 setlinejoin
0 setlinecap
0 0 m
4 0 l
gsave
0.000 setgray
fill
grestore
stroke
grestore
} bind def
72 257.891 o
grestore
gsave
/o {
gsave
newpath
translate
0.5 setlinewidth
1 setlinejoin
0 setlinecap
0 0 m
-4 0 l
gsave
0.000 setgray
fill
grestore
stroke
grestore
} bind def
518.4 257.891 o
grestore
gsave
47.187500 253.351847 translate
0.000000 rotate
0.000000 0.171875 m /one glyphshow
7.634766 0.171875 m /two glyphshow
15.269531 0.171875 m /zero glyphshow
grestore
gsave
/o {
gsave
newpath
translate
0.5 setlinewidth
1 setlinejoin
0 setlinecap
0 0 m
4 0 l
gsave
0.000 setgray
fill
grestore
stroke
grestore
} bind def
72 284.073 o
grestore
gsave
/o {
gsave
newpath
translate
0.5 setlinewidth
1 setlinejoin
0 setlinecap
0 0 m
-4 0 l
gsave
0.000 setgray
fill
grestore
stroke
grestore
} bind def
518.4 284.073 o
grestore
gsave
47.187500 279.533665 translate
0.000000 rotate
0.000000 0.171875 m /one glyphshow
7.634766 0.171875 m /four glyphshow
15.269531 0.171875 m /zero glyphshow
grestore
gsave
/o {
gsave
newpath
translate
0.5 setlinewidth
1 setlinejoin
0 setlinecap
0 0 m
4 0 l
gsave
0.000 setgray
fill
grestore
stroke
grestore
} bind def
72 310.255 o
grestore
gsave
/o {
gsave
newpath
translate
0.5 setlinewidth
1 setlinejoin
0 setlinecap
0 0 m
-4 0 l
gsave
0.000 setgray
fill
grestore
stroke
grestore
} bind def
518.4 310.255 o
grestore
gsave
47.187500 305.715483 translate
0.000000 rotate
0.000000 0.171875 m /one glyphshow
7.634766 0.171875 m /six glyphshow
15.269531 0.171875 m /zero glyphshow
grestore
gsave
/o {
gsave
newpath
translate
0.5 setlinewidth
1 setlinejoin
0 setlinecap
0 0 m
4 0 l
gsave
0.000 setgray
fill
grestore
stroke
grestore
} bind def
72 336.436 o
grestore
gsave
/o {
gsave
newpath
translate
0.5 setlinewidth
1 setlinejoin
0 setlinecap
0 0 m
-4 0 l
gsave
0.000 setgray
fill
grestore
stroke
grestore
} bind def
518.4 336.436 o
grestore
gsave
47.187500 331.897301 translate
0.000000 rotate
0.000000 0.171875 m /one glyphshow
7.634766 0.171875 m /eight glyphshow
15.269531 0.171875 m /zero glyphshow
grestore
gsave
/o {
gsave
newpath
translate
0.5 setlinewidth
1 setlinejoin
0 setlinecap
0 0 m
4 0 l
gsave
0.000 setgray
fill
grestore
stroke
grestore
} bind def
72 362.618 o
grestore
gsave
/o {
gsave
newpath
translate
0.5 setlinewidth
1 setlinejoin
0 setlinecap
0 0 m
-4 0 l
gsave
0.000 setgray
fill
grestore
stroke
grestore
} bind def
518.4 362.618 o
grestore
gsave
46.750000 358.079119 translate
0.000000 rotate
0.000000 0.171875 m /two glyphshow
7.634766 0.171875 m /zero glyphshow
15.269531 0.171875 m /zero glyphshow
grestore
gsave
/o {
gsave
newpath
translate
0.5 setlinewidth
1 setlinejoin
0 setlinecap
0 0 m
4 0 l
gsave
0.000 setgray
fill
grestore
stroke
grestore
} bind def
72 388.8 o
grestore
gsave
/o {
gsave
newpath
translate
0.5 setlinewidth
1 setlinejoin
0 setlinecap
0 0 m
-4 0 l
gsave
0.000 setgray
fill
grestore
stroke
grestore
} bind def
518.4 388.8 o
grestore
gsave
46.750000 384.260938 translate
0.000000 rotate
0.000000 0.171875 m /two glyphshow
7.634766 0.171875 m /two glyphshow
15.269531 0.171875 m /zero glyphshow
grestore
/BitstreamVeraSans-Roman findfont
10.000 scalefont
setfont
gsave
41.750000 243.715483 translate
90.000000 rotate
0.000000 2.078125 m /P glyphshow
5.655273 2.078125 m /o glyphshow
11.773438 2.078125 m /w glyphshow
19.952148 2.078125 m /e glyphshow
26.104492 2.078125 m /r glyphshow
30.215820 2.078125 m /space glyphshow
33.394531 2.078125 m /C glyphshow
40.376953 2.078125 m /o glyphshow
46.495117 2.078125 m /n glyphshow
52.833008 2.078125 m /s glyphshow
58.042969 2.078125 m /u glyphshow
64.380859 2.078125 m /m glyphshow
74.122070 2.078125 m /p glyphshow
80.469727 2.078125 m /t glyphshow
84.390625 2.078125 m /i glyphshow
87.168945 2.078125 m /o glyphshow
93.287109 2.078125 m /n glyphshow
99.625000 2.078125 m /space glyphshow
102.803711 2.078125 m /parenleft glyphshow
106.705078 2.078125 m /W glyphshow
115.967773 2.078125 m /a glyphshow
122.095703 2.078125 m /t glyphshow
126.016602 2.078125 m /t glyphshow
129.937500 2.078125 m /parenright glyphshow
grestore
1.000 setlinewidth
2 setlinecap
gsave
72 388.8 m
518.4 388.8 l
stroke
grestore
gsave
518.4 231.709 m
518.4 388.8 l
stroke
grestore
gsave
72 231.709 m
518.4 231.709 l
stroke
grestore
gsave
72 231.709 m
72 388.8 l
stroke
grestore
/BitstreamVeraSans-Roman findfont
12.000 scalefont
setfont
gsave
242.035937 391.300000 translate
0.000000 rotate
0.000000 2.500000 m /parenleft glyphshow
4.681641 2.500000 m /a glyphshow
12.035156 2.500000 m /parenright glyphshow
16.716797 2.500000 m /space glyphshow
20.531250 2.500000 m /H glyphshow
29.554688 2.500000 m /a glyphshow
36.908203 2.500000 m /d glyphshow
44.525391 2.500000 m /o glyphshow
51.867188 2.500000 m /o glyphshow
59.208984 2.500000 m /p glyphshow
66.826172 2.500000 m /space glyphshow
70.640625 2.500000 m /n glyphshow
78.246094 2.500000 m /o glyphshow
85.587891 2.500000 m /d glyphshow
93.205078 2.500000 m /e glyphshow
100.587891 2.500000 m /s glyphshow
grestore
gsave
72 43.2 m
518.4 43.2 l
518.4 200.291 l
72 200.291 l
cl
1.000 setgray
fill
grestore
gsave
446.4 157.1 72 43.2 clipbox
72 43.2 m
72 43.2 l
72 43.8284 l
72 43.8284 l
cl
gsave
0.000 0.000 1.000 setrgbcolor
fill
grestore
stroke
grestore
gsave
446.4 157.1 72 43.2 clipbox
72 43.8284 m
72 43.8284 l
72 44.4567 l
72 44.4567 l
cl
gsave
0.000 0.000 1.000 setrgbcolor
fill
grestore
stroke
grestore
gsave
446.4 157.1 72 43.2 clipbox
72 44.4567 m
72 44.4567 l
72 45.0851 l
72 45.0851 l
cl
gsave
0.000 0.000 1.000 setrgbcolor
fill
grestore
stroke
grestore
gsave
446.4 157.1 72 43.2 clipbox
72 45.0851 m
72 45.0851 l
72 45.7135 l
72 45.7135 l
cl
gsave
0.000 0.000 1.000 setrgbcolor
fill
grestore
stroke
grestore
gsave
446.4 157.1 72 43.2 clipbox
72 45.7135 m
72 45.7135 l
72 46.3418 l
72 46.3418 l
cl
gsave
0.000 0.000 1.000 setrgbcolor
fill
grestore
stroke
grestore
gsave
446.4 157.1 72 43.2 clipbox
72 46.3418 m
72.0052 46.3418 l
72.0052 46.9702 l
72 46.9702 l
cl
gsave
0.000 0.000 1.000 setrgbcolor
fill
grestore
stroke
grestore
gsave
446.4 157.1 72 43.2 clipbox
72 46.9702 m
72 46.9702 l
72 47.5985 l
72 47.5985 l
cl
gsave
0.000 0.000 1.000 setrgbcolor
fill
grestore
stroke
grestore
gsave
446.4 157.1 72 43.2 clipbox
72 47.5985 m
72 47.5985 l
72 48.2269 l
72 48.2269 l
cl
gsave
0.000 0.000 1.000 setrgbcolor
fill
grestore
stroke
grestore
gsave
446.4 157.1 72 43.2 clipbox
72 48.2269 m
72 48.2269 l
72 48.8553 l
72 48.8553 l
cl
gsave
0.000 0.000 1.000 setrgbcolor
fill
grestore
stroke
grestore
gsave
446.4 157.1 72 43.2 clipbox
72 48.8553 m
72 48.8553 l
72 49.4836 l
72 49.4836 l
cl
gsave
0.000 0.000 1.000 setrgbcolor
fill
grestore
stroke
grestore
gsave
446.4 157.1 72 43.2 clipbox
72 49.4836 m
72.0052 49.4836 l
72.0052 50.112 l
72 50.112 l
cl
gsave
0.000 0.000 1.000 setrgbcolor
fill
grestore
stroke
grestore
gsave
446.4 157.1 72 43.2 clipbox
72 50.112 m
72 50.112 l
72 50.7404 l
72 50.7404 l
cl
gsave
0.000 0.000 1.000 setrgbcolor
fill
grestore
stroke
grestore
gsave
446.4 157.1 72 43.2 clipbox
72 50.7404 m
72 50.7404 l
72 51.3687 l
72 51.3687 l
cl
gsave
0.000 0.000 1.000 setrgbcolor
fill
grestore
stroke
grestore
gsave
446.4 157.1 72 43.2 clipbox
72 51.3687 m
72.0052 51.3687 l
72.0052 51.9971 l
72 51.9971 l
cl
gsave
0.000 0.000 1.000 setrgbcolor
fill
grestore
stroke
grestore
gsave
446.4 157.1 72 43.2 clipbox
72 51.9971 m
72 51.9971 l
72 52.6255 l
72 52.6255 l
cl
gsave
0.000 0.000 1.000 setrgbcolor
fill
grestore
stroke
grestore
gsave
446.4 157.1 72 43.2 clipbox
72 52.6255 m
72 52.6255 l
72 53.2538 l
72 53.2538 l
cl
gsave
0.000 0.000 1.000 setrgbcolor
fill
grestore
stroke
grestore
gsave
446.4 157.1 72 43.2 clipbox
72 53.2538 m
72 53.2538 l
72 53.8822 l
72 53.8822 l
cl
gsave
0.000 0.000 1.000 setrgbcolor
fill
grestore
stroke
grestore
gsave
446.4 157.1 72 43.2 clipbox
72 53.8822 m
72 53.8822 l
72 54.5105 l
72 54.5105 l
cl
gsave
0.000 0.000 1.000 setrgbcolor
fill
grestore
stroke
grestore
gsave
446.4 157.1 72 43.2 clipbox
72 54.5105 m
72 54.5105 l
72 55.1389 l
72 55.1389 l
cl
gsave
0.000 0.000 1.000 setrgbcolor
fill
grestore
stroke
grestore
gsave
446.4 157.1 72 43.2 clipbox
72 55.1389 m
72 55.1389 l
72 55.7673 l
72 55.7673 l
cl
gsave
0.000 0.000 1.000 setrgbcolor
fill
grestore
stroke
grestore
gsave
446.4 157.1 72 43.2 clipbox
72 55.7673 m
72 55.7673 l
72 56.3956 l
72 56.3956 l
cl
gsave
0.000 0.000 1.000 setrgbcolor
fill
grestore
stroke
grestore
gsave
446.4 157.1 72 43.2 clipbox
72 56.3956 m
72 56.3956 l
72 57.024 l
72 57.024 l
cl
gsave
0.000 0.000 1.000 setrgbcolor
fill
grestore
stroke
grestore
gsave
446.4 157.1 72 43.2 clipbox
72 57.024 m
72 57.024 l
72 57.6524 l
72 57.6524 l
cl
gsave
0.000 0.000 1.000 setrgbcolor
fill
grestore
stroke
grestore
gsave
446.4 157.1 72 43.2 clipbox
72 57.6524 m
72 57.6524 l
72 58.2807 l
72 58.2807 l
cl
gsave
0.000 0.000 1.000 setrgbcolor
fill
grestore
stroke
grestore
gsave
446.4 157.1 72 43.2 clipbox
72 58.2807 m
72 58.2807 l
72 58.9091 l
72 58.9091 l
cl
gsave
0.000 0.000 1.000 setrgbcolor
fill
grestore
stroke
grestore
gsave
446.4 157.1 72 43.2 clipbox
72 58.9091 m
72 58.9091 l
72 59.5375 l
72 59.5375 l
cl
gsave
0.000 0.000 1.000 setrgbcolor
fill
grestore
stroke
grestore
gsave
446.4 157.1 72 43.2 clipbox
72 59.5375 m
72 59.5375 l
72 60.1658 l
72 60.1658 l
cl
gsave
0.000 0.000 1.000 setrgbcolor
fill
grestore
stroke
grestore
gsave
446.4 157.1 72 43.2 clipbox
72 60.1658 m
72 60.1658 l
72 60.7942 l
72 60.7942 l
cl
gsave
0.000 0.000 1.000 setrgbcolor
fill
grestore
stroke
grestore
gsave
446.4 157.1 72 43.2 clipbox
72 60.7942 m
97.5159 60.7942 l
97.5159 61.4225 l
72 61.4225 l
cl
gsave
0.000 0.000 1.000 setrgbcolor
fill
grestore
stroke
grestore
gsave
446.4 157.1 72 43.2 clipbox
72 61.4225 m
281.729 61.4225 l
281.729 62.0509 l
72 62.0509 l
cl
gsave
0.000 0.000 1.000 setrgbcolor
fill
grestore
stroke
grestore
gsave
446.4 157.1 72 43.2 clipbox
72 62.0509 m
289.909 62.0509 l
289.909 62.6793 l
72 62.6793 l
cl
gsave
0.000 0.000 1.000 setrgbcolor
fill
grestore
stroke
grestore
gsave
446.4 157.1 72 43.2 clipbox
72 62.6793 m
276.794 62.6793 l
276.794 63.3076 l
72 63.3076 l
cl
gsave
0.000 0.000 1.000 setrgbcolor
fill
grestore
stroke
grestore
gsave
446.4 157.1 72 43.2 clipbox
72 63.3076 m
217.561 63.3076 l
217.561 63.936 l
72 63.936 l
cl
gsave
0.000 0.000 1.000 setrgbcolor
fill
grestore
stroke
grestore
gsave
446.4 157.1 72 43.2 clipbox
72 63.936 m
258.474 63.936 l
258.474 64.5644 l
72 64.5644 l
cl
gsave
0.000 0.000 1.000 setrgbcolor
fill
grestore
stroke
grestore
gsave
446.4 157.1 72 43.2 clipbox
72 64.5644 m
138.835 64.5644 l
138.835 65.1927 l
72 65.1927 l
cl
gsave
0.000 0.000 1.000 setrgbcolor
fill
grestore
stroke
grestore
gsave
446.4 157.1 72 43.2 clipbox
72 65.1927 m
78.2943 65.1927 l
78.2943 65.8211 l
72 65.8211 l
cl
gsave
0.000 0.000 1.000 setrgbcolor
fill
grestore
stroke
grestore
gsave
446.4 157.1 72 43.2 clipbox
72 65.8211 m
76.8249 65.8211 l
76.8249 66.4495 l
72 66.4495 l
cl
gsave
0.000 0.000 1.000 setrgbcolor
fill
grestore
stroke
grestore
gsave
446.4 157.1 72 43.2 clipbox
72 66.4495 m
75.6317 66.4495 l
75.6317 67.0778 l
72 67.0778 l
cl
gsave
0.000 0.000 1.000 setrgbcolor
fill
grestore
stroke
grestore
gsave
446.4 157.1 72 43.2 clipbox
72 67.0778 m
74.9856 67.0778 l
74.9856 67.7062 l
72 67.7062 l
cl
gsave
0.000 0.000 1.000 setrgbcolor
fill
grestore
stroke
grestore
gsave
446.4 157.1 72 43.2 clipbox
72 67.7062 m
80.3889 67.7062 l
80.3889 68.3345 l
72 68.3345 l
cl
gsave
0.000 0.000 1.000 setrgbcolor
fill
grestore
stroke
grestore
gsave
446.4 157.1 72 43.2 clipbox
72 68.3345 m
94.2802 68.3345 l
94.2802 68.9629 l
72 68.9629 l
cl
gsave
0.000 0.000 1.000 setrgbcolor
fill
grestore
stroke
grestore
gsave
446.4 157.1 72 43.2 clipbox
72 68.9629 m
96.4165 68.9629 l
96.4165 69.5913 l
72 69.5913 l
cl
gsave
0.000 0.000 1.000 setrgbcolor
fill
grestore
stroke
grestore
gsave
446.4 157.1 72 43.2 clipbox
72 69.5913 m
94.7596 69.5913 l
94.7596 70.2196 l
72 70.2196 l
cl
gsave
0.000 0.000 1.000 setrgbcolor
fill
grestore
stroke
grestore
gsave
446.4 157.1 72 43.2 clipbox
72 70.2196 m
92.7483 70.2196 l
92.7483 70.848 l
72 70.848 l
cl
gsave
0.000 0.000 1.000 setrgbcolor
fill
grestore
stroke
grestore
gsave
446.4 157.1 72 43.2 clipbox
72 70.848 m
93.4309 70.848 l
93.4309 71.4764 l
72 71.4764 l
cl
gsave
0.000 0.000 1.000 setrgbcolor
fill
grestore
stroke
grestore
gsave
446.4 157.1 72 43.2 clipbox
72 71.4764 m
84.7137 71.4764 l
84.7137 72.1047 l
72 72.1047 l
cl
gsave
0.000 0.000 1.000 setrgbcolor
fill
grestore
stroke
grestore
gsave
446.4 157.1 72 43.2 clipbox
72 72.1047 m
76.6113 72.1047 l
76.6113 72.7331 l
72 72.7331 l
cl
gsave
0.000 0.000 1.000 setrgbcolor
fill
grestore
stroke
grestore
gsave
446.4 157.1 72 43.2 clipbox
72 72.7331 m
73.9123 72.7331 l
73.9123 73.3615 l
72 73.3615 l
cl
gsave
0.000 0.000 1.000 setrgbcolor
fill
grestore
stroke
grestore
gsave
446.4 157.1 72 43.2 clipbox
72 73.3615 m
73.3026 73.3615 l
73.3026 73.9898 l
72 73.9898 l
cl
gsave
0.000 0.000 1.000 setrgbcolor
fill
grestore
stroke
grestore
gsave
446.4 157.1 72 43.2 clipbox
72 73.9898 m
73.1098 73.9898 l
73.1098 74.6182 l
72 74.6182 l
cl
gsave
0.000 0.000 1.000 setrgbcolor
fill
grestore
stroke
grestore
gsave
446.4 157.1 72 43.2 clipbox
72 74.6182 m
73.1828 74.6182 l
73.1828 75.2465 l
72 75.2465 l
cl
gsave
0.000 0.000 1.000 setrgbcolor
fill
grestore
stroke
grestore
gsave
446.4 157.1 72 43.2 clipbox
72 75.2465 m
73.6153 75.2465 l
73.6153 75.8749 l
72 75.8749 l
cl
gsave
0.000 0.000 1.000 setrgbcolor
fill
grestore
stroke
grestore
gsave
446.4 157.1 72 43.2 clipbox
72 75.8749 m
73.8341 75.8749 l
73.8341 76.5033 l
72 76.5033 l
cl
gsave
0.000 0.000 1.000 setrgbcolor
fill
grestore
stroke
grestore
gsave
446.4 157.1 72 43.2 clipbox
72 76.5033 m
76.4863 76.5033 l
76.4863 77.1316 l
72 77.1316 l
cl
gsave
0.000 0.000 1.000 setrgbcolor
fill
grestore
stroke
grestore
gsave
446.4 157.1 72 43.2 clipbox
72 77.1316 m
79.4771 77.1316 l
79.4771 77.76 l
72 77.76 l
cl
gsave
0.000 0.000 1.000 setrgbcolor
fill
grestore
stroke
grestore
gsave
446.4 157.1 72 43.2 clipbox
72 77.76 m
78.5601 77.76 l
78.5601 78.3884 l
72 78.3884 l
cl
gsave
0.000 0.000 1.000 setrgbcolor
fill
grestore
stroke
grestore
gsave
446.4 157.1 72 43.2 clipbox
72 78.3884 m
78.0494 78.3884 l
78.0494 79.0167 l
72 79.0167 l
cl
gsave
0.000 0.000 1.000 setrgbcolor
fill
grestore
stroke
grestore
gsave
446.4 157.1 72 43.2 clipbox
72 79.0167 m
80.9934 79.0167 l
80.9934 79.6451 l
72 79.6451 l
cl
gsave
0.000 0.000 1.000 setrgbcolor
fill
grestore
stroke
grestore
gsave
446.4 157.1 72 43.2 clipbox
72 79.6451 m
85.7454 79.6451 l
85.7454 80.2735 l
72 80.2735 l
cl
gsave
0.000 0.000 1.000 setrgbcolor
fill
grestore
stroke
grestore
gsave
446.4 157.1 72 43.2 clipbox
72 80.2735 m
87.0845 80.2735 l
87.0845 80.9018 l
72 80.9018 l
cl
gsave
0.000 0.000 1.000 setrgbcolor
fill
grestore
stroke
grestore
gsave
446.4 157.1 72 43.2 clipbox
72 80.9018 m
82.916 80.9018 l
82.916 81.5302 l
72 81.5302 l
cl
gsave
0.000 0.000 1.000 setrgbcolor
fill
grestore
stroke
grestore
gsave
446.4 157.1 72 43.2 clipbox
72 81.5302 m
81.4258 81.5302 l
81.4258 82.1585 l
72 82.1585 l
cl
gsave
0.000 0.000 1.000 setrgbcolor
fill
grestore
stroke
grestore
gsave
446.4 157.1 72 43.2 clipbox
72 82.1585 m
83.0515 82.1585 l
83.0515 82.7869 l
72 82.7869 l
cl
gsave
0.000 0.000 1.000 setrgbcolor
fill
grestore
stroke
grestore
gsave
446.4 157.1 72 43.2 clipbox
72 82.7869 m
86.4332 82.7869 l
86.4332 83.4153 l
72 83.4153 l
cl
gsave
0.000 0.000 1.000 setrgbcolor
fill
grestore
stroke
grestore
gsave
446.4 157.1 72 43.2 clipbox
72 83.4153 m
84.1249 83.4153 l
84.1249 84.0436 l
72 84.0436 l
cl
gsave
0.000 0.000 1.000 setrgbcolor
fill
grestore
stroke
grestore
gsave
446.4 157.1 72 43.2 clipbox
72 84.0436 m
78.9144 84.0436 l
78.9144 84.672 l
72 84.672 l
cl
gsave
0.000 0.000 1.000 setrgbcolor
fill
grestore
stroke
grestore
gsave
446.4 157.1 72 43.2 clipbox
72 84.672 m
77.8827 84.672 l
77.8827 85.3004 l
72 85.3004 l
cl
gsave
0.000 0.000 1.000 setrgbcolor
fill
grestore
stroke
grestore
gsave
446.4 157.1 72 43.2 clipbox
72 85.3004 m
78.1901 85.3004 l
78.1901 85.9287 l
72 85.9287 l
cl
gsave
0.000 0.000 1.000 setrgbcolor
fill
grestore
stroke
grestore
gsave
446.4 157.1 72 43.2 clipbox
72 85.9287 m
77.8879 85.9287 l
77.8879 86.5571 l
72 86.5571 l
cl
gsave
0.000 0.000 1.000 setrgbcolor
fill
grestore
stroke
grestore
gsave
446.4 157.1 72 43.2 clipbox
72 86.5571 m
78.4194 86.5571 l
78.4194 87.1855 l
72 87.1855 l
cl
gsave
0.000 0.000 1.000 setrgbcolor
fill
grestore
stroke
grestore
gsave
446.4 157.1 72 43.2 clipbox
72 87.1855 m
78.5444 87.1855 l
78.5444 87.8138 l
72 87.8138 l
cl
gsave
0.000 0.000 1.000 setrgbcolor
fill
grestore
stroke
grestore
gsave
446.4 157.1 72 43.2 clipbox
72 87.8138 m
77.6065 87.8138 l
77.6065 88.4422 l
72 88.4422 l
cl
gsave
0.000 0.000 1.000 setrgbcolor
fill
grestore
stroke
grestore
gsave
446.4 157.1 72 43.2 clipbox
72 88.4422 m
76.0538 88.4422 l
76.0538 89.0705 l
72 89.0705 l
cl
gsave
0.000 0.000 1.000 setrgbcolor
fill
grestore
stroke
grestore
gsave
446.4 157.1 72 43.2 clipbox
72 89.0705 m
75.861 89.0705 l
75.861 89.6989 l
72 89.6989 l
cl
gsave
0.000 0.000 1.000 setrgbcolor
fill
grestore
stroke
grestore
gsave
446.4 157.1 72 43.2 clipbox
72 89.6989 m
75.9913 89.6989 l
75.9913 90.3273 l
72 90.3273 l
cl
gsave
0.000 0.000 1.000 setrgbcolor
fill
grestore
stroke
grestore
gsave
446.4 157.1 72 43.2 clipbox
72 90.3273 m
75.0482 90.3273 l
75.0482 90.9556 l
72 90.9556 l
cl
gsave
0.000 0.000 1.000 setrgbcolor
fill
grestore
stroke
grestore
gsave
446.4 157.1 72 43.2 clipbox
72 90.9556 m
74.7981 90.9556 l
74.7981 91.584 l
72 91.584 l
cl
gsave
0.000 0.000 1.000 setrgbcolor
fill
grestore
stroke
grestore
gsave
446.4 157.1 72 43.2 clipbox
72 91.584 m
74.1155 91.584 l
74.1155 92.2124 l
72 92.2124 l
cl
gsave
0.000 0.000 1.000 setrgbcolor
fill
grestore
stroke
grestore
gsave
446.4 157.1 72 43.2 clipbox
72 92.2124 m
74.2301 92.2124 l
74.2301 92.8407 l
72 92.8407 l
cl
gsave
0.000 0.000 1.000 setrgbcolor
fill
grestore
stroke
grestore
gsave
446.4 157.1 72 43.2 clipbox
72 92.8407 m
74.0529 92.8407 l
74.0529 93.4691 l
72 93.4691 l
cl
gsave
0.000 0.000 1.000 setrgbcolor
fill
grestore
stroke
grestore
gsave
446.4 157.1 72 43.2 clipbox
72 93.4691 m
74.0321 93.4691 l
74.0321 94.0975 l
72 94.0975 l
cl
gsave
0.000 0.000 1.000 setrgbcolor
fill
grestore
stroke
grestore
gsave
446.4 157.1 72 43.2 clipbox
72 94.0975 m
73.6309 94.0975 l
73.6309 94.7258 l
72 94.7258 l
cl
gsave
0.000 0.000 1.000 setrgbcolor
fill
grestore
stroke
grestore
gsave
446.4 157.1 72 43.2 clipbox
72 94.7258 m
73.4121 94.7258 l
73.4121 95.3542 l
72 95.3542 l
cl
gsave
0.000 0.000 1.000 setrgbcolor
fill
grestore
stroke
grestore
gsave
446.4 157.1 72 43.2 clipbox
72 95.3542 m
73.3704 95.3542 l
73.3704 95.9825 l
72 95.9825 l
cl
gsave
0.000 0.000 1.000 setrgbcolor
fill
grestore
stroke
grestore
gsave
446.4 157.1 72 43.2 clipbox
72 95.9825 m
73.4433 95.9825 l
73.4433 96.6109 l
72 96.6109 l
cl
gsave
0.000 0.000 1.000 setrgbcolor
fill
grestore
stroke
grestore
gsave
446.4 157.1 72 43.2 clipbox
72 96.6109 m
73.5267 96.6109 l
73.5267 97.2393 l
72 97.2393 l
cl
gsave
0.000 0.000 1.000 setrgbcolor
fill
grestore
stroke
grestore
gsave
446.4 157.1 72 43.2 clipbox
72 97.2393 m
73.5423 97.2393 l
73.5423 97.8676 l
72 97.8676 l
cl
gsave
0.000 0.000 1.000 setrgbcolor
fill
grestore
stroke
grestore
gsave
446.4 157.1 72 43.2 clipbox
72 97.8676 m
74.9127 97.8676 l
74.9127 98.496 l
72 98.496 l
cl
gsave
0.000 0.000 1.000 setrgbcolor
fill
grestore
stroke
grestore
gsave
446.4 157.1 72 43.2 clipbox
72 98.496 m
75.6838 98.496 l
75.6838 99.1244 l
72 99.1244 l
cl
gsave
0.000 0.000 1.000 setrgbcolor
fill
grestore
stroke
grestore
gsave
446.4 157.1 72 43.2 clipbox
72 99.1244 m
74.6938 99.1244 l
74.6938 99.7527 l
72 99.7527 l
cl
gsave
0.000 0.000 1.000 setrgbcolor
fill
grestore
stroke
grestore
gsave
446.4 157.1 72 43.2 clipbox
72 99.7527 m
77.1845 99.7527 l
77.1845 100.381 l
72 100.381 l
cl
gsave
0.000 0.000 1.000 setrgbcolor
fill
grestore
stroke
grestore
gsave
446.4 157.1 72 43.2 clipbox
72 100.381 m
78.9404 100.381 l
78.9404 101.009 l
72 101.009 l
cl
gsave
0.000 0.000 1.000 setrgbcolor
fill
grestore
stroke
grestore
gsave
446.4 157.1 72 43.2 clipbox
72 101.009 m
74.8866 101.009 l
74.8866 101.638 l
72 101.638 l
cl
gsave
0.000 0.000 1.000 setrgbcolor
fill
grestore
stroke
grestore
gsave
446.4 157.1 72 43.2 clipbox
72 101.638 m
74.0998 101.638 l
74.0998 102.266 l
72 102.266 l
cl
gsave
0.000 0.000 1.000 setrgbcolor
fill
grestore
stroke
grestore
gsave
446.4 157.1 72 43.2 clipbox
72 102.266 m
74.9387 102.266 l
74.9387 102.895 l
72 102.895 l
cl
gsave
0.000 0.000 1.000 setrgbcolor
fill
grestore
stroke
grestore
gsave
446.4 157.1 72 43.2 clipbox
72 102.895 m
78.2787 102.895 l
78.2787 103.523 l
72 103.523 l
cl
gsave
0.000 0.000 1.000 setrgbcolor
fill
grestore
stroke
grestore
gsave
446.4 157.1 72 43.2 clipbox
72 103.523 m
79.9461 103.523 l
79.9461 104.151 l
72 104.151 l
cl
gsave
0.000 0.000 1.000 setrgbcolor
fill
grestore
stroke
grestore
gsave
446.4 157.1 72 43.2 clipbox
72 104.151 m
75.3816 104.151 l
75.3816 104.78 l
72 104.78 l
cl
gsave
0.000 0.000 1.000 setrgbcolor
fill
grestore
stroke
grestore
gsave
446.4 157.1 72 43.2 clipbox
72 104.78 m
74.3447 104.78 l
74.3447 105.408 l
72 105.408 l
cl
gsave
0.000 0.000 1.000 setrgbcolor
fill
grestore
stroke
grestore
gsave
446.4 157.1 72 43.2 clipbox
72 105.408 m
75.8766 105.408 l
75.8766 106.036 l
72 106.036 l
cl
gsave
0.000 0.000 1.000 setrgbcolor
fill
grestore
stroke
grestore
gsave
446.4 157.1 72 43.2 clipbox
72 106.036 m
77.1636 106.036 l
77.1636 106.665 l
72 106.665 l
cl
gsave
0.000 0.000 1.000 setrgbcolor
fill
grestore
stroke
grestore
gsave
446.4 157.1 72 43.2 clipbox
72 106.665 m
76.6061 106.665 l
76.6061 107.293 l
72 107.293 l
cl
gsave
0.000 0.000 1.000 setrgbcolor
fill
grestore
stroke
grestore
gsave
446.4 157.1 72 43.2 clipbox
72 107.293 m
77.7264 107.293 l
77.7264 107.921 l
72 107.921 l
cl
gsave
0.000 0.000 1.000 setrgbcolor
fill
grestore
stroke
grestore
gsave
446.4 157.1 72 43.2 clipbox
72 107.921 m
76.2101 107.921 l
76.2101 108.55 l
72 108.55 l
cl
gsave
0.000 0.000 1.000 setrgbcolor
fill
grestore
stroke
grestore
gsave
446.4 157.1 72 43.2 clipbox
72 108.55 m
75.6213 108.55 l
75.6213 109.178 l
72 109.178 l
cl
gsave
0.000 0.000 1.000 setrgbcolor
fill
grestore
stroke
grestore
gsave
446.4 157.1 72 43.2 clipbox
72 109.178 m
74.8033 109.178 l
74.8033 109.807 l
72 109.807 l
cl
gsave
0.000 0.000 1.000 setrgbcolor
fill
grestore
stroke
grestore
gsave
446.4 157.1 72 43.2 clipbox
72 109.807 m
74.7772 109.807 l
74.7772 110.435 l
72 110.435 l
cl
gsave
0.000 0.000 1.000 setrgbcolor
fill
grestore
stroke
grestore
gsave
446.4 157.1 72 43.2 clipbox
72 110.435 m
74.7407 110.435 l
74.7407 111.063 l
72 111.063 l
cl
gsave
0.000 0.000 1.000 setrgbcolor
fill
grestore
stroke
grestore
gsave
446.4 157.1 72 43.2 clipbox
72 111.063 m
74.9335 111.063 l
74.9335 111.692 l
72 111.692 l
cl
gsave
0.000 0.000 1.000 setrgbcolor
fill
grestore
stroke
grestore
gsave
446.4 157.1 72 43.2 clipbox
72 111.692 m
73.8133 111.692 l
73.8133 112.32 l
72 112.32 l
cl
gsave
0.000 0.000 1.000 setrgbcolor
fill
grestore
stroke
grestore
gsave
446.4 157.1 72 43.2 clipbox
72 112.32 m
73.8602 112.32 l
73.8602 112.948 l
72 112.948 l
cl
gsave
0.000 0.000 1.000 setrgbcolor
fill
grestore
stroke
grestore
gsave
446.4 157.1 72 43.2 clipbox
72 112.948 m
74.0842 112.948 l
74.0842 113.577 l
72 113.577 l
cl
gsave
0.000 0.000 1.000 setrgbcolor
fill
grestore
stroke
grestore
gsave
446.4 157.1 72 43.2 clipbox
72 113.577 m
73.1463 113.577 l
73.1463 114.205 l
72 114.205 l
cl
gsave
0.000 0.000 1.000 setrgbcolor
fill
grestore
stroke
grestore
gsave
446.4 157.1 72 43.2 clipbox
72 114.205 m
73.3652 114.205 l
73.3652 114.833 l
72 114.833 l
cl
gsave
0.000 0.000 1.000 setrgbcolor
fill
grestore
stroke
grestore
gsave
446.4 157.1 72 43.2 clipbox
72 114.833 m
72.8128 114.833 l
72.8128 115.462 l
72 115.462 l
cl
gsave
0.000 0.000 1.000 setrgbcolor
fill
grestore
stroke
grestore
gsave
446.4 157.1 72 43.2 clipbox
72 115.462 m
72.6201 115.462 l
72.6201 116.09 l
72 116.09 l
cl
gsave
0.000 0.000 1.000 setrgbcolor
fill
grestore
stroke
grestore
gsave
446.4 157.1 72 43.2 clipbox
72 116.09 m
72.7243 116.09 l
72.7243 116.719 l
72 116.719 l
cl
gsave
0.000 0.000 1.000 setrgbcolor
fill
grestore
stroke
grestore
gsave
446.4 157.1 72 43.2 clipbox
72 116.719 m
72.5471 116.719 l
72.5471 117.347 l
72 117.347 l
cl
gsave
0.000 0.000 1.000 setrgbcolor
fill
grestore
stroke
grestore
gsave
446.4 157.1 72 43.2 clipbox
72 117.347 m
72.5002 117.347 l
72.5002 117.975 l
72 117.975 l
cl
gsave
0.000 0.000 1.000 setrgbcolor
fill
grestore
stroke
grestore
gsave
446.4 157.1 72 43.2 clipbox
72 117.975 m
72.3126 117.975 l
72.3126 118.604 l
72 118.604 l
cl
gsave
0.000 0.000 1.000 setrgbcolor
fill
grestore
stroke
grestore
gsave
446.4 157.1 72 43.2 clipbox
72 118.604 m
72.2188 118.604 l
72.2188 119.232 l
72 119.232 l
cl
gsave
0.000 0.000 1.000 setrgbcolor
fill
grestore
stroke
grestore
gsave
446.4 157.1 72 43.2 clipbox
72 119.232 m
72.1355 119.232 l
72.1355 119.86 l
72 119.86 l
cl
gsave
0.000 0.000 1.000 setrgbcolor
fill
grestore
stroke
grestore
gsave
446.4 157.1 72 43.2 clipbox
72 119.86 m
72.1719 119.86 l
72.1719 120.489 l
72 120.489 l
cl
gsave
0.000 0.000 1.000 setrgbcolor
fill
grestore
stroke
grestore
gsave
446.4 157.1 72 43.2 clipbox
72 120.489 m
72.1511 120.489 l
72.1511 121.117 l
72 121.117 l
cl
gsave
0.000 0.000 1.000 setrgbcolor
fill
grestore
stroke
grestore
gsave
446.4 157.1 72 43.2 clipbox
72 121.117 m
72.1563 121.117 l
72.1563 121.745 l
72 121.745 l
cl
gsave
0.000 0.000 1.000 setrgbcolor
fill
grestore
stroke
grestore
gsave
446.4 157.1 72 43.2 clipbox
72 121.745 m
72.1928 121.745 l
72.1928 122.374 l
72 122.374 l
cl
gsave
0.000 0.000 1.000 setrgbcolor
fill
grestore
stroke
grestore
gsave
446.4 157.1 72 43.2 clipbox
72 122.374 m
72.2605 122.374 l
72.2605 123.002 l
72 123.002 l
cl
gsave
0.000 0.000 1.000 setrgbcolor
fill
grestore
stroke
grestore
gsave
446.4 157.1 72 43.2 clipbox
72 123.002 m
72.3908 123.002 l
72.3908 123.631 l
72 123.631 l
cl
gsave
0.000 0.000 1.000 setrgbcolor
fill
grestore
stroke
grestore
gsave
446.4 157.1 72 43.2 clipbox
72 123.631 m
72.3074 123.631 l
72.3074 124.259 l
72 124.259 l
cl
gsave
0.000 0.000 1.000 setrgbcolor
fill
grestore
stroke
grestore
gsave
446.4 157.1 72 43.2 clipbox
72 124.259 m
72.2866 124.259 l
72.2866 124.887 l
72 124.887 l
cl
gsave
0.000 0.000 1.000 setrgbcolor
fill
grestore
stroke
grestore
gsave
446.4 157.1 72 43.2 clipbox
72 124.887 m
72.3647 124.887 l
72.3647 125.516 l
72 125.516 l
cl
gsave
0.000 0.000 1.000 setrgbcolor
fill
grestore
stroke
grestore
gsave
446.4 157.1 72 43.2 clipbox
72 125.516 m
72.3387 125.516 l
72.3387 126.144 l
72 126.144 l
cl
gsave
0.000 0.000 1.000 setrgbcolor
fill
grestore
stroke
grestore
gsave
446.4 157.1 72 43.2 clipbox
72 126.144 m
73.8028 126.144 l
73.8028 126.772 l
72 126.772 l
cl
gsave
0.000 0.000 1.000 setrgbcolor
fill
grestore
stroke
grestore
gsave
446.4 157.1 72 43.2 clipbox
72 126.772 m
136.548 126.772 l
136.548 127.401 l
72 127.401 l
cl
gsave
0.000 0.000 1.000 setrgbcolor
fill
grestore
stroke
grestore
gsave
446.4 157.1 72 43.2 clipbox
72 127.401 m
156.577 127.401 l
156.577 128.029 l
72 128.029 l
cl
gsave
0.000 0.000 1.000 setrgbcolor
fill
grestore
stroke
grestore
gsave
446.4 157.1 72 43.2 clipbox
72 128.029 m
105.076 128.029 l
105.076 128.657 l
72 128.657 l
cl
gsave
0.000 0.000 1.000 setrgbcolor
fill
grestore
stroke
grestore
gsave
446.4 157.1 72 43.2 clipbox
72 128.657 m
79.8575 128.657 l
79.8575 129.286 l
72 129.286 l
cl
gsave
0.000 0.000 1.000 setrgbcolor
fill
grestore
stroke
grestore
gsave
446.4 157.1 72 43.2 clipbox
72 129.286 m
74.9387 129.286 l
74.9387 129.914 l
72 129.914 l
cl
gsave
0.000 0.000 1.000 setrgbcolor
fill
grestore
stroke
grestore
gsave
446.4 157.1 72 43.2 clipbox
72 129.914 m
73.7716 129.914 l
73.7716 130.543 l
72 130.543 l
cl
gsave
0.000 0.000 1.000 setrgbcolor
fill
grestore
stroke
grestore
gsave
446.4 157.1 72 43.2 clipbox
72 130.543 m
73.4173 130.543 l
73.4173 131.171 l
72 131.171 l
cl
gsave
0.000 0.000 1.000 setrgbcolor
fill
grestore
stroke
grestore
gsave
446.4 157.1 72 43.2 clipbox
72 131.171 m
73.5996 131.171 l
73.5996 131.799 l
72 131.799 l
cl
gsave
0.000 0.000 1.000 setrgbcolor
fill
grestore
stroke
grestore
gsave
446.4 157.1 72 43.2 clipbox
72 131.799 m
73.2766 131.799 l
73.2766 132.428 l
72 132.428 l
cl
gsave
0.000 0.000 1.000 setrgbcolor
fill
grestore
stroke
grestore
gsave
446.4 157.1 72 43.2 clipbox
72 132.428 m
72.7034 132.428 l
72.7034 133.056 l
72 133.056 l
cl
gsave
0.000 0.000 1.000 setrgbcolor
fill
grestore
stroke
grestore
gsave
446.4 157.1 72 43.2 clipbox
72 133.056 m
72.594 133.056 l
72.594 133.684 l
72 133.684 l
cl
gsave
0.000 0.000 1.000 setrgbcolor
fill
grestore
stroke
grestore
gsave
446.4 157.1 72 43.2 clipbox
72 133.684 m
78.2162 133.684 l
78.2162 134.313 l
72 134.313 l
cl
gsave
0.000 0.000 1.000 setrgbcolor
fill
grestore
stroke
grestore
gsave
446.4 157.1 72 43.2 clipbox
72 134.313 m
83.6559 134.313 l
83.6559 134.941 l
72 134.941 l
cl
gsave
0.000 0.000 1.000 setrgbcolor
fill
grestore
stroke
grestore
gsave
446.4 157.1 72 43.2 clipbox
72 134.941 m
76.4654 134.941 l
76.4654 135.569 l
72 135.569 l
cl
gsave
0.000 0.000 1.000 setrgbcolor
fill
grestore
stroke
grestore
gsave
446.4 157.1 72 43.2 clipbox
72 135.569 m
73.1619 135.569 l
73.1619 136.198 l
72 136.198 l
cl
gsave
0.000 0.000 1.000 setrgbcolor
fill
grestore
stroke
grestore
gsave
446.4 157.1 72 43.2 clipbox
72 136.198 m
72.7972 136.198 l
72.7972 136.826 l
72 136.826 l
cl
gsave
0.000 0.000 1.000 setrgbcolor
fill
grestore
stroke
grestore
gsave
446.4 157.1 72 43.2 clipbox
72 136.826 m
72.6409 136.826 l
72.6409 137.455 l
72 137.455 l
cl
gsave
0.000 0.000 1.000 setrgbcolor
fill
grestore
stroke
grestore
gsave
446.4 157.1 72 43.2 clipbox
72 137.455 m
72.3178 137.455 l
72.3178 138.083 l
72 138.083 l
cl
gsave
0.000 0.000 1.000 setrgbcolor
fill
grestore
stroke
grestore
gsave
446.4 157.1 72 43.2 clipbox
72 138.083 m
72.3543 138.083 l
72.3543 138.711 l
72 138.711 l
cl
gsave
0.000 0.000 1.000 setrgbcolor
fill
grestore
stroke
grestore
gsave
446.4 157.1 72 43.2 clipbox
72 138.711 m
72.3856 138.711 l
72.3856 139.34 l
72 139.34 l
cl
gsave
0.000 0.000 1.000 setrgbcolor
fill
grestore
stroke
grestore
gsave
446.4 157.1 72 43.2 clipbox
72 139.34 m
72.2709 139.34 l
72.2709 139.968 l
72 139.968 l
cl
gsave
0.000 0.000 1.000 setrgbcolor
fill
grestore
stroke
grestore
gsave
446.4 157.1 72 43.2 clipbox
72 139.968 m
72.1772 139.968 l
72.1772 140.596 l
72 140.596 l
cl
gsave
0.000 0.000 1.000 setrgbcolor
fill
grestore
stroke
grestore
gsave
446.4 157.1 72 43.2 clipbox
72 140.596 m
72.1198 140.596 l
72.1198 141.225 l
72 141.225 l
cl
gsave
0.000 0.000 1.000 setrgbcolor
fill
grestore
stroke
grestore
gsave
446.4 157.1 72 43.2 clipbox
72 141.225 m
72.1198 141.225 l
72.1198 141.853 l
72 141.853 l
cl
gsave
0.000 0.000 1.000 setrgbcolor
fill
grestore
stroke
grestore
gsave
446.4 157.1 72 43.2 clipbox
72 141.853 m
72.099 141.853 l
72.099 142.481 l
72 142.481 l
cl
gsave
0.000 0.000 1.000 setrgbcolor
fill
grestore
stroke
grestore
gsave
446.4 157.1 72 43.2 clipbox
72 142.481 m
72.1146 142.481 l
72.1146 143.11 l
72 143.11 l
cl
gsave
0.000 0.000 1.000 setrgbcolor
fill
grestore
stroke
grestore
gsave
446.4 157.1 72 43.2 clipbox
72 143.11 m
72.1303 143.11 l
72.1303 143.738 l
72 143.738 l
cl
gsave
0.000 0.000 1.000 setrgbcolor
fill
grestore
stroke
grestore
gsave
446.4 157.1 72 43.2 clipbox
72 143.738 m
72.0729 143.738 l
72.0729 144.367 l
72 144.367 l
cl
gsave
0.000 0.000 1.000 setrgbcolor
fill
grestore
stroke
grestore
gsave
446.4 157.1 72 43.2 clipbox
72 144.367 m
72.3439 144.367 l
72.3439 144.995 l
72 144.995 l
cl
gsave
0.000 0.000 1.000 setrgbcolor
fill
grestore
stroke
grestore
gsave
446.4 157.1 72 43.2 clipbox
72 144.995 m
72.2188 144.995 l
72.2188 145.623 l
72 145.623 l
cl
gsave
0.000 0.000 1.000 setrgbcolor
fill
grestore
stroke
grestore
gsave
446.4 157.1 72 43.2 clipbox
72 145.623 m
72.1772 145.623 l
72.1772 146.252 l
72 146.252 l
cl
gsave
0.000 0.000 1.000 setrgbcolor
fill
grestore
stroke
grestore
gsave
446.4 157.1 72 43.2 clipbox
72 146.252 m
72.1876 146.252 l
72.1876 146.88 l
72 146.88 l
cl
gsave
0.000 0.000 1.000 setrgbcolor
fill
grestore
stroke
grestore
gsave
446.4 157.1 72 43.2 clipbox
72 146.88 m
72.2397 146.88 l
72.2397 147.508 l
72 147.508 l
cl
gsave
0.000 0.000 1.000 setrgbcolor
fill
grestore
stroke
grestore
gsave
446.4 157.1 72 43.2 clipbox
72 147.508 m
72.5002 147.508 l
72.5002 148.137 l
72 148.137 l
cl
gsave
0.000 0.000 1.000 setrgbcolor
fill
grestore
stroke
grestore
gsave
446.4 157.1 72 43.2 clipbox
72 148.137 m
73.5371 148.137 l
73.5371 148.765 l
72 148.765 l
cl
gsave
0.000 0.000 1.000 setrgbcolor
fill
grestore
stroke
grestore
gsave
446.4 157.1 72 43.2 clipbox
72 148.765 m
74.0061 148.765 l
74.0061 149.393 l
72 149.393 l
cl
gsave
0.000 0.000 1.000 setrgbcolor
fill
grestore
stroke
grestore
gsave
446.4 157.1 72 43.2 clipbox
72 149.393 m
74.0425 149.393 l
74.0425 150.022 l
72 150.022 l
cl
gsave
0.000 0.000 1.000 setrgbcolor
fill
grestore
stroke
grestore
gsave
446.4 157.1 72 43.2 clipbox
72 150.022 m
73.4277 150.022 l
73.4277 150.65 l
72 150.65 l
cl
gsave
0.000 0.000 1.000 setrgbcolor
fill
grestore
stroke
grestore
gsave
446.4 157.1 72 43.2 clipbox
72 150.65 m
72.7555 150.65 l
72.7555 151.279 l
72 151.279 l
cl
gsave
0.000 0.000 1.000 setrgbcolor
fill
grestore
stroke
grestore
gsave
446.4 157.1 72 43.2 clipbox
72 151.279 m
72.495 151.279 l
72.495 151.907 l
72 151.907 l
cl
gsave
0.000 0.000 1.000 setrgbcolor
fill
grestore
stroke
grestore
gsave
446.4 157.1 72 43.2 clipbox
72 151.907 m
72.9744 151.907 l
72.9744 152.535 l
72 152.535 l
cl
gsave
0.000 0.000 1.000 setrgbcolor
fill
grestore
stroke
grestore
gsave
446.4 157.1 72 43.2 clipbox
72 152.535 m
73.4433 152.535 l
73.4433 153.164 l
72 153.164 l
cl
gsave
0.000 0.000 1.000 setrgbcolor
fill
grestore
stroke
grestore
gsave
446.4 157.1 72 43.2 clipbox
72 153.164 m
72.6878 153.164 l
72.6878 153.792 l
72 153.792 l
cl
gsave
0.000 0.000 1.000 setrgbcolor
fill
grestore
stroke
grestore
gsave
446.4 157.1 72 43.2 clipbox
72 153.792 m
73.2193 153.792 l
73.2193 154.42 l
72 154.42 l
cl
gsave
0.000 0.000 1.000 setrgbcolor
fill
grestore
stroke
grestore
gsave
446.4 157.1 72 43.2 clipbox
72 154.42 m
72.5158 154.42 l
72.5158 155.049 l
72 155.049 l
cl
gsave
0.000 0.000 1.000 setrgbcolor
fill
grestore
stroke
grestore
gsave
446.4 157.1 72 43.2 clipbox
72 155.049 m
72.5836 155.049 l
72.5836 155.677 l
72 155.677 l
cl
gsave
0.000 0.000 1.000 setrgbcolor
fill
grestore
stroke
grestore
gsave
446.4 157.1 72 43.2 clipbox
72 155.677 m
72.8702 155.677 l
72.8702 156.305 l
72 156.305 l
cl
gsave
0.000 0.000 1.000 setrgbcolor
fill
grestore
stroke
grestore
gsave
446.4 157.1 72 43.2 clipbox
72 156.305 m
72.7191 156.305 l
72.7191 156.934 l
72 156.934 l
cl
gsave
0.000 0.000 1.000 setrgbcolor
fill
grestore
stroke
grestore
gsave
446.4 157.1 72 43.2 clipbox
72 156.934 m
72.4221 156.934 l
72.4221 157.562 l
72 157.562 l
cl
gsave
0.000 0.000 1.000 setrgbcolor
fill
grestore
stroke
grestore
gsave
446.4 157.1 72 43.2 clipbox
72 157.562 m
72.6461 157.562 l
72.6461 158.191 l
72 158.191 l
cl
gsave
0.000 0.000 1.000 setrgbcolor
fill
grestore
stroke
grestore
gsave
446.4 157.1 72 43.2 clipbox
72 158.191 m
72.2709 158.191 l
72.2709 158.819 l
72 158.819 l
cl
gsave
0.000 0.000 1.000 setrgbcolor
fill
grestore
stroke
grestore
gsave
446.4 157.1 72 43.2 clipbox
72 158.819 m
72.1251 158.819 l
72.1251 159.447 l
72 159.447 l
cl
gsave
0.000 0.000 1.000 setrgbcolor
fill
grestore
stroke
grestore
gsave
446.4 157.1 72 43.2 clipbox
72 159.447 m
72.1355 159.447 l
72.1355 160.076 l
72 160.076 l
cl
gsave
0.000 0.000 1.000 setrgbcolor
fill
grestore
stroke
grestore
gsave
446.4 157.1 72 43.2 clipbox
72 160.076 m
72.1667 160.076 l
72.1667 160.704 l
72 160.704 l
cl
gsave
0.000 0.000 1.000 setrgbcolor
fill
grestore
stroke
grestore
gsave
446.4 157.1 72 43.2 clipbox
72 160.704 m
72.1511 160.704 l
72.1511 161.332 l
72 161.332 l
cl
gsave
0.000 0.000 1.000 setrgbcolor
fill
grestore
stroke
grestore
gsave
446.4 157.1 72 43.2 clipbox
72 161.332 m
72.1407 161.332 l
72.1407 161.961 l
72 161.961 l
cl
gsave
0.000 0.000 1.000 setrgbcolor
fill
grestore
stroke
grestore
gsave
446.4 157.1 72 43.2 clipbox
72 161.961 m
72.1824 161.961 l
72.1824 162.589 l
72 162.589 l
cl
gsave
0.000 0.000 1.000 setrgbcolor
fill
grestore
stroke
grestore
gsave
446.4 157.1 72 43.2 clipbox
72 162.589 m
72.3126 162.589 l
72.3126 163.217 l
72 163.217 l
cl
gsave
0.000 0.000 1.000 setrgbcolor
fill
grestore
stroke
grestore
gsave
446.4 157.1 72 43.2 clipbox
72 163.217 m
72.4116 163.217 l
72.4116 163.846 l
72 163.846 l
cl
gsave
0.000 0.000 1.000 setrgbcolor
fill
grestore
stroke
grestore
gsave
446.4 157.1 72 43.2 clipbox
72 163.846 m
72.4273 163.846 l
72.4273 164.474 l
72 164.474 l
cl
gsave
0.000 0.000 1.000 setrgbcolor
fill
grestore
stroke
grestore
gsave
446.4 157.1 72 43.2 clipbox
72 164.474 m
72.3491 164.474 l
72.3491 165.103 l
72 165.103 l
cl
gsave
0.000 0.000 1.000 setrgbcolor
fill
grestore
stroke
grestore
gsave
446.4 157.1 72 43.2 clipbox
72 165.103 m
72.4898 165.103 l
72.4898 165.731 l
72 165.731 l
cl
gsave
0.000 0.000 1.000 setrgbcolor
fill
grestore
stroke
grestore
gsave
446.4 157.1 72 43.2 clipbox
72 165.731 m
72.4168 165.731 l
72.4168 166.359 l
72 166.359 l
cl
gsave
0.000 0.000 1.000 setrgbcolor
fill
grestore
stroke
grestore
gsave
446.4 157.1 72 43.2 clipbox
72 166.359 m
72.2605 166.359 l
72.2605 166.988 l
72 166.988 l
cl
gsave
0.000 0.000 1.000 setrgbcolor
fill
grestore
stroke
grestore
gsave
446.4 157.1 72 43.2 clipbox
72 166.988 m
72.3126 166.988 l
72.3126 167.616 l
72 167.616 l
cl
gsave
0.000 0.000 1.000 setrgbcolor
fill
grestore
stroke
grestore
gsave
446.4 157.1 72 43.2 clipbox
72 167.616 m
72.3856 167.616 l
72.3856 168.244 l
72 168.244 l
cl
gsave
0.000 0.000 1.000 setrgbcolor
fill
grestore
stroke
grestore
gsave
446.4 157.1 72 43.2 clipbox
72 168.244 m
72.2293 168.244 l
72.2293 168.873 l
72 168.873 l
cl
gsave
0.000 0.000 1.000 setrgbcolor
fill
grestore
stroke
grestore
gsave
446.4 157.1 72 43.2 clipbox
72 168.873 m
72.1824 168.873 l
72.1824 169.501 l
72 169.501 l
cl
gsave
0.000 0.000 1.000 setrgbcolor
fill
grestore
stroke
grestore
gsave
446.4 157.1 72 43.2 clipbox
72 169.501 m
72.1772 169.501 l
72.1772 170.129 l
72 170.129 l
cl
gsave
0.000 0.000 1.000 setrgbcolor
fill
grestore
stroke
grestore
gsave
446.4 157.1 72 43.2 clipbox
72 170.129 m
72.1251 170.129 l
72.1251 170.758 l
72 170.758 l
cl
gsave
0.000 0.000 1.000 setrgbcolor
fill
grestore
stroke
grestore
gsave
446.4 157.1 72 43.2 clipbox
72 170.758 m
72.2188 170.758 l
72.2188 171.386 l
72 171.386 l
cl
gsave
0.000 0.000 1.000 setrgbcolor
fill
grestore
stroke
grestore
gsave
446.4 157.1 72 43.2 clipbox
72 171.386 m
72.2345 171.386 l
72.2345 172.015 l
72 172.015 l
cl
gsave
0.000 0.000 1.000 setrgbcolor
fill
grestore
stroke
grestore
gsave
446.4 157.1 72 43.2 clipbox
72 172.015 m
73.1515 172.015 l
73.1515 172.643 l
72 172.643 l
cl
gsave
0.000 0.000 1.000 setrgbcolor
fill
grestore
stroke
grestore
gsave
446.4 157.1 72 43.2 clipbox
72 172.643 m
73.0161 172.643 l
73.0161 173.271 l
72 173.271 l
cl
gsave
0.000 0.000 1.000 setrgbcolor
fill
grestore
stroke
grestore
gsave
446.4 157.1 72 43.2 clipbox
72 173.271 m
72.1355 173.271 l
72.1355 173.9 l
72 173.9 l
cl
gsave
0.000 0.000 1.000 setrgbcolor
fill
grestore
stroke
grestore
gsave
446.4 157.1 72 43.2 clipbox
72 173.9 m
72.1042 173.9 l
72.1042 174.528 l
72 174.528 l
cl
gsave
0.000 0.000 1.000 setrgbcolor
fill
grestore
stroke
grestore
gsave
446.4 157.1 72 43.2 clipbox
72 174.528 m
72.1928 174.528 l
72.1928 175.156 l
72 175.156 l
cl
gsave
0.000 0.000 1.000 setrgbcolor
fill
grestore
stroke
grestore
gsave
446.4 157.1 72 43.2 clipbox
72 175.156 m
72.2397 175.156 l
72.2397 175.785 l
72 175.785 l
cl
gsave
0.000 0.000 1.000 setrgbcolor
fill
grestore
stroke
grestore
gsave
446.4 157.1 72 43.2 clipbox
72 175.785 m
72.198 175.785 l
72.198 176.413 l
72 176.413 l
cl
gsave
0.000 0.000 1.000 setrgbcolor
fill
grestore
stroke
grestore
gsave
446.4 157.1 72 43.2 clipbox
72 176.413 m
72.2397 176.413 l
72.2397 177.041 l
72 177.041 l
cl
gsave
0.000 0.000 1.000 setrgbcolor
fill
grestore
stroke
grestore
gsave
446.4 157.1 72 43.2 clipbox
72 177.041 m
72.2397 177.041 l
72.2397 177.67 l
72 177.67 l
cl
gsave
0.000 0.000 1.000 setrgbcolor
fill
grestore
stroke
grestore
gsave
446.4 157.1 72 43.2 clipbox
72 177.67 m
72.2605 177.67 l
72.2605 178.298 l
72 178.298 l
cl
gsave
0.000 0.000 1.000 setrgbcolor
fill
grestore
stroke
grestore
gsave
446.4 157.1 72 43.2 clipbox
72 178.298 m
72.1928 178.298 l
72.1928 178.927 l
72 178.927 l
cl
gsave
0.000 0.000 1.000 setrgbcolor
fill
grestore
stroke
grestore
gsave
446.4 157.1 72 43.2 clipbox
72 178.927 m
72.2293 178.927 l
72.2293 179.555 l
72 179.555 l
cl
gsave
0.000 0.000 1.000 setrgbcolor
fill
grestore
stroke
grestore
gsave
446.4 157.1 72 43.2 clipbox
72 179.555 m
72.297 179.555 l
72.297 180.183 l
72 180.183 l
cl
gsave
0.000 0.000 1.000 setrgbcolor
fill
grestore
stroke
grestore
gsave
446.4 157.1 72 43.2 clipbox
72 180.183 m
72.6722 180.183 l
72.6722 180.812 l
72 180.812 l
cl
gsave
0.000 0.000 1.000 setrgbcolor
fill
grestore
stroke
grestore
gsave
446.4 157.1 72 43.2 clipbox
72 180.812 m
72.8076 180.812 l
72.8076 181.44 l
72 181.44 l
cl
gsave
0.000 0.000 1.000 setrgbcolor
fill
grestore
stroke
grestore
gsave
446.4 157.1 72 43.2 clipbox
72 181.44 m
72.4742 181.44 l
72.4742 182.068 l
72 182.068 l
cl
gsave
0.000 0.000 1.000 setrgbcolor
fill
grestore
stroke
grestore
gsave
446.4 157.1 72 43.2 clipbox
72 182.068 m
72.1772 182.068 l
72.1772 182.697 l
72 182.697 l
cl
gsave
0.000 0.000 1.000 setrgbcolor
fill
grestore
stroke
grestore
gsave
446.4 157.1 72 43.2 clipbox
72 182.697 m
72.2397 182.697 l
72.2397 183.325 l
72 183.325 l
cl
gsave
0.000 0.000 1.000 setrgbcolor
fill
grestore
stroke
grestore
gsave
446.4 157.1 72 43.2 clipbox
72 183.325 m
72.3595 183.325 l
72.3595 183.953 l
72 183.953 l
cl
gsave
0.000 0.000 1.000 setrgbcolor
fill
grestore
stroke
grestore
gsave
446.4 157.1 72 43.2 clipbox
72 183.953 m
72.6722 183.953 l
72.6722 184.582 l
72 184.582 l
cl
gsave
0.000 0.000 1.000 setrgbcolor
fill
grestore
stroke
grestore
gsave
446.4 157.1 72 43.2 clipbox
72 184.582 m
72.5158 184.582 l
72.5158 185.21 l
72 185.21 l
cl
gsave
0.000 0.000 1.000 setrgbcolor
fill
grestore
stroke
grestore
gsave
446.4 157.1 72 43.2 clipbox
72 185.21 m
72.1928 185.21 l
72.1928 185.839 l
72 185.839 l
cl
gsave
0.000 0.000 1.000 setrgbcolor
fill
grestore
stroke
grestore
gsave
446.4 157.1 72 43.2 clipbox
72 185.839 m
72.2136 185.839 l
72.2136 186.467 l
72 186.467 l
cl
gsave
0.000 0.000 1.000 setrgbcolor
fill
grestore
stroke
grestore
gsave
446.4 157.1 72 43.2 clipbox
72 186.467 m
72.2032 186.467 l
72.2032 187.095 l
72 187.095 l
cl
gsave
0.000 0.000 1.000 setrgbcolor
fill
grestore
stroke
grestore
gsave
446.4 157.1 72 43.2 clipbox
72 187.095 m
72.1719 187.095 l
72.1719 187.724 l
72 187.724 l
cl
gsave
0.000 0.000 1.000 setrgbcolor
fill
grestore
stroke
grestore
gsave
446.4 157.1 72 43.2 clipbox
72 187.724 m
72.1251 187.724 l
72.1251 188.352 l
72 188.352 l
cl
gsave
0.000 0.000 1.000 setrgbcolor
fill
grestore
stroke
grestore
gsave
446.4 157.1 72 43.2 clipbox
72 188.352 m
72.297 188.352 l
72.297 188.98 l
72 188.98 l
cl
gsave
0.000 0.000 1.000 setrgbcolor
fill
grestore
stroke
grestore
gsave
446.4 157.1 72 43.2 clipbox
72 188.98 m
72.0417 188.98 l
72.0417 189.609 l
72 189.609 l
cl
gsave
0.000 0.000 1.000 setrgbcolor
fill
grestore
stroke
grestore
gsave
446.4 157.1 72 43.2 clipbox
72 189.609 m
72.0625 189.609 l
72.0625 190.237 l
72 190.237 l
cl
gsave
0.000 0.000 1.000 setrgbcolor
fill
grestore
stroke
grestore
gsave
446.4 157.1 72 43.2 clipbox
72 190.237 m
72.0365 190.237 l
72.0365 190.865 l
72 190.865 l
cl
gsave
0.000 0.000 1.000 setrgbcolor
fill
grestore
stroke
grestore
gsave
446.4 157.1 72 43.2 clipbox
72 190.865 m
72.1563 190.865 l
72.1563 191.494 l
72 191.494 l
cl
gsave
0.000 0.000 1.000 setrgbcolor
fill
grestore
stroke
grestore
gsave
446.4 157.1 72 43.2 clipbox
72 191.494 m
72.0417 191.494 l
72.0417 192.122 l
72 192.122 l
cl
gsave
0.000 0.000 1.000 setrgbcolor
fill
grestore
stroke
grestore
gsave
446.4 157.1 72 43.2 clipbox
72 192.122 m
72.0365 192.122 l
72.0365 192.751 l
72 192.751 l
cl
gsave
0.000 0.000 1.000 setrgbcolor
fill
grestore
stroke
grestore
gsave
446.4 157.1 72 43.2 clipbox
72 192.751 m
72.0365 192.751 l
72.0365 193.379 l
72 193.379 l
cl
gsave
0.000 0.000 1.000 setrgbcolor
fill
grestore
stroke
grestore
gsave
446.4 157.1 72 43.2 clipbox
72 193.379 m
72.0417 193.379 l
72.0417 194.007 l
72 194.007 l
cl
gsave
0.000 0.000 1.000 setrgbcolor
fill
grestore
stroke
grestore
gsave
446.4 157.1 72 43.2 clipbox
72 194.007 m
72.0261 194.007 l
72.0261 194.636 l
72 194.636 l
cl
gsave
0.000 0.000 1.000 setrgbcolor
fill
grestore
stroke
grestore
gsave
446.4 157.1 72 43.2 clipbox
72 194.636 m
72.0261 194.636 l
72.0261 195.264 l
72 195.264 l
cl
gsave
0.000 0.000 1.000 setrgbcolor
fill
grestore
stroke
grestore
gsave
446.4 157.1 72 43.2 clipbox
72 195.264 m
72.0261 195.264 l
72.0261 195.892 l
72 195.892 l
cl
gsave
0.000 0.000 1.000 setrgbcolor
fill
grestore
stroke
grestore
gsave
446.4 157.1 72 43.2 clipbox
72 195.892 m
72.0208 195.892 l
72.0208 196.521 l
72 196.521 l
cl
gsave
0.000 0.000 1.000 setrgbcolor
fill
grestore
stroke
grestore
gsave
446.4 157.1 72 43.2 clipbox
72 196.521 m
72.0417 196.521 l
72.0417 197.149 l
72 197.149 l
cl
gsave
0.000 0.000 1.000 setrgbcolor
fill
grestore
stroke
grestore
gsave
446.4 157.1 72 43.2 clipbox
72 197.149 m
72.0261 197.149 l
72.0261 197.777 l
72 197.777 l
cl
gsave
0.000 0.000 1.000 setrgbcolor
fill
grestore
stroke
grestore
gsave
446.4 157.1 72 43.2 clipbox
72 197.777 m
72.0417 197.777 l
72.0417 198.406 l
72 198.406 l
cl
gsave
0.000 0.000 1.000 setrgbcolor
fill
grestore
stroke
grestore
gsave
446.4 157.1 72 43.2 clipbox
72 198.406 m
72.0313 198.406 l
72.0313 199.034 l
72 199.034 l
cl
gsave
0.000 0.000 1.000 setrgbcolor
fill
grestore
stroke
grestore
gsave
446.4 157.1 72 43.2 clipbox
72 199.034 m
72.0156 199.034 l
72.0156 199.663 l
72 199.663 l
cl
gsave
0.000 0.000 1.000 setrgbcolor
fill
grestore
stroke
grestore
0.500 setlinewidth
0 setlinecap
gsave
/o {
gsave
newpath
translate
0.5 setlinewidth
1 setlinejoin
0 setlinecap
0 0 m
0 4 l
gsave
0.000 setgray
fill
grestore
stroke
grestore
} bind def
72 43.2 o
grestore
gsave
/o {
gsave
newpath
translate
0.5 setlinewidth
1 setlinejoin
0 setlinecap
0 0 m
0 -4 l
gsave
0.000 setgray
fill
grestore
stroke
grestore
} bind def
72 200.291 o
grestore
gsave
59.429688 30.121875 translate
0.000000 rotate
0.000000 0.171875 m /zero glyphshow
7.634766 0.171875 m /period glyphshow
11.449219 0.171875 m /zero glyphshow
19.083984 0.171875 m /zero glyphshow
grestore
gsave
/o {
gsave
newpath
translate
0.5 setlinewidth
1 setlinejoin
0 setlinecap
0 0 m
0 4 l
gsave
0.000 setgray
fill
grestore
stroke
grestore
} bind def
161.28 43.2 o
grestore
gsave
/o {
gsave
newpath
translate
0.5 setlinewidth
1 setlinejoin
0 setlinecap
0 0 m
0 -4 l
gsave
0.000 setgray
fill
grestore
stroke
grestore
} bind def
161.28 200.291 o
grestore
gsave
148.834688 30.121875 translate
0.000000 rotate
0.000000 0.171875 m /zero glyphshow
7.634766 0.171875 m /period glyphshow
11.449219 0.171875 m /zero glyphshow
19.083984 0.171875 m /five glyphshow
grestore
gsave
/o {
gsave
newpath
translate
0.5 setlinewidth
1 setlinejoin
0 setlinecap
0 0 m
0 4 l
gsave
0.000 setgray
fill
grestore
stroke
grestore
} bind def
250.56 43.2 o
grestore
gsave
/o {
gsave
newpath
translate
0.5 setlinewidth
1 setlinejoin
0 setlinecap
0 0 m
0 -4 l
gsave
0.000 setgray
fill
grestore
stroke
grestore
} bind def
250.56 200.291 o
grestore
gsave
237.989688 30.121875 translate
0.000000 rotate
0.000000 0.171875 m /zero glyphshow
7.634766 0.171875 m /period glyphshow
11.449219 0.171875 m /one glyphshow
19.083984 0.171875 m /zero glyphshow
grestore
gsave
/o {
gsave
newpath
translate
0.5 setlinewidth
1 setlinejoin
0 setlinecap
0 0 m
0 4 l
gsave
0.000 setgray
fill
grestore
stroke
grestore
} bind def
339.84 43.2 o
grestore
gsave
/o {
gsave
newpath
translate
0.5 setlinewidth
1 setlinejoin
0 setlinecap
0 0 m
0 -4 l
gsave
0.000 setgray
fill
grestore
stroke
grestore
} bind def
339.84 200.291 o
grestore
gsave
327.394688 30.121875 translate
0.000000 rotate
0.000000 0.171875 m /zero glyphshow
7.634766 0.171875 m /period glyphshow
11.449219 0.171875 m /one glyphshow
19.083984 0.171875 m /five glyphshow
grestore
gsave
/o {
gsave
newpath
translate
0.5 setlinewidth
1 setlinejoin
0 setlinecap
0 0 m
0 4 l
gsave
0.000 setgray
fill
grestore
stroke
grestore
} bind def
429.12 43.2 o
grestore
gsave
/o {
gsave
newpath
translate
0.5 setlinewidth
1 setlinejoin
0 setlinecap
0 0 m
0 -4 l
gsave
0.000 setgray
fill
grestore
stroke
grestore
} bind def
429.12 200.291 o
grestore
gsave
416.549688 30.121875 translate
0.000000 rotate
0.000000 0.171875 m /zero glyphshow
7.634766 0.171875 m /period glyphshow
11.449219 0.171875 m /two glyphshow
19.083984 0.171875 m /zero glyphshow
grestore
gsave
/o {
gsave
newpath
translate
0.5 setlinewidth
1 setlinejoin
0 setlinecap
0 0 m
0 4 l
gsave
0.000 setgray
fill
grestore
stroke
grestore
} bind def
518.4 43.2 o
grestore
gsave
/o {
gsave
newpath
translate
0.5 setlinewidth
1 setlinejoin
0 setlinecap
0 0 m
0 -4 l
gsave
0.000 setgray
fill
grestore
stroke
grestore
} bind def
518.4 200.291 o
grestore
gsave
505.954687 30.121875 translate
0.000000 rotate
0.000000 0.171875 m /zero glyphshow
7.634766 0.171875 m /period glyphshow
11.449219 0.171875 m /two glyphshow
19.083984 0.171875 m /five glyphshow
grestore
/BitstreamVeraSans-Roman findfont
10.000 scalefont
setfont
gsave
286.239062 17.825000 translate
0.000000 rotate
0.000000 0.000000 m /P glyphshow
6.030273 0.000000 m /D glyphshow
13.730469 0.000000 m /F glyphshow
grestore
gsave
/o {
gsave
newpath
translate
0.5 setlinewidth
1 setlinejoin
0 setlinecap
0 0 m
4 0 l
gsave
0.000 setgray
fill
grestore
stroke
grestore
} bind def
72 43.2 o
grestore
gsave
/o {
gsave
newpath
translate
0.5 setlinewidth
1 setlinejoin
0 setlinecap
0 0 m
-4 0 l
gsave
0.000 setgray
fill
grestore
stroke
grestore
} bind def
518.4 43.2 o
grestore
/BitstreamVeraSans-Roman findfont
12.000 scalefont
setfont
gsave
47.187500 38.660937 translate
0.000000 rotate
0.000000 0.171875 m /one glyphshow
7.634766 0.171875 m /zero glyphshow
15.269531 0.171875 m /zero glyphshow
grestore
gsave
/o {
gsave
newpath
translate
0.5 setlinewidth
1 setlinejoin
0 setlinecap
0 0 m
4 0 l
gsave
0.000 setgray
fill
grestore
stroke
grestore
} bind def
72 74.6182 o
grestore
gsave
/o {
gsave
newpath
translate
0.5 setlinewidth
1 setlinejoin
0 setlinecap
0 0 m
-4 0 l
gsave
0.000 setgray
fill
grestore
stroke
grestore
} bind def
518.4 74.6182 o
grestore
gsave
47.187500 70.079119 translate
0.000000 rotate
0.000000 0.171875 m /one glyphshow
7.634766 0.171875 m /five glyphshow
15.269531 0.171875 m /zero glyphshow
grestore
gsave
/o {
gsave
newpath
translate
0.5 setlinewidth
1 setlinejoin
0 setlinecap
0 0 m
4 0 l
gsave
0.000 setgray
fill
grestore
stroke
grestore
} bind def
72 106.036 o
grestore
gsave
/o {
gsave
newpath
translate
0.5 setlinewidth
1 setlinejoin
0 setlinecap
0 0 m
-4 0 l
gsave
0.000 setgray
fill
grestore
stroke
grestore
} bind def
518.4 106.036 o
grestore
gsave
46.750000 101.497301 translate
0.000000 rotate
0.000000 0.171875 m /two glyphshow
7.634766 0.171875 m /zero glyphshow
15.269531 0.171875 m /zero glyphshow
grestore
gsave
/o {
gsave
newpath
translate
0.5 setlinewidth
1 setlinejoin
0 setlinecap
0 0 m
4 0 l
gsave
0.000 setgray
fill
grestore
stroke
grestore
} bind def
72 137.455 o
grestore
gsave
/o {
gsave
newpath
translate
0.5 setlinewidth
1 setlinejoin
0 setlinecap
0 0 m
-4 0 l
gsave
0.000 setgray
fill
grestore
stroke
grestore
} bind def
518.4 137.455 o
grestore
gsave
46.750000 132.915483 translate
0.000000 rotate
0.000000 0.171875 m /two glyphshow
7.634766 0.171875 m /five glyphshow
15.269531 0.171875 m /zero glyphshow
grestore
gsave
/o {
gsave
newpath
translate
0.5 setlinewidth
1 setlinejoin
0 setlinecap
0 0 m
4 0 l
gsave
0.000 setgray
fill
grestore
stroke
grestore
} bind def
72 168.873 o
grestore
gsave
/o {
gsave
newpath
translate
0.5 setlinewidth
1 setlinejoin
0 setlinecap
0 0 m
-4 0 l
gsave
0.000 setgray
fill
grestore
stroke
grestore
} bind def
518.4 168.873 o
grestore
gsave
46.796875 164.333665 translate
0.000000 rotate
0.000000 0.171875 m /three glyphshow
7.634766 0.171875 m /zero glyphshow
15.269531 0.171875 m /zero glyphshow
grestore
gsave
/o {
gsave
newpath
translate
0.5 setlinewidth
1 setlinejoin
0 setlinecap
0 0 m
4 0 l
gsave
0.000 setgray
fill
grestore
stroke
grestore
} bind def
72 200.291 o
grestore
gsave
/o {
gsave
newpath
translate
0.5 setlinewidth
1 setlinejoin
0 setlinecap
0 0 m
-4 0 l
gsave
0.000 setgray
fill
grestore
stroke
grestore
} bind def
518.4 200.291 o
grestore
gsave
46.796875 195.751847 translate
0.000000 rotate
0.000000 0.171875 m /three glyphshow
7.634766 0.171875 m /five glyphshow
15.269531 0.171875 m /zero glyphshow
grestore
/BitstreamVeraSans-Roman findfont
10.000 scalefont
setfont
gsave
41.750000 55.206392 translate
90.000000 rotate
0.000000 2.078125 m /P glyphshow
5.655273 2.078125 m /o glyphshow
11.773438 2.078125 m /w glyphshow
19.952148 2.078125 m /e glyphshow
26.104492 2.078125 m /r glyphshow
30.215820 2.078125 m /space glyphshow
33.394531 2.078125 m /C glyphshow
40.376953 2.078125 m /o glyphshow
46.495117 2.078125 m /n glyphshow
52.833008 2.078125 m /s glyphshow
58.042969 2.078125 m /u glyphshow
64.380859 2.078125 m /m glyphshow
74.122070 2.078125 m /p glyphshow
80.469727 2.078125 m /t glyphshow
84.390625 2.078125 m /i glyphshow
87.168945 2.078125 m /o glyphshow
93.287109 2.078125 m /n glyphshow
99.625000 2.078125 m /space glyphshow
102.803711 2.078125 m /parenleft glyphshow
106.705078 2.078125 m /W glyphshow
115.967773 2.078125 m /a glyphshow
122.095703 2.078125 m /t glyphshow
126.016602 2.078125 m /t glyphshow
129.937500 2.078125 m /parenright glyphshow
grestore
1.000 setlinewidth
2 setlinecap
gsave
72 200.291 m
518.4 200.291 l
stroke
grestore
gsave
518.4 43.2 m
518.4 200.291 l
stroke
grestore
gsave
72 43.2 m
518.4 43.2 l
stroke
grestore
gsave
72 43.2 m
72 200.291 l
stroke
grestore
/BitstreamVeraSans-Roman findfont
12.000 scalefont
setfont
gsave
237.325000 203.712784 translate
0.000000 rotate
0.000000 1.578125 m /parenleft glyphshow
4.681641 1.578125 m /b glyphshow
12.298828 1.578125 m /parenright glyphshow
16.980469 1.578125 m /space glyphshow
20.794922 1.578125 m /N glyphshow
29.771484 1.578125 m /o glyphshow
37.113281 1.578125 m /d glyphshow
44.730469 1.578125 m /e glyphshow
52.113281 1.578125 m /s glyphshow
58.365234 1.578125 m /space glyphshow
62.179688 1.578125 m /w glyphshow
71.994141 1.578125 m /i glyphshow
75.328125 1.578125 m /t glyphshow
80.033203 1.578125 m /h glyphshow
87.638672 1.578125 m /space glyphshow
91.453125 1.578125 m /G glyphshow
100.751953 1.578125 m /P glyphshow
107.988281 1.578125 m /U glyphshow
grestore

end
showpage
