%!PS-Adobe-3.0 EPSF-3.0
%%Title: ./nodes-loaddistribution-googleno.eps
%%Creator: matplotlib version 1.1.1, http://matplotlib.sourceforge.net/
%%CreationDate: Tue Apr 15 09:40:44 2014
%%Orientation: portrait
%%BoundingBox: 18 180 594 612
%%EndComments
%%BeginProlog
/mpldict 8 dict def
mpldict begin
/m { moveto } bind def
/l { lineto } bind def
/r { rlineto } bind def
/c { curveto } bind def
/cl { closepath } bind def
/box {
m
1 index 0 r
0 exch r
neg 0 r
cl
} bind def
/clipbox {
box
clip
newpath
} bind def
%!PS-Adobe-3.0 Resource-Font
%%Title: Bitstream Vera Sans
%%Copyright: Copyright (c) 2003 by Bitstream, Inc. All Rights Reserved.
%%Creator: Converted from TrueType to type 3 by PPR
25 dict begin
/_d{bind def}bind def
/_m{moveto}_d
/_l{lineto}_d
/_cl{closepath eofill}_d
/_c{curveto}_d
/_sc{7 -1 roll{setcachedevice}{pop pop pop pop pop pop}ifelse}_d
/_e{exec}_d
/FontName /BitstreamVeraSans-Roman def
/PaintType 0 def
/FontMatrix[.001 0 0 .001 0 0]def
/FontBBox[-183 -236 1287 928]def
/FontType 3 def
/Encoding [ /space /parenleft /parenright /period /zero /one /two /four /six /eight /C /D /F /G /H /L /M /N /P /R /U /a /b /c /d /e /h /i /k /l /m /n /o /p /r /s /t /u /w /y ] def
/FontInfo 10 dict dup begin
/FamilyName (Bitstream Vera Sans) def
/FullName (Bitstream Vera Sans) def
/Notice (Copyright (c) 2003 by Bitstream, Inc. All Rights Reserved. Bitstream Vera is a trademark of Bitstream, Inc.) def
/Weight (Roman) def
/Version (Release 1.10) def
/ItalicAngle 0.0 def
/isFixedPitch false def
/UnderlinePosition -213 def
/UnderlineThickness 143 def
end readonly def
/CharStrings 40 dict dup begin
/space{318 0 0 0 0 0 _sc
}_d
/parenleft{390 0 86 -131 310 759 _sc
310 759 _m
266 683 234 609 213 536 _c
191 463 181 389 181 314 _c
181 238 191 164 213 91 _c
234 17 266 -56 310 -131 _c
232 -131 _l
183 -54 146 20 122 94 _c
98 168 86 241 86 314 _c
86 386 98 459 122 533 _c
146 607 182 682 232 759 _c
310 759 _l
_cl}_d
/parenright{390 0 80 -131 304 759 _sc
80 759 _m
158 759 _l
206 682 243 607 267 533 _c
291 459 304 386 304 314 _c
304 241 291 168 267 94 _c
243 20 206 -54 158 -131 _c
80 -131 _l
123 -56 155 17 177 91 _c
198 164 209 238 209 314 _c
209 389 198 463 177 536 _c
155 609 123 683 80 759 _c
_cl}_d
/period{318 0 107 0 210 124 _sc
107 124 _m
210 124 _l
210 0 _l
107 0 _l
107 124 _l
_cl}_d
/zero{636 0 66 -13 570 742 _sc
318 664 _m
267 664 229 639 203 589 _c
177 539 165 464 165 364 _c
165 264 177 189 203 139 _c
229 89 267 64 318 64 _c
369 64 407 89 433 139 _c
458 189 471 264 471 364 _c
471 464 458 539 433 589 _c
407 639 369 664 318 664 _c
318 742 _m
399 742 461 709 505 645 _c
548 580 570 486 570 364 _c
570 241 548 147 505 83 _c
461 19 399 -13 318 -13 _c
236 -13 173 19 130 83 _c
87 147 66 241 66 364 _c
66 486 87 580 130 645 _c
173 709 236 742 318 742 _c
_cl}_d
/one{636 0 110 0 544 729 _sc
124 83 _m
285 83 _l
285 639 _l
110 604 _l
110 694 _l
284 729 _l
383 729 _l
383 83 _l
544 83 _l
544 0 _l
124 0 _l
124 83 _l
_cl}_d
/two{{636 0 73 0 536 742 _sc
192 83 _m
536 83 _l
536 0 _l
73 0 _l
73 83 _l
110 121 161 173 226 239 _c
290 304 331 346 348 365 _c
380 400 402 430 414 455 _c
426 479 433 504 433 528 _c
433 566 419 598 392 622 _c
365 646 330 659 286 659 _c
255 659 222 653 188 643 _c
154 632 117 616 78 594 _c
78 694 _l
118 710 155 722 189 730 _c
223 738 255 742 284 742 _c
}_e{359 742 419 723 464 685 _c
509 647 532 597 532 534 _c
532 504 526 475 515 449 _c
504 422 484 390 454 354 _c
446 344 420 317 376 272 _c
332 227 271 164 192 83 _c
_cl}_e}_d
/four{636 0 49 0 580 729 _sc
378 643 _m
129 254 _l
378 254 _l
378 643 _l
352 729 _m
476 729 _l
476 254 _l
580 254 _l
580 172 _l
476 172 _l
476 0 _l
378 0 _l
378 172 _l
49 172 _l
49 267 _l
352 729 _l
_cl}_d
/six{{636 0 70 -13 573 742 _sc
330 404 _m
286 404 251 388 225 358 _c
199 328 186 286 186 234 _c
186 181 199 139 225 109 _c
251 79 286 64 330 64 _c
374 64 409 79 435 109 _c
461 139 474 181 474 234 _c
474 286 461 328 435 358 _c
409 388 374 404 330 404 _c
526 713 _m
526 623 _l
501 635 476 644 451 650 _c
425 656 400 659 376 659 _c
310 659 260 637 226 593 _c
}_e{192 549 172 482 168 394 _c
187 422 211 444 240 459 _c
269 474 301 482 336 482 _c
409 482 467 459 509 415 _c
551 371 573 310 573 234 _c
573 159 550 99 506 54 _c
462 9 403 -13 330 -13 _c
246 -13 181 19 137 83 _c
92 147 70 241 70 364 _c
70 479 97 571 152 639 _c
206 707 280 742 372 742 _c
396 742 421 739 447 735 _c
472 730 498 723 526 713 _c
_cl}_e}_d
/eight{{636 0 68 -13 568 742 _sc
318 346 _m
271 346 234 333 207 308 _c
180 283 167 249 167 205 _c
167 161 180 126 207 101 _c
234 76 271 64 318 64 _c
364 64 401 76 428 102 _c
455 127 469 161 469 205 _c
469 249 455 283 429 308 _c
402 333 365 346 318 346 _c
219 388 _m
177 398 144 418 120 447 _c
96 476 85 511 85 553 _c
85 611 105 657 147 691 _c
188 725 245 742 318 742 _c
}_e{390 742 447 725 489 691 _c
530 657 551 611 551 553 _c
551 511 539 476 515 447 _c
491 418 459 398 417 388 _c
464 377 501 355 528 323 _c
554 291 568 251 568 205 _c
568 134 546 80 503 43 _c
459 5 398 -13 318 -13 _c
237 -13 175 5 132 43 _c
89 80 68 134 68 205 _c
68 251 81 291 108 323 _c
134 355 171 377 219 388 _c
183 544 _m
183 506 194 476 218 455 _c
}_e{242 434 275 424 318 424 _c
360 424 393 434 417 455 _c
441 476 453 506 453 544 _c
453 582 441 611 417 632 _c
393 653 360 664 318 664 _c
275 664 242 653 218 632 _c
194 611 183 582 183 544 _c
_cl}_e}_d
/C{{698 0 56 -13 644 742 _sc
644 673 _m
644 569 _l
610 599 575 622 537 638 _c
499 653 460 661 418 661 _c
334 661 270 635 226 584 _c
182 533 160 460 160 364 _c
160 268 182 194 226 143 _c
270 92 334 67 418 67 _c
460 67 499 74 537 90 _c
575 105 610 128 644 159 _c
644 56 _l
609 32 572 15 534 4 _c
496 -7 455 -13 412 -13 _c
302 -13 215 20 151 87 _c
}_e{87 154 56 246 56 364 _c
56 481 87 573 151 641 _c
215 708 302 742 412 742 _c
456 742 497 736 535 725 _c
573 713 610 696 644 673 _c
_cl}_e}_d
/D{770 0 98 0 711 729 _sc
197 648 _m
197 81 _l
316 81 _l
416 81 490 103 537 149 _c
583 195 607 267 607 365 _c
607 463 583 534 537 580 _c
490 625 416 648 316 648 _c
197 648 _l
98 729 _m
301 729 _l
442 729 546 699 612 641 _c
678 582 711 490 711 365 _c
711 239 677 147 611 88 _c
545 29 441 0 301 0 _c
98 0 _l
98 729 _l
_cl}_d
/F{575 0 98 0 517 729 _sc
98 729 _m
517 729 _l
517 646 _l
197 646 _l
197 431 _l
486 431 _l
486 348 _l
197 348 _l
197 0 _l
98 0 _l
98 729 _l
_cl}_d
/G{{775 0 56 -13 693 742 _sc
595 104 _m
595 300 _l
434 300 _l
434 381 _l
693 381 _l
693 68 _l
655 40 613 20 567 7 _c
521 -6 472 -13 420 -13 _c
306 -13 216 20 152 86 _c
88 152 56 245 56 364 _c
56 482 88 575 152 642 _c
216 708 306 742 420 742 _c
467 742 512 736 555 724 _c
598 712 638 695 674 673 _c
674 568 _l
637 598 598 621 557 637 _c
516 653 473 661 428 661 _c
}_e{338 661 271 636 227 586 _c
182 536 160 462 160 364 _c
160 265 182 191 227 141 _c
271 91 338 67 428 67 _c
462 67 493 70 521 76 _c
549 82 573 91 595 104 _c
_cl}_e}_d
/H{752 0 98 0 654 729 _sc
98 729 _m
197 729 _l
197 430 _l
555 430 _l
555 729 _l
654 729 _l
654 0 _l
555 0 _l
555 347 _l
197 347 _l
197 0 _l
98 0 _l
98 729 _l
_cl}_d
/L{557 0 98 0 552 729 _sc
98 729 _m
197 729 _l
197 83 _l
552 83 _l
552 0 _l
98 0 _l
98 729 _l
_cl}_d
/M{863 0 98 0 765 729 _sc
98 729 _m
245 729 _l
431 233 _l
618 729 _l
765 729 _l
765 0 _l
669 0 _l
669 640 _l
481 140 _l
382 140 _l
194 640 _l
194 0 _l
98 0 _l
98 729 _l
_cl}_d
/N{748 0 98 0 650 729 _sc
98 729 _m
231 729 _l
554 119 _l
554 729 _l
650 729 _l
650 0 _l
517 0 _l
194 610 _l
194 0 _l
98 0 _l
98 729 _l
_cl}_d
/P{603 0 98 0 569 729 _sc
197 648 _m
197 374 _l
321 374 _l
367 374 402 385 427 409 _c
452 433 465 467 465 511 _c
465 555 452 588 427 612 _c
402 636 367 648 321 648 _c
197 648 _l
98 729 _m
321 729 _l
402 729 464 710 506 673 _c
548 636 569 582 569 511 _c
569 439 548 384 506 348 _c
464 311 402 293 321 293 _c
197 293 _l
197 0 _l
98 0 _l
98 729 _l
_cl}_d
/R{{695 0 98 0 666 729 _sc
444 342 _m
465 334 486 319 506 296 _c
526 272 546 240 566 199 _c
666 0 _l
560 0 _l
467 187 _l
443 235 419 268 397 284 _c
374 300 343 308 304 308 _c
197 308 _l
197 0 _l
98 0 _l
98 729 _l
321 729 _l
404 729 466 711 507 677 _c
548 642 569 589 569 519 _c
569 473 558 434 537 404 _c
515 374 484 353 444 342 _c
197 648 _m
197 389 _l
321 389 _l
}_e{368 389 404 400 428 422 _c
452 444 465 476 465 519 _c
465 561 452 593 428 615 _c
404 637 368 648 321 648 _c
197 648 _l
_cl}_e}_d
/U{732 0 87 -13 645 729 _sc
87 729 _m
186 729 _l
186 286 _l
186 208 200 151 228 117 _c
256 83 302 66 366 66 _c
429 66 475 83 503 117 _c
531 151 546 208 546 286 _c
546 729 _l
645 729 _l
645 274 _l
645 178 621 107 574 59 _c
527 11 458 -13 366 -13 _c
274 -13 204 11 157 59 _c
110 107 87 178 87 274 _c
87 729 _l
_cl}_d
/a{{613 0 60 -13 522 560 _sc
343 275 _m
270 275 220 266 192 250 _c
164 233 150 205 150 165 _c
150 133 160 107 181 89 _c
202 70 231 61 267 61 _c
317 61 357 78 387 114 _c
417 149 432 196 432 255 _c
432 275 _l
343 275 _l
522 312 _m
522 0 _l
432 0 _l
432 83 _l
411 49 385 25 355 10 _c
325 -5 287 -13 243 -13 _c
187 -13 142 2 109 33 _c
76 64 60 106 60 159 _c
}_e{60 220 80 266 122 298 _c
163 329 224 345 306 345 _c
432 345 _l
432 354 _l
432 395 418 427 391 450 _c
364 472 326 484 277 484 _c
245 484 215 480 185 472 _c
155 464 127 453 100 439 _c
100 522 _l
132 534 164 544 195 550 _c
226 556 256 560 286 560 _c
365 560 424 539 463 498 _c
502 457 522 395 522 312 _c
_cl}_e}_d
/b{{635 0 91 -13 580 760 _sc
487 273 _m
487 339 473 390 446 428 _c
418 466 381 485 334 485 _c
286 485 249 466 222 428 _c
194 390 181 339 181 273 _c
181 207 194 155 222 117 _c
249 79 286 61 334 61 _c
381 61 418 79 446 117 _c
473 155 487 207 487 273 _c
181 464 _m
199 496 223 520 252 536 _c
281 552 316 560 356 560 _c
422 560 476 533 518 481 _c
559 428 580 359 580 273 _c
}_e{580 187 559 117 518 65 _c
476 13 422 -13 356 -13 _c
316 -13 281 -5 252 10 _c
223 25 199 49 181 82 _c
181 0 _l
91 0 _l
91 760 _l
181 760 _l
181 464 _l
_cl}_e}_d
/c{{550 0 55 -13 488 560 _sc
488 526 _m
488 442 _l
462 456 437 466 411 473 _c
385 480 360 484 334 484 _c
276 484 230 465 198 428 _c
166 391 150 339 150 273 _c
150 206 166 154 198 117 _c
230 80 276 62 334 62 _c
360 62 385 65 411 72 _c
437 79 462 90 488 104 _c
488 21 _l
462 9 436 0 410 -5 _c
383 -10 354 -13 324 -13 _c
242 -13 176 12 128 64 _c
}_e{79 115 55 185 55 273 _c
55 362 79 432 128 483 _c
177 534 244 560 330 560 _c
358 560 385 557 411 551 _c
437 545 463 537 488 526 _c
_cl}_e}_d
/d{{635 0 55 -13 544 760 _sc
454 464 _m
454 760 _l
544 760 _l
544 0 _l
454 0 _l
454 82 _l
435 49 411 25 382 10 _c
353 -5 319 -13 279 -13 _c
213 -13 159 13 117 65 _c
75 117 55 187 55 273 _c
55 359 75 428 117 481 _c
159 533 213 560 279 560 _c
319 560 353 552 382 536 _c
411 520 435 496 454 464 _c
148 273 _m
148 207 161 155 188 117 _c
215 79 253 61 301 61 _c
}_e{348 61 385 79 413 117 _c
440 155 454 207 454 273 _c
454 339 440 390 413 428 _c
385 466 348 485 301 485 _c
253 485 215 466 188 428 _c
161 390 148 339 148 273 _c
_cl}_e}_d
/e{{615 0 55 -13 562 560 _sc
562 296 _m
562 252 _l
149 252 _l
153 190 171 142 205 110 _c
238 78 284 62 344 62 _c
378 62 412 66 444 74 _c
476 82 509 95 541 113 _c
541 28 _l
509 14 476 3 442 -3 _c
408 -9 373 -13 339 -13 _c
251 -13 182 12 131 62 _c
80 112 55 181 55 268 _c
55 357 79 428 127 481 _c
175 533 241 560 323 560 _c
397 560 455 536 498 489 _c
}_e{540 441 562 377 562 296 _c
472 322 _m
471 371 457 410 431 440 _c
404 469 368 484 324 484 _c
274 484 234 469 204 441 _c
174 413 156 373 152 322 _c
472 322 _l
_cl}_e}_d
/h{634 0 91 0 549 760 _sc
549 330 _m
549 0 _l
459 0 _l
459 327 _l
459 379 448 417 428 443 _c
408 469 378 482 338 482 _c
289 482 251 466 223 435 _c
195 404 181 362 181 309 _c
181 0 _l
91 0 _l
91 760 _l
181 760 _l
181 462 _l
202 494 227 519 257 535 _c
286 551 320 560 358 560 _c
420 560 468 540 500 501 _c
532 462 549 405 549 330 _c
_cl}_d
/i{278 0 94 0 184 760 _sc
94 547 _m
184 547 _l
184 0 _l
94 0 _l
94 547 _l
94 760 _m
184 760 _l
184 646 _l
94 646 _l
94 760 _l
_cl}_d
/k{579 0 91 0 576 760 _sc
91 760 _m
181 760 _l
181 311 _l
449 547 _l
564 547 _l
274 291 _l
576 0 _l
459 0 _l
181 267 _l
181 0 _l
91 0 _l
91 760 _l
_cl}_d
/l{278 0 94 0 184 760 _sc
94 760 _m
184 760 _l
184 0 _l
94 0 _l
94 760 _l
_cl}_d
/m{{974 0 91 0 889 560 _sc
520 442 _m
542 482 569 511 600 531 _c
631 550 668 560 711 560 _c
767 560 811 540 842 500 _c
873 460 889 403 889 330 _c
889 0 _l
799 0 _l
799 327 _l
799 379 789 418 771 444 _c
752 469 724 482 686 482 _c
639 482 602 466 575 435 _c
548 404 535 362 535 309 _c
535 0 _l
445 0 _l
445 327 _l
445 379 435 418 417 444 _c
398 469 369 482 331 482 _c
}_e{285 482 248 466 221 435 _c
194 404 181 362 181 309 _c
181 0 _l
91 0 _l
91 547 _l
181 547 _l
181 462 _l
201 495 226 520 255 536 _c
283 552 317 560 357 560 _c
397 560 430 550 458 530 _c
486 510 506 480 520 442 _c
_cl}_e}_d
/n{634 0 91 0 549 560 _sc
549 330 _m
549 0 _l
459 0 _l
459 327 _l
459 379 448 417 428 443 _c
408 469 378 482 338 482 _c
289 482 251 466 223 435 _c
195 404 181 362 181 309 _c
181 0 _l
91 0 _l
91 547 _l
181 547 _l
181 462 _l
202 494 227 519 257 535 _c
286 551 320 560 358 560 _c
420 560 468 540 500 501 _c
532 462 549 405 549 330 _c
_cl}_d
/o{612 0 55 -13 557 560 _sc
306 484 _m
258 484 220 465 192 427 _c
164 389 150 338 150 273 _c
150 207 163 156 191 118 _c
219 80 257 62 306 62 _c
354 62 392 80 420 118 _c
448 156 462 207 462 273 _c
462 337 448 389 420 427 _c
392 465 354 484 306 484 _c
306 560 _m
384 560 445 534 490 484 _c
534 433 557 363 557 273 _c
557 183 534 113 490 63 _c
445 12 384 -13 306 -13 _c
227 -13 165 12 121 63 _c
77 113 55 183 55 273 _c
55 363 77 433 121 484 _c
165 534 227 560 306 560 _c
_cl}_d
/p{{635 0 91 -207 580 560 _sc
181 82 _m
181 -207 _l
91 -207 _l
91 547 _l
181 547 _l
181 464 _l
199 496 223 520 252 536 _c
281 552 316 560 356 560 _c
422 560 476 533 518 481 _c
559 428 580 359 580 273 _c
580 187 559 117 518 65 _c
476 13 422 -13 356 -13 _c
316 -13 281 -5 252 10 _c
223 25 199 49 181 82 _c
487 273 _m
487 339 473 390 446 428 _c
418 466 381 485 334 485 _c
}_e{286 485 249 466 222 428 _c
194 390 181 339 181 273 _c
181 207 194 155 222 117 _c
249 79 286 61 334 61 _c
381 61 418 79 446 117 _c
473 155 487 207 487 273 _c
_cl}_e}_d
/r{411 0 91 0 411 560 _sc
411 463 _m
401 469 390 473 378 476 _c
366 478 353 480 339 480 _c
288 480 249 463 222 430 _c
194 397 181 350 181 288 _c
181 0 _l
91 0 _l
91 547 _l
181 547 _l
181 462 _l
199 495 224 520 254 536 _c
284 552 321 560 365 560 _c
371 560 378 559 386 559 _c
393 558 401 557 411 555 _c
411 463 _l
_cl}_d
/s{{521 0 54 -13 472 560 _sc
443 531 _m
443 446 _l
417 458 391 468 364 475 _c
336 481 308 485 279 485 _c
234 485 200 478 178 464 _c
156 450 145 430 145 403 _c
145 382 153 366 169 354 _c
185 342 217 330 265 320 _c
296 313 _l
360 299 405 279 432 255 _c
458 230 472 195 472 151 _c
472 100 452 60 412 31 _c
372 1 316 -13 246 -13 _c
216 -13 186 -10 154 -5 _c
}_e{122 0 89 8 54 20 _c
54 113 _l
87 95 120 82 152 74 _c
184 65 216 61 248 61 _c
290 61 323 68 346 82 _c
368 96 380 117 380 144 _c
380 168 371 187 355 200 _c
339 213 303 226 247 238 _c
216 245 _l
160 257 119 275 95 299 _c
70 323 58 356 58 399 _c
58 450 76 490 112 518 _c
148 546 200 560 268 560 _c
301 560 332 557 362 552 _c
391 547 418 540 443 531 _c
}_e{_cl}_e}_d
/t{392 0 27 0 368 702 _sc
183 702 _m
183 547 _l
368 547 _l
368 477 _l
183 477 _l
183 180 _l
183 135 189 106 201 94 _c
213 81 238 75 276 75 _c
368 75 _l
368 0 _l
276 0 _l
206 0 158 13 132 39 _c
106 65 93 112 93 180 _c
93 477 _l
27 477 _l
27 547 _l
93 547 _l
93 702 _l
183 702 _l
_cl}_d
/u{634 0 85 -13 543 547 _sc
85 216 _m
85 547 _l
175 547 _l
175 219 _l
175 167 185 129 205 103 _c
225 77 255 64 296 64 _c
344 64 383 79 411 110 _c
439 141 453 183 453 237 _c
453 547 _l
543 547 _l
543 0 _l
453 0 _l
453 84 _l
431 50 405 26 377 10 _c
348 -5 315 -13 277 -13 _c
214 -13 166 6 134 45 _c
101 83 85 140 85 216 _c
_cl}_d
/w{818 0 42 0 776 547 _sc
42 547 _m
132 547 _l
244 120 _l
356 547 _l
462 547 _l
574 120 _l
686 547 _l
776 547 _l
633 0 _l
527 0 _l
409 448 _l
291 0 _l
185 0 _l
42 547 _l
_cl}_d
/y{592 0 30 -207 562 547 _sc
322 -50 _m
296 -114 271 -157 247 -177 _c
223 -197 191 -207 151 -207 _c
79 -207 _l
79 -132 _l
132 -132 _l
156 -132 175 -126 189 -114 _c
203 -102 218 -75 235 -31 _c
251 9 _l
30 547 _l
125 547 _l
296 119 _l
467 547 _l
562 547 _l
322 -50 _l
_cl}_d
end readonly def

/BuildGlyph
 {exch begin
 CharStrings exch
 2 copy known not{pop /.notdef}if
 true 3 1 roll get exec
 end}_d

/BuildChar {
 1 index /Encoding get exch get
 1 index /BuildGlyph get exec
}_d

FontName currentdict end definefont pop
end
%%EndProlog
mpldict begin
18 180 translate
576 432 0 0 clipbox
gsave
0 0 m
576 0 l
576 432 l
0 432 l
cl
1.000 setgray
fill
grestore
gsave
72 231.709 m
518.4 231.709 l
518.4 388.8 l
72 388.8 l
cl
1.000 setgray
fill
grestore
2.000 setlinewidth
1 setlinejoin
2 setlinecap
[] 0 setdash
0.000 0.000 1.000 setrgbcolor
gsave
446.4 157.1 72 231.7 clipbox
72 231.709 m
72 312.155 l
72.4468 312.155 l
72.4468 342.695 l
72.8937 342.695 l
72.8937 346.847 l
73.3405 346.847 l
73.3405 347.039 l
73.7874 347.039 l
73.7874 347.317 l
74.2342 347.317 l
74.2342 347.699 l
75.1279 347.786 l
75.1279 348.009 l
75.5748 348.009 l
75.5748 349.409 l
76.0216 349.409 l
76.0216 355.043 l
76.4685 355.043 l
76.4685 357.866 l
76.9153 357.866 l
76.9153 359.822 l
77.3622 359.822 l
77.3622 361.965 l
77.809 361.965 l
77.809 364.171 l
78.2559 364.171 l
78.2559 367.009 l
78.7027 367.009 l
78.7027 368.77 l
79.1495 368.77 l
79.1495 369.201 l
79.5964 369.201 l
79.5964 370.048 l
80.0432 370.048 l
80.0432 370.277 l
80.4901 370.277 l
80.4901 370.479 l
80.9369 370.479 l
80.9369 370.804 l
81.3838 370.804 l
81.3838 371.105 l
82.2775 371.206 l
82.2775 371.287 l
83.618 371.391 l
83.618 371.444 l
84.9586 371.544 l
84.9586 371.584 l
86.2991 371.663 l
86.2991 371.697 l
87.6396 371.789 l
87.6396 371.844 l
88.5333 371.906 l
88.5333 371.989 l
89.427 372.087 l
89.427 372.204 l
89.8739 372.204 l
89.8739 372.337 l
90.3207 372.337 l
90.3207 372.506 l
90.7676 372.506 l
90.7676 372.766 l
91.2144 372.766 l
91.2144 373.499 l
91.6613 373.499 l
91.6613 373.961 l
92.1081 373.961 l
92.1081 374.344 l
92.555 374.344 l
92.555 374.609 l
93.0018 374.609 l
93.0018 375.003 l
93.4486 375.003 l
93.4486 375.617 l
93.8955 375.617 l
93.8955 375.937 l
94.3423 375.937 l
94.3423 376.071 l
94.7892 376.071 l
94.7892 376.198 l
95.236 376.198 l
95.236 376.324 l
96.1297 376.434 l
96.1297 376.557 l
96.5766 376.557 l
96.5766 376.699 l
97.4703 376.809 l
97.4703 376.914 l
98.364 377.01 l
98.364 377.117 l
99.2577 377.214 l
99.2577 377.317 l
100.151 377.416 l
100.151 377.506 l
101.045 377.591 l
101.045 377.673 l
101.939 377.78 l
101.939 377.901 l
102.386 377.901 l
102.386 378.038 l
102.832 378.038 l
102.832 378.167 l
103.726 378.269 l
103.726 378.353 l
104.62 378.448 l
104.62 378.524 l
105.514 378.59 l
105.514 378.661 l
106.407 378.729 l
106.407 378.802 l
107.301 378.888 l
107.301 378.973 l
108.195 379.06 l
108.195 379.149 l
109.088 379.245 l
109.088 379.329 l
109.982 379.412 l
109.982 379.494 l
110.876 379.584 l
110.876 379.657 l
111.769 379.722 l
111.769 379.806 l
112.663 379.902 l
112.663 380.005 l
113.557 380.094 l
113.557 380.304 l
114.004 380.304 l
114.004 381.539 l
114.45 381.539 l
114.45 383.483 l
114.897 383.483 l
114.897 384.431 l
115.344 384.431 l
115.344 384.636 l
116.685 384.736 l
116.685 384.78 l
118.919 384.877 l
118.919 384.901 l
120.706 384.999 l
120.706 385.036 l
122.047 385.132 l
122.047 385.179 l
123.387 385.267 l
123.387 385.301 l
125.622 385.397 l
125.622 385.42 l
128.75 385.521 l
128.75 385.539 l
132.771 385.643 l
132.771 385.655 l
135.452 385.755 l
135.452 385.77 l
138.58 385.863 l
138.58 385.882 l
143.049 385.988 l
143.049 385.997 l
151.092 386.106 l
151.092 386.112 l
159.135 386.222 l
159.135 386.23 l
166.285 386.336 l
166.285 386.344 l
176.562 386.455 l
176.562 386.458 l
193.989 386.567 l
193.989 386.571 l
217.225 386.682 l
217.225 386.684 l
237.78 386.785 l
237.78 386.796 l
239.568 386.894 l
239.568 386.965 l
240.461 387.061 l
240.461 387.198 l
240.908 387.198 l
240.908 387.374 l
241.355 387.374 l
241.355 387.552 l
241.802 387.552 l
241.802 387.731 l
242.249 387.731 l
242.249 387.876 l
243.142 387.983 l
243.142 388.058 l
245.823 388.168 l
245.823 388.173 l
257.888 388.283 l
257.888 388.289 l
271.294 388.4 l
271.294 388.403 l
287.827 388.512 l
287.827 388.516 l
300.339 388.624 l
300.339 388.628 l
348.598 388.739 l
348.598 388.74 l
518.4 388.8 l
518.4 388.8 l
stroke
grestore
0.750 0.750 0.000 setrgbcolor
gsave
446.4 157.1 72 231.7 clipbox
72 231.709 m
72.4468 231.709 l
72.4468 231.709 l
72.4468 231.709 l
72.8937 231.709 l
72.8937 231.709 l
72.8937 231.709 l
73.3405 231.709 l
73.3405 231.709 l
73.3405 231.709 l
73.7874 231.709 l
73.7874 231.709 l
73.7874 231.709 l
74.2342 231.709 l
74.2342 231.709 l
74.2342 231.709 l
74.6811 231.709 l
74.6811 231.709 l
74.6811 231.709 l
75.1279 231.709 l
75.1279 231.709 l
75.1279 231.709 l
75.5748 231.709 l
75.5748 231.709 l
75.5748 231.709 l
76.0216 231.709 l
76.0216 231.709 l
76.0216 231.709 l
76.4685 231.709 l
76.4685 231.709 l
76.4685 231.709 l
76.9153 231.709 l
76.9153 231.709 l
76.9153 231.709 l
77.3622 231.709 l
77.3622 231.709 l
77.3622 231.709 l
77.809 231.709 l
77.809 231.709 l
77.809 231.709 l
78.2559 231.709 l
78.2559 231.709 l
78.2559 231.709 l
78.7027 231.709 l
78.7027 231.709 l
78.7027 231.709 l
79.1495 231.709 l
79.1495 231.709 l
79.1495 231.709 l
79.5964 231.709 l
79.5964 231.709 l
79.5964 231.709 l
80.0432 231.709 l
80.0432 231.709 l
80.0432 231.709 l
80.4901 231.709 l
80.4901 231.709 l
80.4901 231.709 l
80.9369 231.709 l
80.9369 231.709 l
80.9369 231.709 l
81.3838 231.709 l
81.3838 231.709 l
81.3838 231.709 l
81.8306 231.709 l
81.8306 231.709 l
81.8306 231.709 l
82.2775 231.709 l
82.2775 231.709 l
82.2775 231.709 l
82.7243 231.709 l
82.7243 231.709 l
82.7243 231.709 l
83.1712 231.709 l
83.1712 231.709 l
83.1712 231.709 l
83.618 231.709 l
83.618 231.709 l
83.618 231.709 l
84.0649 231.709 l
84.0649 231.709 l
84.0649 231.709 l
84.5117 231.709 l
84.5117 231.709 l
84.5117 231.709 l
84.9586 231.709 l
84.9586 231.709 l
84.9586 231.709 l
85.4054 231.709 l
85.4054 231.709 l
85.4054 231.709 l
85.8523 231.709 l
85.8523 231.709 l
85.8523 231.709 l
86.2991 231.709 l
86.2991 231.709 l
86.2991 231.709 l
86.2991 231.713 l
125.175 231.767 l
125.175 231.849 l
125.622 231.849 l
125.622 232.04 l
126.068 232.04 l
126.068 232.265 l
126.515 232.265 l
126.515 232.507 l
126.962 232.507 l
126.962 232.849 l
127.409 232.849 l
127.409 233.103 l
127.856 233.103 l
127.856 233.397 l
128.303 233.397 l
128.303 233.925 l
128.75 233.925 l
128.75 234.432 l
129.196 234.432 l
129.196 235.341 l
129.643 235.341 l
129.643 236.159 l
130.09 236.159 l
130.09 237.117 l
130.537 237.117 l
130.537 238.105 l
130.984 238.105 l
130.984 239.982 l
131.431 239.982 l
131.431 241.268 l
131.877 241.268 l
131.877 242.886 l
132.324 242.886 l
132.324 244.973 l
132.771 244.973 l
132.771 247.422 l
133.218 247.422 l
133.218 250.063 l
133.665 250.063 l
133.665 252.459 l
134.112 252.459 l
134.112 254.498 l
134.559 254.498 l
134.559 256.975 l
135.005 256.975 l
135.005 259.124 l
135.452 259.124 l
135.452 261.213 l
135.899 261.213 l
135.899 263.438 l
136.346 263.438 l
136.346 265.545 l
136.793 265.545 l
136.793 267.33 l
137.24 267.33 l
137.24 269.295 l
137.686 269.295 l
137.686 270.896 l
138.133 270.896 l
138.133 272.46 l
138.58 272.46 l
138.58 273.454 l
139.027 273.454 l
139.027 274.327 l
139.474 274.327 l
139.474 274.98 l
139.921 274.98 l
139.921 275.806 l
140.368 275.806 l
140.368 276.199 l
140.814 276.199 l
140.814 276.709 l
141.261 276.709 l
141.261 277.254 l
141.708 277.254 l
141.708 277.855 l
142.155 277.855 l
142.155 278.358 l
142.602 278.358 l
142.602 279.05 l
143.049 279.05 l
143.049 279.745 l
143.495 279.745 l
143.495 280.648 l
143.942 280.648 l
143.942 281.85 l
144.389 281.85 l
144.389 283.377 l
144.836 283.377 l
144.836 284.977 l
145.283 284.977 l
145.283 286.556 l
145.73 286.556 l
145.73 288.013 l
146.177 288.013 l
146.177 289.583 l
146.623 289.583 l
146.623 291.258 l
147.07 291.258 l
147.07 293.188 l
147.517 293.188 l
147.517 295.573 l
147.964 295.573 l
147.964 298.186 l
148.411 298.186 l
148.411 300.861 l
148.858 300.861 l
148.858 303.049 l
149.305 303.049 l
149.305 304.769 l
149.751 304.769 l
149.751 306.41 l
150.198 306.41 l
150.198 307.839 l
150.645 307.839 l
150.645 309.116 l
151.092 309.116 l
151.092 310.25 l
151.539 310.25 l
151.539 311.21 l
151.986 311.21 l
151.986 312.028 l
152.432 312.028 l
152.432 313.041 l
152.879 313.041 l
152.879 313.834 l
153.326 313.834 l
153.326 314.708 l
153.773 314.708 l
153.773 315.454 l
154.22 315.454 l
154.22 316.195 l
154.667 316.195 l
154.667 316.792 l
155.114 316.792 l
155.114 317.286 l
155.56 317.286 l
155.56 317.705 l
156.007 317.705 l
156.007 318.048 l
156.454 318.048 l
156.454 318.358 l
156.901 318.358 l
156.901 318.666 l
157.348 318.666 l
157.348 318.937 l
157.795 318.937 l
157.795 319.25 l
158.241 319.25 l
158.241 319.81 l
158.688 319.81 l
158.688 320.483 l
159.135 320.483 l
159.135 321.269 l
159.582 321.269 l
159.582 322.069 l
160.029 322.069 l
160.029 322.796 l
160.476 322.796 l
160.476 323.429 l
160.923 323.429 l
160.923 324.118 l
161.369 324.118 l
161.369 324.907 l
161.816 324.907 l
161.816 326.045 l
162.263 326.045 l
162.263 327.523 l
162.71 327.523 l
162.71 329.067 l
163.157 329.067 l
163.157 330.346 l
163.604 330.346 l
163.604 331.382 l
164.05 331.382 l
164.05 332.392 l
164.497 332.392 l
164.497 333.284 l
164.944 333.284 l
164.944 334.136 l
165.391 334.136 l
165.391 335.125 l
165.838 335.125 l
165.838 336.166 l
166.285 336.166 l
166.285 337.134 l
166.732 337.134 l
166.732 338.055 l
167.178 338.055 l
167.178 338.889 l
167.625 338.889 l
167.625 339.547 l
168.072 339.547 l
168.072 340.114 l
168.519 340.114 l
168.519 340.705 l
168.966 340.705 l
168.966 341.289 l
169.413 341.289 l
169.413 341.998 l
169.859 341.998 l
169.859 342.648 l
170.306 342.648 l
170.306 343.223 l
170.753 343.223 l
170.753 343.738 l
171.2 343.738 l
171.2 344.143 l
171.647 344.143 l
171.647 344.434 l
172.094 344.434 l
172.094 344.673 l
172.541 344.673 l
172.541 344.932 l
172.987 344.932 l
172.987 345.193 l
173.434 345.193 l
173.434 345.423 l
173.881 345.423 l
173.881 345.666 l
174.328 345.666 l
174.328 345.862 l
174.775 345.862 l
174.775 346.03 l
175.222 346.03 l
175.222 346.212 l
175.668 346.212 l
175.668 346.483 l
176.115 346.483 l
176.115 346.754 l
176.562 346.754 l
176.562 347.162 l
177.009 347.162 l
177.009 347.542 l
177.456 347.542 l
177.456 347.867 l
177.903 347.867 l
177.903 348.137 l
178.35 348.137 l
178.35 348.403 l
178.796 348.403 l
178.796 348.651 l
179.243 348.651 l
179.243 348.88 l
179.69 348.88 l
179.69 349.197 l
180.137 349.197 l
180.137 349.426 l
180.584 349.426 l
180.584 349.695 l
181.031 349.695 l
181.031 350.01 l
181.477 350.01 l
181.477 350.325 l
181.924 350.325 l
181.924 350.627 l
182.371 350.627 l
182.371 350.906 l
182.818 350.906 l
182.818 351.2 l
183.265 351.2 l
183.265 351.634 l
183.712 351.634 l
183.712 352.091 l
184.159 352.091 l
184.159 352.546 l
184.605 352.546 l
184.605 353.265 l
185.052 353.265 l
185.052 353.601 l
185.499 353.601 l
185.499 353.958 l
185.946 353.958 l
185.946 354.343 l
186.393 354.343 l
186.393 354.606 l
186.84 354.606 l
186.84 354.821 l
187.286 354.821 l
187.286 355.002 l
188.18 355.107 l
188.18 355.215 l
189.074 355.324 l
189.074 355.435 l
189.521 355.435 l
189.521 355.562 l
189.968 355.562 l
189.968 355.696 l
190.414 355.696 l
190.414 355.88 l
190.861 355.88 l
190.861 356.133 l
191.308 356.133 l
191.308 356.348 l
191.755 356.348 l
191.755 357.021 l
192.202 357.021 l
192.202 357.414 l
193.095 357.515 l
193.095 357.762 l
193.542 357.762 l
193.542 357.937 l
193.989 357.937 l
193.989 358.403 l
194.436 358.403 l
194.436 358.915 l
194.883 358.915 l
194.883 359.058 l
195.33 359.058 l
195.33 359.225 l
195.777 359.225 l
195.777 359.583 l
196.223 359.583 l
196.223 360.154 l
197.117 360.235 l
197.117 360.316 l
198.011 360.381 l
198.011 360.438 l
198.905 360.51 l
198.905 360.599 l
199.798 360.681 l
199.798 360.78 l
200.692 360.881 l
200.692 360.992 l
201.586 361.093 l
201.586 361.194 l
202.032 361.194 l
202.032 361.343 l
202.926 361.444 l
202.926 361.541 l
203.82 361.646 l
203.82 361.758 l
204.714 361.84 l
204.714 361.913 l
205.607 361.99 l
205.607 362.069 l
206.501 362.155 l
206.501 362.304 l
207.395 362.398 l
207.395 362.758 l
207.841 362.758 l
207.841 363.073 l
208.288 363.073 l
208.288 363.229 l
208.735 363.229 l
208.735 363.361 l
209.182 363.361 l
209.182 363.655 l
209.629 363.655 l
209.629 364.152 l
210.076 364.152 l
210.076 364.507 l
210.523 364.507 l
210.523 364.66 l
210.969 364.66 l
210.969 364.816 l
211.416 364.816 l
211.416 365.227 l
211.863 365.227 l
211.863 365.57 l
212.31 365.57 l
212.31 366.068 l
212.757 366.068 l
212.757 366.48 l
213.204 366.48 l
213.204 366.899 l
213.65 366.899 l
213.65 367.47 l
214.097 367.47 l
214.097 367.906 l
214.544 367.906 l
214.544 368.152 l
214.991 368.152 l
214.991 368.542 l
215.438 368.542 l
215.438 368.781 l
215.885 368.781 l
215.885 368.999 l
216.332 368.999 l
216.332 369.266 l
216.778 369.266 l
216.778 369.671 l
217.225 369.671 l
217.225 370.02 l
217.672 370.02 l
217.672 370.379 l
218.119 370.379 l
218.119 370.691 l
218.566 370.691 l
218.566 371.061 l
219.013 371.061 l
219.013 371.63 l
219.459 371.63 l
219.459 372.032 l
219.906 372.032 l
219.906 372.28 l
220.353 372.28 l
220.353 372.562 l
220.8 372.562 l
220.8 372.789 l
221.247 372.789 l
221.247 373.037 l
221.694 373.037 l
221.694 373.284 l
222.141 373.284 l
222.141 373.495 l
222.587 373.495 l
222.587 373.698 l
223.034 373.698 l
223.034 373.92 l
223.481 373.92 l
223.481 374.139 l
223.928 374.139 l
223.928 374.348 l
224.375 374.348 l
224.375 374.564 l
224.822 374.564 l
224.822 374.742 l
225.268 374.742 l
225.268 374.966 l
225.715 374.966 l
225.715 375.173 l
226.162 375.173 l
226.162 375.387 l
226.609 375.387 l
226.609 375.61 l
227.056 375.61 l
227.056 375.826 l
227.503 375.826 l
227.503 376.026 l
227.95 376.026 l
227.95 376.213 l
228.396 376.213 l
228.396 376.414 l
228.843 376.414 l
228.843 376.602 l
229.29 376.602 l
229.29 376.786 l
229.737 376.786 l
229.737 377.019 l
230.184 377.019 l
230.184 377.259 l
230.631 377.259 l
230.631 377.521 l
231.077 377.521 l
231.077 377.728 l
231.524 377.728 l
231.524 377.934 l
231.971 377.934 l
231.971 378.12 l
232.418 378.12 l
232.418 378.308 l
232.865 378.308 l
232.865 378.543 l
233.312 378.543 l
233.312 378.758 l
233.759 378.758 l
233.759 378.95 l
234.205 378.95 l
234.205 379.229 l
234.652 379.229 l
234.652 379.429 l
235.099 379.429 l
235.099 379.726 l
235.546 379.726 l
235.546 380.056 l
235.993 380.056 l
235.993 380.269 l
236.44 380.269 l
236.44 380.493 l
236.886 380.493 l
236.886 380.652 l
237.333 380.652 l
237.333 380.808 l
237.78 380.808 l
237.78 380.981 l
238.227 380.981 l
238.227 381.125 l
238.674 381.125 l
238.674 381.278 l
239.121 381.278 l
239.121 381.409 l
239.568 381.409 l
239.568 381.55 l
240.461 381.652 l
240.461 381.83 l
240.908 381.83 l
240.908 381.981 l
241.355 381.981 l
241.355 382.167 l
241.802 382.167 l
241.802 382.335 l
242.249 382.335 l
242.249 382.536 l
242.695 382.536 l
242.695 382.671 l
243.142 382.671 l
243.142 382.794 l
243.589 382.794 l
243.589 382.925 l
244.483 383.03 l
244.483 383.147 l
244.93 383.147 l
244.93 383.26 l
245.823 383.348 l
245.823 383.466 l
246.717 383.544 l
246.717 383.636 l
247.611 383.709 l
247.611 383.771 l
248.505 383.861 l
248.505 383.974 l
249.398 384.057 l
249.398 384.116 l
250.292 384.201 l
250.292 384.27 l
251.186 384.321 l
251.186 384.383 l
252.079 384.44 l
252.079 384.495 l
252.973 384.544 l
252.973 384.614 l
254.314 384.714 l
254.314 384.781 l
255.207 384.852 l
255.207 384.899 l
256.548 384.998 l
256.548 385.045 l
257.888 385.141 l
257.888 385.191 l
259.229 385.293 l
259.229 385.336 l
260.569 385.414 l
260.569 385.448 l
262.357 385.558 l
262.357 385.602 l
264.144 385.704 l
264.144 385.732 l
265.932 385.832 l
265.932 385.867 l
267.719 385.956 l
267.719 385.985 l
269.506 386.07 l
269.506 386.097 l
271.741 386.203 l
271.741 386.226 l
273.528 386.328 l
273.528 386.359 l
275.762 386.452 l
275.762 386.472 l
278.443 386.581 l
278.443 386.598 l
281.124 386.705 l
281.124 386.727 l
283.805 386.829 l
283.805 386.85 l
286.933 386.954 l
286.933 386.969 l
290.508 387.074 l
290.508 387.084 l
296.317 387.192 l
296.317 387.196 l
307.935 387.306 l
307.935 387.31 l
326.703 387.421 l
326.703 387.425 l
349.492 387.535 l
349.492 387.539 l
360.663 387.648 l
360.663 387.651 l
378.537 387.76 l
378.537 387.763 l
387.921 387.872 l
387.921 387.876 l
398.198 387.985 l
398.198 387.991 l
407.582 388.101 l
407.582 388.106 l
415.178 388.216 l
415.178 388.22 l
421.881 388.326 l
421.881 388.334 l
429.924 388.443 l
429.924 388.447 l
441.989 388.556 l
441.989 388.559 l
453.607 388.666 l
453.607 388.671 l
487.121 388.782 l
487.121 388.783 l
518.4 388.8 l
518.4 388.8 l
stroke
grestore
0 setlinecap
[5 5] 0 setdash
0.000 0.500 0.000 setrgbcolor
gsave
446.4 157.1 72 231.7 clipbox
72 231.709 m
72 236.488 l
72.4468 236.488 l
72.4468 273.512 l
72.8937 273.512 l
72.8937 293.086 l
73.3405 293.086 l
73.3405 305.043 l
73.7874 305.043 l
73.7874 316.022 l
74.2342 316.022 l
74.2342 324.341 l
74.6811 324.341 l
74.6811 332.172 l
75.1279 332.172 l
75.1279 345.888 l
75.5748 345.888 l
75.5748 357.075 l
76.0216 357.075 l
76.0216 363.594 l
76.4685 363.594 l
76.4685 367.919 l
76.9153 367.919 l
76.9153 370.134 l
77.3622 370.134 l
77.3622 370.952 l
77.809 370.952 l
77.809 371.43 l
78.2559 371.43 l
78.2559 371.819 l
78.7027 371.819 l
78.7027 372.142 l
79.1495 372.142 l
79.1495 372.412 l
79.5964 372.412 l
79.5964 372.66 l
80.0432 372.66 l
80.0432 372.858 l
80.4901 372.858 l
80.4901 373.042 l
80.9369 373.042 l
80.9369 373.209 l
81.3838 373.209 l
81.3838 373.373 l
81.8306 373.373 l
81.8306 373.527 l
82.2775 373.527 l
82.2775 373.68 l
82.7243 373.68 l
82.7243 373.823 l
83.1712 373.823 l
83.1712 373.946 l
83.618 373.946 l
83.618 374.069 l
84.0649 374.069 l
84.0649 374.193 l
84.5117 374.193 l
84.5117 374.313 l
84.9586 374.313 l
84.9586 374.448 l
85.4054 374.448 l
85.4054 374.576 l
85.8523 374.576 l
85.8523 374.706 l
86.2991 374.706 l
86.2991 374.825 l
87.1928 374.935 l
87.1928 375.04 l
88.0865 375.142 l
88.0865 375.242 l
88.9802 375.317 l
88.9802 375.382 l
89.8739 375.458 l
89.8739 375.53 l
90.7676 375.607 l
90.7676 375.676 l
91.6613 375.742 l
91.6613 375.801 l
92.555 375.864 l
92.555 375.924 l
93.8955 376.035 l
93.8955 376.087 l
95.236 376.178 l
95.236 376.235 l
96.1297 376.293 l
96.1297 376.349 l
97.4703 376.46 l
97.4703 376.511 l
98.8108 376.62 l
98.8108 376.667 l
100.151 376.752 l
100.151 376.8 l
101.492 376.89 l
101.492 376.924 l
103.279 377.034 l
103.279 377.072 l
104.62 377.146 l
104.62 377.186 l
106.407 377.292 l
106.407 377.33 l
107.748 377.405 l
107.748 377.448 l
109.088 377.525 l
109.088 377.56 l
110.429 377.638 l
110.429 377.671 l
112.216 377.781 l
112.216 377.817 l
114.004 377.92 l
114.004 377.959 l
115.791 378.052 l
115.791 378.076 l
118.025 378.179 l
118.025 378.199 l
120.259 378.303 l
120.259 378.325 l
122.941 378.428 l
122.941 378.452 l
125.622 378.555 l
125.622 378.583 l
128.303 378.689 l
128.303 378.711 l
130.984 378.808 l
130.984 378.831 l
133.665 378.935 l
133.665 378.951 l
136.346 379.044 l
136.346 379.064 l
139.027 379.163 l
139.027 379.189 l
141.708 379.289 l
141.708 379.308 l
144.389 379.414 l
144.389 379.436 l
147.07 379.538 l
147.07 379.557 l
149.305 379.649 l
149.305 379.67 l
151.539 379.762 l
151.539 379.788 l
153.773 379.883 l
153.773 379.908 l
156.007 379.995 l
156.007 380.02 l
158.688 380.121 l
158.688 380.141 l
161.369 380.24 l
161.369 380.258 l
164.497 380.369 l
164.497 380.39 l
167.625 380.501 l
167.625 380.517 l
171.2 380.618 l
171.2 380.633 l
175.222 380.741 l
175.222 380.755 l
180.137 380.859 l
180.137 380.874 l
184.605 380.978 l
184.605 380.991 l
189.521 381.097 l
189.521 381.105 l
194.883 381.208 l
194.883 381.222 l
200.245 381.327 l
200.245 381.338 l
206.054 381.442 l
206.054 381.45 l
211.863 381.557 l
211.863 381.566 l
217.672 381.677 l
217.672 381.683 l
222.587 381.784 l
222.587 381.795 l
227.95 381.904 l
227.95 381.913 l
234.205 382.023 l
234.205 382.032 l
241.355 382.137 l
241.355 382.144 l
248.951 382.255 l
248.951 382.259 l
256.995 382.368 l
256.995 382.373 l
264.591 382.482 l
264.591 382.487 l
272.634 382.595 l
272.634 382.601 l
280.231 382.709 l
280.231 382.716 l
285.593 382.824 l
285.593 382.839 l
287.38 382.925 l
287.38 382.982 l
288.274 383.05 l
288.274 383.115 l
289.614 383.219 l
289.614 383.277 l
290.955 383.367 l
290.955 383.412 l
292.295 383.501 l
292.295 383.55 l
293.189 383.607 l
293.189 383.674 l
294.083 383.736 l
294.083 383.799 l
295.87 383.902 l
295.87 383.922 l
302.573 384.029 l
302.573 384.057 l
303.467 384.112 l
303.467 384.2 l
303.914 384.2 l
303.914 384.348 l
304.36 384.348 l
304.36 384.534 l
304.807 384.534 l
304.807 384.693 l
305.254 384.693 l
305.254 384.809 l
306.148 384.903 l
306.148 384.978 l
307.041 385.045 l
307.041 385.11 l
307.935 385.166 l
307.935 385.235 l
308.829 385.315 l
308.829 385.384 l
310.169 385.489 l
310.169 385.528 l
312.404 385.638 l
312.404 385.653 l
317.319 385.762 l
317.319 385.769 l
324.468 385.879 l
324.468 385.889 l
331.618 385.997 l
331.618 386.004 l
341.449 386.115 l
341.449 386.117 l
353.067 386.225 l
353.067 386.229 l
362.897 386.336 l
362.897 386.345 l
371.834 386.452 l
371.834 386.461 l
379.431 386.571 l
379.431 386.579 l
386.133 386.685 l
386.133 386.691 l
392.389 386.796 l
392.389 386.804 l
399.092 386.913 l
399.092 386.919 l
405.348 387.024 l
405.348 387.034 l
412.497 387.143 l
412.497 387.152 l
420.541 387.262 l
420.541 387.269 l
430.818 387.378 l
430.818 387.383 l
442.883 387.492 l
442.883 387.496 l
454.054 387.606 l
454.054 387.609 l
464.332 387.72 l
464.332 387.726 l
474.609 387.836 l
474.609 387.841 l
484.886 387.95 l
484.886 387.955 l
496.058 388.066 l
496.058 388.071 l
505.441 388.179 l
505.441 388.184 l
510.357 388.293 l
510.357 388.308 l
513.485 388.399 l
513.485 388.422 l
515.719 388.524 l
515.719 388.574 l
516.613 388.637 l
516.613 388.717 l
518.4 388.8 l
518.4 388.8 l
stroke
grestore
0.500 setlinewidth
[] 0 setdash
0.000 setgray
gsave
/o {
gsave
newpath
translate
0.5 setlinewidth
1 setlinejoin
0 setlinecap
0 0 m
0 4 l
gsave
0.000 setgray
fill
grestore
stroke
grestore
} bind def
72 231.709 o
grestore
gsave
/o {
gsave
newpath
translate
0.5 setlinewidth
1 setlinejoin
0 setlinecap
0 0 m
0 -4 l
gsave
0.000 setgray
fill
grestore
stroke
grestore
} bind def
72 388.8 o
grestore
gsave
/o {
gsave
newpath
translate
0.5 setlinewidth
1 setlinejoin
0 setlinecap
0 0 m
0 4 l
gsave
0.000 setgray
fill
grestore
stroke
grestore
} bind def
161.28 231.709 o
grestore
gsave
/o {
gsave
newpath
translate
0.5 setlinewidth
1 setlinejoin
0 setlinecap
0 0 m
0 -4 l
gsave
0.000 setgray
fill
grestore
stroke
grestore
} bind def
161.28 388.8 o
grestore
gsave
/o {
gsave
newpath
translate
0.5 setlinewidth
1 setlinejoin
0 setlinecap
0 0 m
0 4 l
gsave
0.000 setgray
fill
grestore
stroke
grestore
} bind def
250.56 231.709 o
grestore
gsave
/o {
gsave
newpath
translate
0.5 setlinewidth
1 setlinejoin
0 setlinecap
0 0 m
0 -4 l
gsave
0.000 setgray
fill
grestore
stroke
grestore
} bind def
250.56 388.8 o
grestore
gsave
/o {
gsave
newpath
translate
0.5 setlinewidth
1 setlinejoin
0 setlinecap
0 0 m
0 4 l
gsave
0.000 setgray
fill
grestore
stroke
grestore
} bind def
339.84 231.709 o
grestore
gsave
/o {
gsave
newpath
translate
0.5 setlinewidth
1 setlinejoin
0 setlinecap
0 0 m
0 -4 l
gsave
0.000 setgray
fill
grestore
stroke
grestore
} bind def
339.84 388.8 o
grestore
gsave
/o {
gsave
newpath
translate
0.5 setlinewidth
1 setlinejoin
0 setlinecap
0 0 m
0 4 l
gsave
0.000 setgray
fill
grestore
stroke
grestore
} bind def
429.12 231.709 o
grestore
gsave
/o {
gsave
newpath
translate
0.5 setlinewidth
1 setlinejoin
0 setlinecap
0 0 m
0 -4 l
gsave
0.000 setgray
fill
grestore
stroke
grestore
} bind def
429.12 388.8 o
grestore
gsave
/o {
gsave
newpath
translate
0.5 setlinewidth
1 setlinejoin
0 setlinecap
0 0 m
0 4 l
gsave
0.000 setgray
fill
grestore
stroke
grestore
} bind def
518.4 231.709 o
grestore
gsave
/o {
gsave
newpath
translate
0.5 setlinewidth
1 setlinejoin
0 setlinecap
0 0 m
0 -4 l
gsave
0.000 setgray
fill
grestore
stroke
grestore
} bind def
518.4 388.8 o
grestore
gsave
/o {
gsave
newpath
translate
0.5 setlinewidth
1 setlinejoin
0 setlinecap
0 0 m
4 0 l
gsave
0.000 setgray
fill
grestore
stroke
grestore
} bind def
72 231.709 o
grestore
gsave
/o {
gsave
newpath
translate
0.5 setlinewidth
1 setlinejoin
0 setlinecap
0 0 m
-4 0 l
gsave
0.000 setgray
fill
grestore
stroke
grestore
} bind def
518.4 231.709 o
grestore
/BitstreamVeraSans-Roman findfont
12.000 scalefont
setfont
gsave
50.500000 227.170028 translate
0.000000 rotate
0.000000 0.171875 m /zero glyphshow
7.634766 0.171875 m /period glyphshow
11.449219 0.171875 m /zero glyphshow
grestore
gsave
/o {
gsave
newpath
translate
0.5 setlinewidth
1 setlinejoin
0 setlinecap
0 0 m
4 0 l
gsave
0.000 setgray
fill
grestore
stroke
grestore
} bind def
72 263.127 o
grestore
gsave
/o {
gsave
newpath
translate
0.5 setlinewidth
1 setlinejoin
0 setlinecap
0 0 m
-4 0 l
gsave
0.000 setgray
fill
grestore
stroke
grestore
} bind def
518.4 263.127 o
grestore
gsave
50.906250 258.588210 translate
0.000000 rotate
0.000000 0.171875 m /zero glyphshow
7.634766 0.171875 m /period glyphshow
11.449219 0.171875 m /two glyphshow
grestore
gsave
/o {
gsave
newpath
translate
0.5 setlinewidth
1 setlinejoin
0 setlinecap
0 0 m
4 0 l
gsave
0.000 setgray
fill
grestore
stroke
grestore
} bind def
72 294.545 o
grestore
gsave
/o {
gsave
newpath
translate
0.5 setlinewidth
1 setlinejoin
0 setlinecap
0 0 m
-4 0 l
gsave
0.000 setgray
fill
grestore
stroke
grestore
} bind def
518.4 294.545 o
grestore
gsave
50.375000 290.006392 translate
0.000000 rotate
0.000000 0.171875 m /zero glyphshow
7.634766 0.171875 m /period glyphshow
11.449219 0.171875 m /four glyphshow
grestore
gsave
/o {
gsave
newpath
translate
0.5 setlinewidth
1 setlinejoin
0 setlinecap
0 0 m
4 0 l
gsave
0.000 setgray
fill
grestore
stroke
grestore
} bind def
72 325.964 o
grestore
gsave
/o {
gsave
newpath
translate
0.5 setlinewidth
1 setlinejoin
0 setlinecap
0 0 m
-4 0 l
gsave
0.000 setgray
fill
grestore
stroke
grestore
} bind def
518.4 325.964 o
grestore
gsave
50.468750 321.424574 translate
0.000000 rotate
0.000000 0.171875 m /zero glyphshow
7.634766 0.171875 m /period glyphshow
11.449219 0.171875 m /six glyphshow
grestore
gsave
/o {
gsave
newpath
translate
0.5 setlinewidth
1 setlinejoin
0 setlinecap
0 0 m
4 0 l
gsave
0.000 setgray
fill
grestore
stroke
grestore
} bind def
72 357.382 o
grestore
gsave
/o {
gsave
newpath
translate
0.5 setlinewidth
1 setlinejoin
0 setlinecap
0 0 m
-4 0 l
gsave
0.000 setgray
fill
grestore
stroke
grestore
} bind def
518.4 357.382 o
grestore
gsave
50.531250 352.842756 translate
0.000000 rotate
0.000000 0.171875 m /zero glyphshow
7.634766 0.171875 m /period glyphshow
11.449219 0.171875 m /eight glyphshow
grestore
gsave
/o {
gsave
newpath
translate
0.5 setlinewidth
1 setlinejoin
0 setlinecap
0 0 m
4 0 l
gsave
0.000 setgray
fill
grestore
stroke
grestore
} bind def
72 388.8 o
grestore
gsave
/o {
gsave
newpath
translate
0.5 setlinewidth
1 setlinejoin
0 setlinecap
0 0 m
-4 0 l
gsave
0.000 setgray
fill
grestore
stroke
grestore
} bind def
518.4 388.8 o
grestore
gsave
51.015625 384.260938 translate
0.000000 rotate
0.000000 0.171875 m /one glyphshow
7.634766 0.171875 m /period glyphshow
11.449219 0.171875 m /zero glyphshow
grestore
gsave
45.375000 298.684233 translate
90.000000 rotate
0.000000 0.171875 m /C glyphshow
8.378906 0.171875 m /D glyphshow
17.619141 0.171875 m /F glyphshow
grestore
1.000 setlinewidth
2 setlinecap
gsave
72 388.8 m
518.4 388.8 l
stroke
grestore
gsave
518.4 231.709 m
518.4 388.8 l
stroke
grestore
gsave
72 231.709 m
518.4 231.709 l
stroke
grestore
gsave
72 231.709 m
72 388.8 l
stroke
grestore
/BitstreamVeraSans-Roman findfont
14.400 scalefont
setfont
gsave
231.543750 390.893750 translate
0.000000 rotate
0.000000 2.906250 m /parenleft glyphshow
5.608215 2.906250 m /a glyphshow
14.417114 2.906250 m /parenright glyphshow
20.025330 2.906250 m /space glyphshow
24.594727 2.906250 m /H glyphshow
35.404053 2.906250 m /a glyphshow
44.212952 2.906250 m /d glyphshow
53.337708 2.906250 m /o glyphshow
62.132568 2.906250 m /o glyphshow
70.927429 2.906250 m /p glyphshow
80.052185 2.906250 m /space glyphshow
84.621582 2.906250 m /n glyphshow
93.732300 2.906250 m /o glyphshow
102.527161 2.906250 m /d glyphshow
111.651917 2.906250 m /e glyphshow
120.495911 2.906250 m /s glyphshow
grestore
gsave
413.056 236.709 m
513.4 236.709 l
513.4 281.787 l
413.056 281.787 l
413.056 236.709 l
cl
gsave
1.000 setgray
fill
grestore
stroke
grestore
2.000 setlinewidth
0.000 0.000 1.000 setrgbcolor
gsave
420.056 273.693 m
434.056 273.693 l
stroke
grestore
0.000 setgray
/BitstreamVeraSans-Roman findfont
10.000 scalefont
setfont
gsave
445.056250 270.052841 translate
0.000000 rotate
0.000000 0.140625 m /C glyphshow
6.982422 0.140625 m /P glyphshow
13.012695 0.140625 m /U glyphshow
20.332031 0.140625 m /space glyphshow
23.510742 0.140625 m /l glyphshow
26.289062 0.140625 m /o glyphshow
32.407227 0.140625 m /a glyphshow
38.535156 0.140625 m /d glyphshow
grestore
0.750 0.750 0.000 setrgbcolor
gsave
420.056 259.022 m
434.056 259.022 l
stroke
grestore
0.000 setgray
gsave
445.056250 253.443466 translate
0.000000 rotate
0.000000 2.078125 m /M glyphshow
8.627930 2.078125 m /e glyphshow
14.780273 2.078125 m /m glyphshow
24.521484 2.078125 m /o glyphshow
30.639648 2.078125 m /r glyphshow
34.750977 2.078125 m /y glyphshow
40.668945 2.078125 m /space glyphshow
43.847656 2.078125 m /l glyphshow
46.625977 2.078125 m /o glyphshow
52.744141 2.078125 m /a glyphshow
58.872070 2.078125 m /d glyphshow
grestore
0 setlinecap
[5 5] 0 setdash
0.000 0.500 0.000 setrgbcolor
gsave
420.056 244.35 m
434.056 244.35 l
stroke
grestore
0.000 setgray
gsave
445.056250 240.709091 translate
0.000000 rotate
0.000000 0.140625 m /D glyphshow
7.700195 0.140625 m /i glyphshow
10.478516 0.140625 m /s glyphshow
15.688477 0.140625 m /k glyphshow
21.479492 0.140625 m /space glyphshow
24.658203 0.140625 m /l glyphshow
27.436523 0.140625 m /o glyphshow
33.554688 0.140625 m /a glyphshow
39.682617 0.140625 m /d glyphshow
grestore
gsave
72 43.2 m
518.4 43.2 l
518.4 200.291 l
72 200.291 l
cl
1.000 setgray
fill
grestore
2 setlinecap
[] 0 setdash
0.000 0.000 1.000 setrgbcolor
gsave
446.4 157.1 72 43.2 clipbox
72 43.2004 m
72 119.898 l
72.4468 119.898 l
72.4468 166.527 l
72.8937 166.527 l
72.8937 166.93 l
73.3405 166.93 l
73.3405 167.214 l
73.7874 167.214 l
73.7874 167.498 l
74.2342 167.498 l
74.2342 167.673 l
74.6811 167.673 l
74.6811 167.954 l
75.1279 167.954 l
75.1279 168.17 l
75.5748 168.17 l
75.5748 168.304 l
76.0216 168.304 l
76.0216 168.428 l
76.4685 168.428 l
76.4685 168.616 l
76.9153 168.616 l
76.9153 168.799 l
77.3622 168.799 l
77.3622 168.973 l
77.809 168.973 l
77.809 169.138 l
78.2559 169.138 l
78.2559 169.272 l
79.1495 169.364 l
79.1495 169.434 l
80.4901 169.525 l
80.4901 169.572 l
81.8306 169.673 l
81.8306 169.718 l
82.7243 169.772 l
82.7243 169.841 l
84.5117 169.936 l
84.5117 169.967 l
86.7459 170.07 l
86.7459 170.092 l
89.8739 170.188 l
89.8739 170.208 l
92.555 170.295 l
92.555 170.319 l
95.236 170.423 l
95.236 170.448 l
97.9171 170.542 l
97.9171 170.561 l
101.939 170.67 l
101.939 170.687 l
103.726 170.784 l
103.726 170.846 l
106.407 170.937 l
106.407 170.962 l
107.748 171.046 l
107.748 171.094 l
108.641 171.199 l
108.641 171.373 l
109.088 171.373 l
109.088 171.595 l
109.535 171.595 l
109.535 178.696 l
109.982 178.696 l
109.982 178.871 l
111.323 178.961 l
111.323 178.997 l
113.557 179.107 l
113.557 179.132 l
115.791 179.234 l
115.791 179.268 l
117.578 179.363 l
117.578 179.393 l
119.813 179.504 l
119.813 179.536 l
121.153 179.614 l
121.153 179.651 l
122.494 179.734 l
122.494 179.78 l
123.834 179.879 l
123.834 179.936 l
125.175 180.044 l
125.175 180.096 l
126.068 180.151 l
126.068 180.208 l
127.409 180.315 l
127.409 180.376 l
128.303 180.434 l
128.303 180.497 l
129.196 180.558 l
129.196 180.619 l
130.09 180.685 l
130.09 180.757 l
130.984 180.823 l
130.984 180.906 l
131.877 180.988 l
131.877 181.091 l
132.771 181.179 l
132.771 181.263 l
133.665 181.361 l
133.665 181.454 l
134.559 181.553 l
134.559 181.65 l
135.452 181.749 l
135.452 181.848 l
136.346 181.954 l
136.346 182.063 l
137.24 182.169 l
137.24 182.274 l
138.133 182.363 l
138.133 182.455 l
139.027 182.537 l
139.027 182.621 l
139.921 182.693 l
139.921 182.771 l
140.814 182.852 l
140.814 182.918 l
141.708 182.984 l
141.708 183.039 l
142.602 183.106 l
142.602 183.17 l
143.495 183.255 l
143.495 183.339 l
144.389 183.437 l
144.389 183.545 l
145.283 183.652 l
145.283 183.767 l
145.73 183.767 l
145.73 183.918 l
146.177 183.918 l
146.177 184.211 l
146.623 184.211 l
146.623 186.263 l
147.517 186.366 l
147.517 186.428 l
148.411 186.493 l
148.411 186.556 l
149.305 186.626 l
149.305 186.686 l
151.092 186.778 l
151.092 186.809 l
153.326 186.898 l
153.326 186.924 l
155.56 187.014 l
155.56 187.041 l
157.348 187.142 l
157.348 187.183 l
159.135 187.287 l
159.135 187.321 l
160.476 187.409 l
160.476 187.45 l
161.816 187.549 l
161.816 187.602 l
163.157 187.712 l
163.157 187.777 l
164.05 187.841 l
164.05 187.902 l
164.944 187.974 l
164.944 188.044 l
165.838 188.114 l
165.838 188.195 l
166.732 188.286 l
166.732 188.382 l
167.625 188.493 l
167.625 188.616 l
168.072 188.616 l
168.072 188.733 l
168.519 188.733 l
168.519 188.848 l
169.413 188.942 l
169.413 189.041 l
170.306 189.135 l
170.306 189.219 l
171.2 189.278 l
171.2 189.344 l
172.094 189.415 l
172.094 189.468 l
173.434 189.571 l
173.434 189.607 l
175.222 189.71 l
175.222 189.742 l
177.456 189.85 l
177.456 189.872 l
181.031 189.98 l
181.031 189.997 l
183.712 190.106 l
183.712 190.572 l
186.84 190.673 l
186.84 190.685 l
190.414 190.794 l
190.414 190.812 l
193.095 190.916 l
193.095 190.933 l
195.777 191.028 l
195.777 191.054 l
198.458 191.156 l
198.458 191.176 l
201.139 191.287 l
201.139 191.308 l
202.926 191.392 l
202.926 191.423 l
204.714 191.508 l
204.714 191.537 l
206.501 191.619 l
206.501 191.65 l
208.288 191.754 l
208.288 191.784 l
210.076 191.887 l
210.076 191.921 l
211.416 191.994 l
211.416 192.034 l
213.204 192.123 l
213.204 192.158 l
214.991 192.253 l
214.991 192.28 l
216.778 192.369 l
216.778 192.395 l
218.566 192.505 l
218.566 192.545 l
220.353 192.635 l
220.353 192.666 l
221.247 192.743 l
221.247 192.871 l
223.034 192.96 l
223.034 192.996 l
224.822 193.092 l
224.822 193.132 l
226.609 193.237 l
226.609 193.271 l
228.396 193.36 l
228.396 193.396 l
230.184 193.498 l
230.184 193.53 l
231.971 193.625 l
231.971 193.651 l
233.759 193.731 l
233.759 193.764 l
235.993 193.862 l
235.993 193.883 l
238.674 193.982 l
238.674 193.996 l
242.249 194.1 l
242.249 194.115 l
246.717 194.225 l
246.717 194.234 l
252.079 194.34 l
252.079 194.351 l
256.548 194.46 l
256.548 194.474 l
258.335 194.508 l
258.335 194.729 l
264.591 194.838 l
264.591 194.845 l
271.741 194.953 l
271.741 194.959 l
280.231 195.068 l
280.231 195.074 l
288.721 195.184 l
288.721 195.19 l
296.317 195.301 l
296.317 195.306 l
304.36 195.409 l
304.36 195.418 l
315.978 195.526 l
315.978 195.53 l
327.15 195.64 l
327.15 195.648 l
336.086 195.756 l
336.086 195.764 l
343.683 195.873 l
343.683 195.876 l
352.62 195.986 l
352.62 195.992 l
360.216 196.096 l
360.216 196.104 l
367.813 196.214 l
367.813 196.223 l
370.047 196.29 l
370.047 196.343 l
385.24 196.453 l
385.24 196.457 l
397.751 196.564 l
397.751 196.573 l
404.901 196.683 l
404.901 196.688 l
410.71 196.799 l
410.71 196.803 l
434.393 196.911 l
434.393 196.915 l
451.82 197.024 l
451.82 197.027 l
462.097 197.134 l
462.097 197.145 l
467.459 197.255 l
467.459 197.276 l
473.715 197.385 l
473.715 197.389 l
484.44 197.499 l
484.44 197.502 l
491.142 197.607 l
491.142 197.629 l
501.42 197.739 l
501.42 197.745 l
505.441 197.85 l
505.441 197.878 l
507.229 197.962 l
507.229 197.997 l
509.016 198.107 l
509.016 198.152 l
510.357 198.262 l
510.357 198.322 l
511.25 198.383 l
511.25 198.445 l
512.144 198.509 l
512.144 198.561 l
513.038 198.621 l
513.038 198.682 l
513.932 198.741 l
513.932 198.812 l
514.825 198.885 l
514.825 198.969 l
516.166 199.072 l
516.166 199.108 l
517.506 199.185 l
517.506 199.224 l
517.953 199.224 l
517.953 200.291 l
518.4 200.291 l
518.4 200.291 l
stroke
grestore
0.750 0.750 0.000 setrgbcolor
gsave
446.4 157.1 72 43.2 clipbox
72 43.2004 m
72.4468 43.2004 l
72.4468 43.2004 l
72.4468 43.2004 l
72.8937 43.2004 l
72.8937 43.2004 l
72.8937 43.2004 l
73.3405 43.2004 l
73.3405 43.2004 l
73.3405 43.2004 l
73.7874 43.2004 l
73.7874 43.2004 l
73.7874 43.2004 l
74.2342 43.2004 l
74.2342 43.2004 l
74.2342 43.2004 l
74.6811 43.2004 l
74.6811 43.2004 l
74.6811 43.2004 l
75.1279 43.2004 l
75.1279 43.2004 l
75.1279 43.2004 l
75.5748 43.2004 l
75.5748 43.2004 l
75.5748 43.2004 l
76.0216 43.2004 l
76.0216 43.2004 l
76.0216 43.2004 l
76.4685 43.2004 l
76.4685 43.2004 l
76.4685 43.2004 l
76.9153 43.2004 l
76.9153 43.2004 l
76.9153 43.2004 l
77.3622 43.2004 l
77.3622 43.2004 l
77.3622 43.2004 l
77.809 43.2004 l
77.809 43.2004 l
77.809 43.2004 l
78.2559 43.2004 l
78.2559 43.2004 l
78.2559 43.2004 l
78.7027 43.2004 l
78.7027 43.2004 l
78.7027 43.2004 l
79.1495 43.2004 l
79.1495 43.2004 l
79.1495 43.2004 l
79.5964 43.2004 l
79.5964 43.3167 l
80.4901 43.3877 l
80.4901 48.7674 l
80.9369 48.7674 l
80.9369 100.528 l
81.3838 100.528 l
81.3838 121.906 l
81.8306 121.906 l
81.8306 137.475 l
82.2775 137.475 l
82.2775 142.152 l
82.7243 142.152 l
82.7243 143.6 l
83.1712 143.6 l
83.1712 144.586 l
83.618 144.586 l
83.618 145.218 l
84.0649 145.218 l
84.0649 148.724 l
84.5117 148.724 l
84.5117 153.512 l
84.9586 153.512 l
84.9586 155.314 l
85.4054 155.314 l
85.4054 156.081 l
85.8523 156.081 l
85.8523 156.531 l
86.7459 156.582 l
86.7459 156.668 l
88.9802 156.77 l
88.9802 156.842 l
89.427 156.842 l
89.427 157.067 l
90.3207 157.108 l
90.3207 157.244 l
92.555 157.326 l
92.555 157.543 l
93.0018 157.543 l
93.0018 160.295 l
93.4486 160.295 l
93.4486 163.959 l
93.8955 163.959 l
93.8955 171.906 l
94.3423 171.906 l
94.3423 175.838 l
94.7892 175.838 l
94.7892 178.322 l
95.236 178.322 l
95.236 181.351 l
95.6829 181.351 l
95.6829 182.713 l
96.1297 182.713 l
96.1297 183.416 l
96.5766 183.416 l
96.5766 183.807 l
97.0234 183.807 l
97.0234 189.136 l
97.4703 189.136 l
97.4703 192.528 l
97.9171 192.528 l
97.9171 193.289 l
98.364 193.289 l
98.364 193.973 l
98.8108 193.973 l
98.8108 194.647 l
99.2577 194.647 l
99.2577 194.808 l
99.7045 194.808 l
99.7045 195.852 l
100.151 195.852 l
100.151 196.925 l
100.598 196.925 l
100.598 197.111 l
103.279 197.213 l
103.279 197.227 l
107.301 197.327 l
107.301 197.35 l
109.535 197.451 l
109.535 197.472 l
111.323 197.571 l
111.323 197.585 l
113.557 197.692 l
113.557 197.705 l
117.578 197.807 l
117.578 197.833 l
120.259 197.904 l
120.259 197.966 l
121.153 198.012 l
121.153 198.121 l
126.068 198.229 l
126.068 198.241 l
130.09 198.35 l
130.09 198.36 l
132.771 198.463 l
132.771 198.485 l
137.24 198.58 l
137.24 198.608 l
148.411 198.719 l
148.411 198.722 l
153.773 198.823 l
153.773 198.852 l
155.114 198.941 l
155.114 198.998 l
161.816 199.106 l
161.816 199.11 l
166.732 199.205 l
166.732 199.231 l
177.903 199.339 l
177.903 199.343 l
193.542 199.451 l
193.542 199.454 l
209.629 199.563 l
209.629 199.569 l
222.587 199.676 l
222.587 199.681 l
240.461 199.792 l
240.461 199.795 l
262.804 199.905 l
262.804 199.908 l
289.168 200.018 l
289.168 200.019 l
320.894 200.13 l
320.894 200.132 l
381.218 200.243 l
381.218 200.244 l
518.4 200.291 l
518.4 200.291 l
stroke
grestore
0 setlinecap
[5 5] 0 setdash
0.000 0.500 0.000 setrgbcolor
gsave
446.4 157.1 72 43.2 clipbox
72 43.2004 m
72 192.609 l
72.4468 192.609 l
72.4468 195.965 l
72.8937 195.965 l
72.8937 196.955 l
73.3405 196.955 l
73.3405 197.461 l
73.7874 197.461 l
73.7874 197.666 l
74.2342 197.666 l
74.2342 197.792 l
75.1279 197.855 l
75.1279 197.922 l
76.0216 197.994 l
76.0216 198.069 l
76.9153 198.127 l
76.9153 198.192 l
77.809 198.251 l
77.809 198.327 l
78.7027 198.415 l
78.7027 198.498 l
79.1495 198.498 l
79.1495 198.632 l
79.5964 198.632 l
79.5964 198.814 l
80.0432 198.814 l
80.0432 198.987 l
80.4901 198.987 l
80.4901 199.101 l
81.8306 199.202 l
81.8306 199.231 l
83.1712 199.311 l
83.1712 199.347 l
84.9586 199.441 l
84.9586 199.498 l
85.8523 199.599 l
85.8523 199.714 l
86.7459 199.816 l
86.7459 199.881 l
87.6396 199.938 l
87.6396 200.004 l
88.9802 200.096 l
88.9802 200.124 l
168.072 200.234 l
168.072 200.235 l
518.4 200.291 l
518.4 200.291 l
stroke
grestore
0.500 setlinewidth
[] 0 setdash
0.000 setgray
gsave
/o {
gsave
newpath
translate
0.5 setlinewidth
1 setlinejoin
0 setlinecap
0 0 m
0 4 l
gsave
0.000 setgray
fill
grestore
stroke
grestore
} bind def
72 43.2 o
grestore
gsave
/o {
gsave
newpath
translate
0.5 setlinewidth
1 setlinejoin
0 setlinecap
0 0 m
0 -4 l
gsave
0.000 setgray
fill
grestore
stroke
grestore
} bind def
72 200.291 o
grestore
/BitstreamVeraSans-Roman findfont
12.000 scalefont
setfont
gsave
63.250000 30.121875 translate
0.000000 rotate
0.000000 0.171875 m /zero glyphshow
7.634766 0.171875 m /period glyphshow
11.449219 0.171875 m /zero glyphshow
grestore
gsave
/o {
gsave
newpath
translate
0.5 setlinewidth
1 setlinejoin
0 setlinecap
0 0 m
0 4 l
gsave
0.000 setgray
fill
grestore
stroke
grestore
} bind def
161.28 43.2 o
grestore
gsave
/o {
gsave
newpath
translate
0.5 setlinewidth
1 setlinejoin
0 setlinecap
0 0 m
0 -4 l
gsave
0.000 setgray
fill
grestore
stroke
grestore
} bind def
161.28 200.291 o
grestore
gsave
152.733125 30.121875 translate
0.000000 rotate
0.000000 0.171875 m /zero glyphshow
7.634766 0.171875 m /period glyphshow
11.449219 0.171875 m /two glyphshow
grestore
gsave
/o {
gsave
newpath
translate
0.5 setlinewidth
1 setlinejoin
0 setlinecap
0 0 m
0 4 l
gsave
0.000 setgray
fill
grestore
stroke
grestore
} bind def
250.56 43.2 o
grestore
gsave
/o {
gsave
newpath
translate
0.5 setlinewidth
1 setlinejoin
0 setlinecap
0 0 m
0 -4 l
gsave
0.000 setgray
fill
grestore
stroke
grestore
} bind def
250.56 200.291 o
grestore
gsave
241.747500 30.121875 translate
0.000000 rotate
0.000000 0.171875 m /zero glyphshow
7.634766 0.171875 m /period glyphshow
11.449219 0.171875 m /four glyphshow
grestore
gsave
/o {
gsave
newpath
translate
0.5 setlinewidth
1 setlinejoin
0 setlinecap
0 0 m
0 4 l
gsave
0.000 setgray
fill
grestore
stroke
grestore
} bind def
339.84 43.2 o
grestore
gsave
/o {
gsave
newpath
translate
0.5 setlinewidth
1 setlinejoin
0 setlinecap
0 0 m
0 -4 l
gsave
0.000 setgray
fill
grestore
stroke
grestore
} bind def
339.84 200.291 o
grestore
gsave
331.074375 30.121875 translate
0.000000 rotate
0.000000 0.171875 m /zero glyphshow
7.634766 0.171875 m /period glyphshow
11.449219 0.171875 m /six glyphshow
grestore
gsave
/o {
gsave
newpath
translate
0.5 setlinewidth
1 setlinejoin
0 setlinecap
0 0 m
0 4 l
gsave
0.000 setgray
fill
grestore
stroke
grestore
} bind def
429.12 43.2 o
grestore
gsave
/o {
gsave
newpath
translate
0.5 setlinewidth
1 setlinejoin
0 setlinecap
0 0 m
0 -4 l
gsave
0.000 setgray
fill
grestore
stroke
grestore
} bind def
429.12 200.291 o
grestore
gsave
420.385625 30.121875 translate
0.000000 rotate
0.000000 0.171875 m /zero glyphshow
7.634766 0.171875 m /period glyphshow
11.449219 0.171875 m /eight glyphshow
grestore
gsave
/o {
gsave
newpath
translate
0.5 setlinewidth
1 setlinejoin
0 setlinecap
0 0 m
0 4 l
gsave
0.000 setgray
fill
grestore
stroke
grestore
} bind def
518.4 43.2 o
grestore
gsave
/o {
gsave
newpath
translate
0.5 setlinewidth
1 setlinejoin
0 setlinecap
0 0 m
0 -4 l
gsave
0.000 setgray
fill
grestore
stroke
grestore
} bind def
518.4 200.291 o
grestore
gsave
509.907812 30.121875 translate
0.000000 rotate
0.000000 0.171875 m /one glyphshow
7.634766 0.171875 m /period glyphshow
11.449219 0.171875 m /zero glyphshow
grestore
gsave
251.903125 15.825000 translate
0.000000 rotate
0.000000 0.171875 m /R glyphshow
7.837891 0.171875 m /e glyphshow
15.220703 0.171875 m /s glyphshow
21.472656 0.171875 m /o glyphshow
28.814453 0.171875 m /u glyphshow
36.419922 0.171875 m /r glyphshow
41.103516 0.171875 m /c glyphshow
47.701172 0.171875 m /e glyphshow
55.083984 0.171875 m /space glyphshow
58.898438 0.171875 m /L glyphshow
65.333984 0.171875 m /o glyphshow
72.675781 0.171875 m /a glyphshow
80.029297 0.171875 m /d glyphshow
grestore
gsave
/o {
gsave
newpath
translate
0.5 setlinewidth
1 setlinejoin
0 setlinecap
0 0 m
4 0 l
gsave
0.000 setgray
fill
grestore
stroke
grestore
} bind def
72 43.2 o
grestore
gsave
/o {
gsave
newpath
translate
0.5 setlinewidth
1 setlinejoin
0 setlinecap
0 0 m
-4 0 l
gsave
0.000 setgray
fill
grestore
stroke
grestore
} bind def
518.4 43.2 o
grestore
gsave
50.500000 38.660937 translate
0.000000 rotate
0.000000 0.171875 m /zero glyphshow
7.634766 0.171875 m /period glyphshow
11.449219 0.171875 m /zero glyphshow
grestore
gsave
/o {
gsave
newpath
translate
0.5 setlinewidth
1 setlinejoin
0 setlinecap
0 0 m
4 0 l
gsave
0.000 setgray
fill
grestore
stroke
grestore
} bind def
72 74.6182 o
grestore
gsave
/o {
gsave
newpath
translate
0.5 setlinewidth
1 setlinejoin
0 setlinecap
0 0 m
-4 0 l
gsave
0.000 setgray
fill
grestore
stroke
grestore
} bind def
518.4 74.6182 o
grestore
gsave
50.906250 70.079119 translate
0.000000 rotate
0.000000 0.171875 m /zero glyphshow
7.634766 0.171875 m /period glyphshow
11.449219 0.171875 m /two glyphshow
grestore
gsave
/o {
gsave
newpath
translate
0.5 setlinewidth
1 setlinejoin
0 setlinecap
0 0 m
4 0 l
gsave
0.000 setgray
fill
grestore
stroke
grestore
} bind def
72 106.036 o
grestore
gsave
/o {
gsave
newpath
translate
0.5 setlinewidth
1 setlinejoin
0 setlinecap
0 0 m
-4 0 l
gsave
0.000 setgray
fill
grestore
stroke
grestore
} bind def
518.4 106.036 o
grestore
gsave
50.375000 101.497301 translate
0.000000 rotate
0.000000 0.171875 m /zero glyphshow
7.634766 0.171875 m /period glyphshow
11.449219 0.171875 m /four glyphshow
grestore
gsave
/o {
gsave
newpath
translate
0.5 setlinewidth
1 setlinejoin
0 setlinecap
0 0 m
4 0 l
gsave
0.000 setgray
fill
grestore
stroke
grestore
} bind def
72 137.455 o
grestore
gsave
/o {
gsave
newpath
translate
0.5 setlinewidth
1 setlinejoin
0 setlinecap
0 0 m
-4 0 l
gsave
0.000 setgray
fill
grestore
stroke
grestore
} bind def
518.4 137.455 o
grestore
gsave
50.468750 132.915483 translate
0.000000 rotate
0.000000 0.171875 m /zero glyphshow
7.634766 0.171875 m /period glyphshow
11.449219 0.171875 m /six glyphshow
grestore
gsave
/o {
gsave
newpath
translate
0.5 setlinewidth
1 setlinejoin
0 setlinecap
0 0 m
4 0 l
gsave
0.000 setgray
fill
grestore
stroke
grestore
} bind def
72 168.873 o
grestore
gsave
/o {
gsave
newpath
translate
0.5 setlinewidth
1 setlinejoin
0 setlinecap
0 0 m
-4 0 l
gsave
0.000 setgray
fill
grestore
stroke
grestore
} bind def
518.4 168.873 o
grestore
gsave
50.531250 164.333665 translate
0.000000 rotate
0.000000 0.171875 m /zero glyphshow
7.634766 0.171875 m /period glyphshow
11.449219 0.171875 m /eight glyphshow
grestore
gsave
/o {
gsave
newpath
translate
0.5 setlinewidth
1 setlinejoin
0 setlinecap
0 0 m
4 0 l
gsave
0.000 setgray
fill
grestore
stroke
grestore
} bind def
72 200.291 o
grestore
gsave
/o {
gsave
newpath
translate
0.5 setlinewidth
1 setlinejoin
0 setlinecap
0 0 m
-4 0 l
gsave
0.000 setgray
fill
grestore
stroke
grestore
} bind def
518.4 200.291 o
grestore
gsave
51.015625 195.751847 translate
0.000000 rotate
0.000000 0.171875 m /one glyphshow
7.634766 0.171875 m /period glyphshow
11.449219 0.171875 m /zero glyphshow
grestore
gsave
45.375000 110.175142 translate
90.000000 rotate
0.000000 0.171875 m /C glyphshow
8.378906 0.171875 m /D glyphshow
17.619141 0.171875 m /F glyphshow
grestore
1.000 setlinewidth
2 setlinecap
gsave
72 200.291 m
518.4 200.291 l
stroke
grestore
gsave
518.4 43.2 m
518.4 200.291 l
stroke
grestore
gsave
72 43.2 m
518.4 43.2 l
stroke
grestore
gsave
72 43.2 m
72 200.291 l
stroke
grestore
/BitstreamVeraSans-Roman findfont
14.400 scalefont
setfont
gsave
221.848437 203.447159 translate
0.000000 rotate
0.000000 1.843750 m /parenleft glyphshow
5.608215 1.843750 m /b glyphshow
14.732971 1.843750 m /parenright glyphshow
20.341187 1.843750 m /space glyphshow
24.910583 1.843750 m /N glyphshow
35.663757 1.843750 m /o glyphshow
44.458618 1.843750 m /d glyphshow
53.583374 1.843750 m /e glyphshow
62.427368 1.843750 m /s glyphshow
69.916687 1.843750 m /space glyphshow
74.486084 1.843750 m /w glyphshow
86.242981 1.843750 m /i glyphshow
90.236816 1.843750 m /t glyphshow
95.873108 1.843750 m /h glyphshow
104.983826 1.843750 m /space glyphshow
109.553223 1.843750 m /G glyphshow
120.692444 1.843750 m /P glyphshow
129.360962 1.843750 m /U glyphshow
139.882507 1.843750 m /s glyphshow
grestore
gsave
413.056 48.2 m
513.4 48.2 l
513.4 93.2781 l
413.056 93.2781 l
413.056 48.2 l
cl
gsave
1.000 setgray
fill
grestore
stroke
grestore
2.000 setlinewidth
0.000 0.000 1.000 setrgbcolor
gsave
420.056 85.1844 m
434.056 85.1844 l
stroke
grestore
0.000 setgray
/BitstreamVeraSans-Roman findfont
10.000 scalefont
setfont
gsave
445.056250 81.543750 translate
0.000000 rotate
0.000000 0.140625 m /C glyphshow
6.982422 0.140625 m /P glyphshow
13.012695 0.140625 m /U glyphshow
20.332031 0.140625 m /space glyphshow
23.510742 0.140625 m /l glyphshow
26.289062 0.140625 m /o glyphshow
32.407227 0.140625 m /a glyphshow
38.535156 0.140625 m /d glyphshow
grestore
0.750 0.750 0.000 setrgbcolor
gsave
420.056 70.5125 m
434.056 70.5125 l
stroke
grestore
0.000 setgray
gsave
445.056250 64.934375 translate
0.000000 rotate
0.000000 2.078125 m /M glyphshow
8.627930 2.078125 m /e glyphshow
14.780273 2.078125 m /m glyphshow
24.521484 2.078125 m /o glyphshow
30.639648 2.078125 m /r glyphshow
34.750977 2.078125 m /y glyphshow
40.668945 2.078125 m /space glyphshow
43.847656 2.078125 m /l glyphshow
46.625977 2.078125 m /o glyphshow
52.744141 2.078125 m /a glyphshow
58.872070 2.078125 m /d glyphshow
grestore
0 setlinecap
[5 5] 0 setdash
0.000 0.500 0.000 setrgbcolor
gsave
420.056 55.8406 m
434.056 55.8406 l
stroke
grestore
0.000 setgray
gsave
445.056250 52.200000 translate
0.000000 rotate
0.000000 0.140625 m /D glyphshow
7.700195 0.140625 m /i glyphshow
10.478516 0.140625 m /s glyphshow
15.688477 0.140625 m /k glyphshow
21.479492 0.140625 m /space glyphshow
24.658203 0.140625 m /l glyphshow
27.436523 0.140625 m /o glyphshow
33.554688 0.140625 m /a glyphshow
39.682617 0.140625 m /d glyphshow
grestore

end
showpage
