38.9026663472 83.1056956045 0.00560908960161 0.932619013376 0.942758521502 node082
36.5091142664 88.5579000565 0.0107147993672 0.937868545951 0.944987775061 node083
67.0421162111 67.3527555867 0.00158205091327 0.939882065296 0.954911548972 node084
29.619107753 81.6221800482 0.013519344168 0.944772040846 0.951891269955 node085
8.08439257194 18.671142724 0.557097655688 0.967855601898 0.97123543794 node090
6.14179087748 8.60979624066 0.370990939163 0.970516323889 0.983676111031 node091
5.84059431877 10.1660028516 0.315115777362 0.967280310657 0.976197324896 node092
6.16997168342 7.3398196738 0.218107291816 0.980368186394 0.98770314972 node093
60.6769300138 101.598937361 0.0119372932547 0.945131597871 0.963253271969 node079
791.790556158 371.410977814 0.000575291241191 0.00165396231842 0.910182654969 node078
34.5930613633 81.3294710048 0.0153890407019 0.937221343305 0.952826118222 node080
90.7510500539 59.7025725864 0.00891701423846 0.933841507263 0.95167553574 node081
7.12719614973 9.182632092 0.663454623903 0.963469006184 0.982094060118 node086
9.37354443971 7.0376477098 0.20782396088 0.975118653818 0.988206529556 node087
6.39129774373 14.6113944402 0.306486408744 0.964763411477 0.97598159068 node088
8.66253056818 16.1595913273 0.272688048324 0.968502804545 0.973752337121 node089
