15.639241875 71.9394561189 0.111700602237 0.967163751075 0.969314597075 node082
30.7932640878 4.57920102011 0.107255520505 0.995411528535 0.997562374534 node083
17.822641481 18.9246307067 0.711749422633 0.910075057737 0.970698614319 node084
29.8772575064 4.86563724868 0.101018797532 0.991103458172 0.996269192137 node085
0.894540135369 44.1333279175 0.458768134385 0.646602188852 0.950623568338 node090
0.463952157017 27.3602390083 0.369849118803 0.726131608977 0.971472042602 node091
0.44656112063 46.9537834525 0.505834601725 0.64802130898 0.908929477423 node092
0.508518119465 51.0338561123 0.494531741043 0.683343808925 0.799622878693 node093
32.1023603489 85.6621212316 0.614960058097 0.917792302106 0.937981118373 node079
836.952741931 853.164119816 0.220777344314 0.279872850744 0.374801329288 node078
12.1456534228 71.6236719528 0.298306556665 0.830800405268 0.907077724707 node080
24.7720841483 80.3681215994 0.816891310582 0.943217665615 0.959564095211 node081
0.585507446728 36.2030851471 0.499748617396 0.688914027149 0.971091000503 node086
0.624997457449 49.6999973501 0.527770732944 0.68995688562 0.78493532843 node087
0.461253311425 71.2442414064 0.364139318496 0.633848862065 0.744247453791 node088
0.619241114572 78.3253511367 0.389482953831 0.525852308466 0.738960875582 node089
