%!PS-Adobe-3.0 EPSF-3.0
%%Creator: MATLAB, The MathWorks, Inc. Version 8.0.0.783 (R2012b). Operating System: Microsoft Windows XP.
%%Title: C:\Documents and Settings\Administrator\My Documents\mseplot\bar_featureset.eps
%%CreationDate: 05/14/2015  16:49:50
%%DocumentNeededFonts: Helvetica
%%DocumentProcessColors: Cyan Magenta Yellow Black
%%LanguageLevel: 2
%%Pages: 1
%%BoundingBox:    56   204   554   588
%%EndComments

%%BeginProlog
% MathWorks dictionary
/MathWorks 160 dict begin
% definition operators
/bdef {bind def} bind def
/ldef {load def} bind def
/xdef {exch def} bdef
/xstore {exch store} bdef
% operator abbreviations
/c  /clip ldef
/cc /concat ldef
/cp /closepath ldef
/gr /grestore ldef
/gs /gsave ldef
/mt /moveto ldef
/np /newpath ldef
/cm /currentmatrix ldef
/sm /setmatrix ldef
/rm /rmoveto ldef
/rl /rlineto ldef
/s {show newpath} bdef
/sc {setcmykcolor} bdef
/sr /setrgbcolor ldef
/sg /setgray ldef
/w /setlinewidth ldef
/j /setlinejoin ldef
/cap /setlinecap ldef
/rc {rectclip} bdef
/rf {rectfill} bdef
% page state control
/pgsv () def
/bpage {/pgsv save def} bdef
/epage {pgsv restore} bdef
/bplot /gsave ldef
/eplot {stroke grestore} bdef
% orientation switch
/portraitMode 0 def /landscapeMode 1 def /rotateMode 2 def
% coordinate system mappings
/dpi2point 0 def
% font control
/FontSize 0 def
/FMS {/FontSize xstore findfont [FontSize 0 0 FontSize neg 0 0]
  makefont setfont} bdef
/ISOLatin1Encoding where {pop /WindowsLatin1Encoding 256 array bdef
ISOLatin1Encoding WindowsLatin1Encoding copy pop
/.notdef/.notdef/quotesinglbase/florin/quotedblbase/ellipsis/dagger
/daggerdbl/circumflex/perthousand/Scaron/guilsinglleft/OE/.notdef/.notdef
/.notdef/.notdef/quoteleft/quoteright/quotedblleft/quotedblright/bullet
/endash/emdash/tilde/trademark/scaron/guilsinglright/oe/.notdef/.notdef
/Ydieresis WindowsLatin1Encoding 128 32 getinterval astore pop}
{/WindowsLatin1Encoding StandardEncoding bdef} ifelse
/reencode {exch dup where {pop load} {pop StandardEncoding} ifelse
  exch dup 3 1 roll findfont dup length dict begin
  { 1 index /FID ne {def}{pop pop} ifelse } forall
  /Encoding exch def currentdict end definefont pop} bdef
/isroman {findfont /CharStrings get /Agrave known} bdef
/FMSR {3 1 roll 1 index dup isroman {reencode} {pop pop} ifelse
  exch FMS} bdef
/csm {1 dpi2point div -1 dpi2point div scale neg translate
 dup landscapeMode eq {pop -90 rotate}
  {rotateMode eq {90 rotate} if} ifelse} bdef
% line types: solid, dotted, dashed, dotdash
/SO { [] 0 setdash } bdef
/DO { [.5 dpi2point mul 4 dpi2point mul] 0 setdash } bdef
/DA { [6 dpi2point mul] 0 setdash } bdef
/DD { [.5 dpi2point mul 4 dpi2point mul 6 dpi2point mul 4
  dpi2point mul] 0 setdash } bdef
% macros for lines and objects
/L {lineto stroke} bdef
/MP {3 1 roll moveto 1 sub {rlineto} repeat} bdef
/AP {{rlineto} repeat} bdef
/PDlw -1 def
/W {/PDlw currentlinewidth def setlinewidth} def
/PP {closepath eofill} bdef
/DP {closepath stroke} bdef
/MR {4 -2 roll moveto dup  0 exch rlineto exch 0 rlineto
  neg 0 exch rlineto closepath} bdef
/FR {MR stroke} bdef
/PR {MR fill} bdef
/L1i {{currentfile picstr readhexstring pop} image} bdef
/tMatrix matrix def
/MakeOval {newpath tMatrix currentmatrix pop translate scale
0 0 1 0 360 arc tMatrix setmatrix} bdef
/FO {MakeOval stroke} bdef
/PO {MakeOval fill} bdef
/PD {currentlinewidth 2 div 0 360 arc fill
   PDlw -1 eq not {PDlw w /PDlw -1 def} if} def
/FA {newpath tMatrix currentmatrix pop translate scale
  0 0 1 5 -2 roll arc tMatrix setmatrix stroke} bdef
/PA {newpath tMatrix currentmatrix pop	translate 0 0 moveto scale
  0 0 1 5 -2 roll arc closepath tMatrix setmatrix fill} bdef
/FAn {newpath tMatrix currentmatrix pop translate scale
  0 0 1 5 -2 roll arcn tMatrix setmatrix stroke} bdef
/PAn {newpath tMatrix currentmatrix pop translate 0 0 moveto scale
  0 0 1 5 -2 roll arcn closepath tMatrix setmatrix fill} bdef
/vradius 0 def /hradius 0 def /lry 0 def
/lrx 0 def /uly 0 def /ulx 0 def /rad 0 def
/MRR {/vradius xdef /hradius xdef /lry xdef /lrx xdef /uly xdef
  /ulx xdef newpath tMatrix currentmatrix pop ulx hradius add uly
  vradius add translate hradius vradius scale 0 0 1 180 270 arc 
  tMatrix setmatrix lrx hradius sub uly vradius add translate
  hradius vradius scale 0 0 1 270 360 arc tMatrix setmatrix
  lrx hradius sub lry vradius sub translate hradius vradius scale
  0 0 1 0 90 arc tMatrix setmatrix ulx hradius add lry vradius sub
  translate hradius vradius scale 0 0 1 90 180 arc tMatrix setmatrix
  closepath} bdef
/FRR {MRR stroke } bdef
/PRR {MRR fill } bdef
/MlrRR {/lry xdef /lrx xdef /uly xdef /ulx xdef /rad lry uly sub 2 div def
  newpath tMatrix currentmatrix pop ulx rad add uly rad add translate
  rad rad scale 0 0 1 90 270 arc tMatrix setmatrix lrx rad sub lry rad
  sub translate rad rad scale 0 0 1 270 90 arc tMatrix setmatrix
  closepath} bdef
/FlrRR {MlrRR stroke } bdef
/PlrRR {MlrRR fill } bdef
/MtbRR {/lry xdef /lrx xdef /uly xdef /ulx xdef /rad lrx ulx sub 2 div def
  newpath tMatrix currentmatrix pop ulx rad add uly rad add translate
  rad rad scale 0 0 1 180 360 arc tMatrix setmatrix lrx rad sub lry rad
  sub translate rad rad scale 0 0 1 0 180 arc tMatrix setmatrix
  closepath} bdef
/FtbRR {MtbRR stroke } bdef
/PtbRR {MtbRR fill } bdef
/stri 6 array def /dtri 6 array def
/smat 6 array def /dmat 6 array def
/tmat1 6 array def /tmat2 6 array def /dif 3 array def
/asub {/ind2 exch def /ind1 exch def dup dup
  ind1 get exch ind2 get sub exch } bdef
/tri_to_matrix {
  2 0 asub 3 1 asub 4 0 asub 5 1 asub
  dup 0 get exch 1 get 7 -1 roll astore } bdef
/compute_transform {
  dmat dtri tri_to_matrix tmat1 invertmatrix 
  smat stri tri_to_matrix tmat2 concatmatrix } bdef
/ds {stri astore pop} bdef
/dt {dtri astore pop} bdef
/db {2 copy /cols xdef /rows xdef mul dup 3 mul string
  currentfile 
  3 index 0 eq {/ASCIIHexDecode filter}
  {/ASCII85Decode filter 3 index 2 eq {/RunLengthDecode filter} if }
  ifelse exch readstring pop
  dup 0 3 index getinterval /rbmap xdef
  dup 2 index dup getinterval /gbmap xdef
  1 index dup 2 mul exch getinterval /bbmap xdef pop pop}bdef
/it {gs np dtri aload pop moveto lineto lineto cp c
  cols rows 8 compute_transform 
  rbmap gbmap bbmap true 3 colorimage gr}bdef
/il {newpath moveto lineto stroke}bdef
currentdict end def
%%EndProlog

%%BeginSetup
MathWorks begin

0 cap

end
%%EndSetup

%%Page: 1 1
%%BeginPageSetup
%%PageBoundingBox:    56   204   554   588
MathWorks begin
bpage
%%EndPageSetup

%%BeginObject: obj1
bplot

/dpi2point 12 def
portraitMode 0672 7056 csm

    0     0  5976  4607 rc
85 dict begin %Colortable dictionary
/c0 { 0.000000 0.000000 0.000000 sr} bdef
/c1 { 1.000000 1.000000 1.000000 sr} bdef
/c2 { 0.900000 0.000000 0.000000 sr} bdef
/c3 { 0.000000 0.820000 0.000000 sr} bdef
/c4 { 0.000000 0.000000 0.800000 sr} bdef
/c5 { 0.910000 0.820000 0.320000 sr} bdef
/c6 { 1.000000 0.260000 0.820000 sr} bdef
/c7 { 0.000000 0.820000 0.820000 sr} bdef
c0
1 j
1 sg
   0    0 5977 4608 rf
6 w
0 926 4631 0 0 -926 777 1339 4 MP
PP
-4631 0 0 926 4631 0 0 -926 777 1339 5 MP stroke
4 w
DO
SO
6 w
0 sg
 777  413 mt 5408  413 L
 777 1339 mt 5408 1339 L
5408 1339 mt 5408  413 L
 777 1339 mt  777  413 L
 777 1339 mt 5408 1339 L
 777 1339 mt  777  413 L
1703 1339 mt 1703 1292 L
1703  413 mt 1703  459 L
%%IncludeResource: font Helvetica
/Helvetica /WindowsLatin1Encoding 120 FMSR

1452 1484 mt 
(M-Linear) s
4018 1339 mt 4018 1292 L
4018  413 mt 4018  459 L
3872 1484 mt 
(GMM) s
 777 1339 mt  823 1339 L
5408 1339 mt 5361 1339 L
 676 1383 mt 
(0) s
 777  968 mt  823  968 L
5408  968 mt 5361  968 L
 609 1012 mt 
(10) s
 777  598 mt  823  598 L
5408  598 mt 5361  598 L
 609  642 mt 
(20) s
 777  413 mt 5408  413 L
 777 1339 mt 5408 1339 L
5408 1339 mt 5408  413 L
 777 1339 mt  777  413 L
gs 777 413 4632 927 rc
/c8 { 0.000000 0.000000 0.562500 sr} bdef
c8
0 491 295 0 0 -491 924 1339 4 MP
PP
0 sg
-295 0 0 491 295 0 0 -491 924 1339 5 MP stroke
c8
0 324 295 0 0 -324 3239 1339 4 MP
PP
0 sg
-295 0 0 324 295 0 0 -324 3239 1339 5 MP stroke
4631 0 777 1339 2 MP stroke
/c9 { 0.000000 0.875000 1.000000 sr} bdef
c9
0 756 295 0 0 -756 1345 1339 4 MP
PP
0 sg
-295 0 0 756 295 0 0 -756 1345 1339 5 MP stroke
c9
0 560 295 0 0 -560 3660 1339 4 MP
PP
0 sg
-295 0 0 560 295 0 0 -560 3660 1339 5 MP stroke
/c10 { 1.000000 0.812500 0.000000 sr} bdef
c10
0 751 295 0 0 -751 1766 1339 4 MP
PP
0 sg
-295 0 0 751 295 0 0 -751 1766 1339 5 MP stroke
c10
0 546 295 0 0 -546 4081 1339 4 MP
PP
0 sg
-295 0 0 546 295 0 0 -546 4081 1339 5 MP stroke
/c11 { 0.500000 0.000000 0.000000 sr} bdef
c11
0 748 295 0 0 -748 2187 1339 4 MP
PP
0 sg
-295 0 0 748 295 0 0 -748 2187 1339 5 MP stroke
c11
0 618 295 0 0 -618 4502 1339 4 MP
PP
0 sg
-295 0 0 618 295 0 0 -618 4502 1339 5 MP stroke
gr

 527 1228 mt  -90 rotate
(RMSE \(Watt\)) s
90 rotate
2425  318 mt 
(\(a\) RMSE vs. feature set ) s
1 sg
0 926 4631 0 0 -926 777 2720 4 MP
PP
-4631 0 0 926 4631 0 0 -926 777 2720 5 MP stroke
4 w
DO
SO
6 w
0 sg
 777 1794 mt 5408 1794 L
 777 2720 mt 5408 2720 L
5408 2720 mt 5408 1794 L
 777 2720 mt  777 1794 L
 777 2720 mt 5408 2720 L
 777 2720 mt  777 1794 L
1703 2720 mt 1703 2673 L
1703 1794 mt 1703 1840 L
1452 2865 mt 
(M-Linear) s
4018 2720 mt 4018 2673 L
4018 1794 mt 4018 1840 L
3872 2865 mt 
(GMM) s
 777 2720 mt  823 2720 L
5408 2720 mt 5361 2720 L
 676 2764 mt 
(0) s
 777 2257 mt  823 2257 L
5408 2257 mt 5361 2257 L
 576 2301 mt 
(0.5) s
 777 1794 mt  823 1794 L
5408 1794 mt 5361 1794 L
 676 1838 mt 
(1) s
 777 1794 mt 5408 1794 L
 777 2720 mt 5408 2720 L
5408 2720 mt 5408 1794 L
 777 2720 mt  777 1794 L
gs 777 1794 4632 927 rc
c8
0 100 295 0 0 -100 924 2720 4 MP
PP
0 sg
-295 0 0 100 295 0 0 -100 924 2720 5 MP stroke
c8
0 605 295 0 0 -605 3239 2720 4 MP
PP
0 sg
-295 0 0 605 295 0 0 -605 3239 2720 5 MP stroke
4631 0 777 2720 2 MP stroke
c9
0 5 295 0 0 -5 1345 2720 4 MP
PP
0 sg
-295 0 0 5 295 0 0 -5 1345 2720 5 MP stroke
c9
0 316 295 0 0 -316 3660 2720 4 MP
PP
0 sg
-295 0 0 316 295 0 0 -316 3660 2720 5 MP stroke
c10
0 5 295 0 0 -5 1766 2720 4 MP
PP
0 sg
-295 0 0 5 295 0 0 -5 1766 2720 5 MP stroke
c10
0 445 295 0 0 -445 4081 2720 4 MP
PP
0 sg
-295 0 0 445 295 0 0 -445 4081 2720 5 MP stroke
c11
0 8 295 0 0 -8 2187 2720 4 MP
PP
0 sg
-295 0 0 8 295 0 0 -8 2187 2720 5 MP stroke
c11
0 498 295 0 0 -498 4502 2720 4 MP
PP
0 sg
-295 0 0 498 295 0 0 -498 4502 2720 5 MP stroke
gr

 494 2641 mt  -90 rotate
(Success Ratio) s
90 rotate
1909 1699 mt 
(\(b\) Success Ratio\(delta=0.01\) vs. feature set) s
 760 2763 mt 
( ) s
5392 1836 mt 
( ) s
1 sg
0 642 954 0 0 -642 4403 669 4 MP
PP
-954 0 0 642 954 0 0 -642 4403 669 5 MP stroke
4 w
DO
SO
6 w
0 sg
4403   27 mt 5357   27 L
4403  669 mt 5357  669 L
5357  669 mt 5357   27 L
4403  669 mt 4403   27 L
4403  669 mt 5357  669 L
4403  669 mt 4403   27 L
4403   27 mt 5357   27 L
4403  669 mt 5357  669 L
5357  669 mt 5357   27 L
4403  669 mt 4403   27 L
%%IncludeResource: font Helvetica
/Helvetica /WindowsLatin1Encoding 96 FMSR

4871  155 mt 
(Full) s
gs 4403 27 955 643 rc
c8
-360 0 0 109 360 0 0 -109 4475 177 5 MP
PP
0 sg
0 0 -360 0 0 109 360 0 0 -109 4475 177 6 MP stroke
gr

4871  305 mt 
(CPU) s
gs 4403 27 955 643 rc
c9
-360 0 0 109 360 0 0 -109 4475 327 5 MP
PP
0 sg
0 0 -360 0 0 109 360 0 0 -109 4475 327 6 MP stroke
gr

4871  456 mt 
(CPU+Mem) s
gs 4403 27 955 643 rc
c10
-360 0 0 109 360 0 0 -109 4475 477 5 MP
PP
0 sg
0 0 -360 0 0 109 360 0 0 -109 4475 477 6 MP stroke
gr

4871  606 mt 
(CPU+I/O) s
gs 4403 27 955 643 rc
c11
-360 0 0 109 360 0 0 -109 4475 627 5 MP
PP
0 sg
0 0 -360 0 0 109 360 0 0 -109 4475 627 6 MP stroke
gr

1 sg
0 926 4631 0 0 -926 777 4100 4 MP
PP
-4631 0 0 926 4631 0 0 -926 777 4100 5 MP stroke
4 w
DO
SO
6 w
0 sg
 777 3174 mt 5408 3174 L
 777 4100 mt 5408 4100 L
5408 4100 mt 5408 3174 L
 777 4100 mt  777 3174 L
 777 4100 mt 5408 4100 L
 777 4100 mt  777 3174 L
1703 4100 mt 1703 4053 L
1703 3174 mt 1703 3220 L
%%IncludeResource: font Helvetica
/Helvetica /WindowsLatin1Encoding 120 FMSR

1452 4245 mt 
(M-Linear) s
4018 4100 mt 4018 4053 L
4018 3174 mt 4018 3220 L
3872 4245 mt 
(GMM) s
 777 4100 mt  823 4100 L
5408 4100 mt 5361 4100 L
 676 4144 mt 
(0) s
 777 3637 mt  823 3637 L
5408 3637 mt 5361 3637 L
 576 3681 mt 
(0.5) s
 777 3174 mt  823 3174 L
5408 3174 mt 5361 3174 L
 676 3218 mt 
(1) s
 777 3174 mt 5408 3174 L
 777 4100 mt 5408 4100 L
5408 4100 mt 5408 3174 L
 777 4100 mt  777 3174 L
gs 777 3174 4632 927 rc
c8
0 859 295 0 0 -859 924 4100 4 MP
PP
0 sg
-295 0 0 859 295 0 0 -859 924 4100 5 MP stroke
c8
0 880 295 0 0 -880 3239 4100 4 MP
PP
0 sg
-295 0 0 880 295 0 0 -880 3239 4100 5 MP stroke
4631 0 777 4100 2 MP stroke
c9
0 768 295 0 0 -768 1345 4100 4 MP
PP
0 sg
-295 0 0 768 295 0 0 -768 1345 4100 5 MP stroke
c9
0 839 295 0 0 -839 3660 4100 4 MP
PP
0 sg
-295 0 0 839 295 0 0 -839 3660 4100 5 MP stroke
c10
0 767 295 0 0 -767 1766 4100 4 MP
PP
0 sg
-295 0 0 767 295 0 0 -767 1766 4100 5 MP stroke
c10
0 849 295 0 0 -849 4081 4100 4 MP
PP
0 sg
-295 0 0 849 295 0 0 -849 4081 4100 5 MP stroke
c11
0 760 295 0 0 -760 2187 4100 4 MP
PP
0 sg
-295 0 0 760 295 0 0 -760 2187 4100 5 MP stroke
c11
0 847 295 0 0 -847 4502 4100 4 MP
PP
0 sg
-295 0 0 847 295 0 0 -847 4502 4100 5 MP stroke
gr

 494 4021 mt  -90 rotate
(Success Ratio) s
90 rotate
1913 3079 mt 
(\(c\) Success Ratio\(delta=0.05\) vs. feature set) s

end %%Color Dict

eplot
%%EndObject

epage
end

showpage

%%Trailer
%%EOF
