%!PS-Adobe-3.0 EPSF-3.0
%%Creator: MATLAB, The MathWorks, Inc. Version 8.0.0.783 (R2012b). Operating System: Microsoft Windows XP.
%%Title: C:\Documents and Settings\Administrator\My Documents\mseplot\randomsize\loadcdf_random.eps
%%CreationDate: 03/26/2014  17:43:51
%%DocumentNeededFonts: Helvetica
%%DocumentProcessColors: Cyan Magenta Yellow Black
%%LanguageLevel: 2
%%Pages: 1
%%BoundingBox:    96   238   515   553
%%EndComments

%%BeginProlog
% MathWorks dictionary
/MathWorks 160 dict begin
% definition operators
/bdef {bind def} bind def
/ldef {load def} bind def
/xdef {exch def} bdef
/xstore {exch store} bdef
% operator abbreviations
/c  /clip ldef
/cc /concat ldef
/cp /closepath ldef
/gr /grestore ldef
/gs /gsave ldef
/mt /moveto ldef
/np /newpath ldef
/cm /currentmatrix ldef
/sm /setmatrix ldef
/rm /rmoveto ldef
/rl /rlineto ldef
/s {show newpath} bdef
/sc {setcmykcolor} bdef
/sr /setrgbcolor ldef
/sg /setgray ldef
/w /setlinewidth ldef
/j /setlinejoin ldef
/cap /setlinecap ldef
/rc {rectclip} bdef
/rf {rectfill} bdef
% page state control
/pgsv () def
/bpage {/pgsv save def} bdef
/epage {pgsv restore} bdef
/bplot /gsave ldef
/eplot {stroke grestore} bdef
% orientation switch
/portraitMode 0 def /landscapeMode 1 def /rotateMode 2 def
% coordinate system mappings
/dpi2point 0 def
% font control
/FontSize 0 def
/FMS {/FontSize xstore findfont [FontSize 0 0 FontSize neg 0 0]
  makefont setfont} bdef
/ISOLatin1Encoding where {pop /WindowsLatin1Encoding 256 array bdef
ISOLatin1Encoding WindowsLatin1Encoding copy pop
/.notdef/.notdef/quotesinglbase/florin/quotedblbase/ellipsis/dagger
/daggerdbl/circumflex/perthousand/Scaron/guilsinglleft/OE/.notdef/.notdef
/.notdef/.notdef/quoteleft/quoteright/quotedblleft/quotedblright/bullet
/endash/emdash/tilde/trademark/scaron/guilsinglright/oe/.notdef/.notdef
/Ydieresis WindowsLatin1Encoding 128 32 getinterval astore pop}
{/WindowsLatin1Encoding StandardEncoding bdef} ifelse
/reencode {exch dup where {pop load} {pop StandardEncoding} ifelse
  exch dup 3 1 roll findfont dup length dict begin
  { 1 index /FID ne {def}{pop pop} ifelse } forall
  /Encoding exch def currentdict end definefont pop} bdef
/isroman {findfont /CharStrings get /Agrave known} bdef
/FMSR {3 1 roll 1 index dup isroman {reencode} {pop pop} ifelse
  exch FMS} bdef
/csm {1 dpi2point div -1 dpi2point div scale neg translate
 dup landscapeMode eq {pop -90 rotate}
  {rotateMode eq {90 rotate} if} ifelse} bdef
% line types: solid, dotted, dashed, dotdash
/SO { [] 0 setdash } bdef
/DO { [.5 dpi2point mul 4 dpi2point mul] 0 setdash } bdef
/DA { [6 dpi2point mul] 0 setdash } bdef
/DD { [.5 dpi2point mul 4 dpi2point mul 6 dpi2point mul 4
  dpi2point mul] 0 setdash } bdef
% macros for lines and objects
/L {lineto stroke} bdef
/MP {3 1 roll moveto 1 sub {rlineto} repeat} bdef
/AP {{rlineto} repeat} bdef
/PDlw -1 def
/W {/PDlw currentlinewidth def setlinewidth} def
/PP {closepath eofill} bdef
/DP {closepath stroke} bdef
/MR {4 -2 roll moveto dup  0 exch rlineto exch 0 rlineto
  neg 0 exch rlineto closepath} bdef
/FR {MR stroke} bdef
/PR {MR fill} bdef
/L1i {{currentfile picstr readhexstring pop} image} bdef
/tMatrix matrix def
/MakeOval {newpath tMatrix currentmatrix pop translate scale
0 0 1 0 360 arc tMatrix setmatrix} bdef
/FO {MakeOval stroke} bdef
/PO {MakeOval fill} bdef
/PD {currentlinewidth 2 div 0 360 arc fill
   PDlw -1 eq not {PDlw w /PDlw -1 def} if} def
/FA {newpath tMatrix currentmatrix pop translate scale
  0 0 1 5 -2 roll arc tMatrix setmatrix stroke} bdef
/PA {newpath tMatrix currentmatrix pop	translate 0 0 moveto scale
  0 0 1 5 -2 roll arc closepath tMatrix setmatrix fill} bdef
/FAn {newpath tMatrix currentmatrix pop translate scale
  0 0 1 5 -2 roll arcn tMatrix setmatrix stroke} bdef
/PAn {newpath tMatrix currentmatrix pop translate 0 0 moveto scale
  0 0 1 5 -2 roll arcn closepath tMatrix setmatrix fill} bdef
/vradius 0 def /hradius 0 def /lry 0 def
/lrx 0 def /uly 0 def /ulx 0 def /rad 0 def
/MRR {/vradius xdef /hradius xdef /lry xdef /lrx xdef /uly xdef
  /ulx xdef newpath tMatrix currentmatrix pop ulx hradius add uly
  vradius add translate hradius vradius scale 0 0 1 180 270 arc 
  tMatrix setmatrix lrx hradius sub uly vradius add translate
  hradius vradius scale 0 0 1 270 360 arc tMatrix setmatrix
  lrx hradius sub lry vradius sub translate hradius vradius scale
  0 0 1 0 90 arc tMatrix setmatrix ulx hradius add lry vradius sub
  translate hradius vradius scale 0 0 1 90 180 arc tMatrix setmatrix
  closepath} bdef
/FRR {MRR stroke } bdef
/PRR {MRR fill } bdef
/MlrRR {/lry xdef /lrx xdef /uly xdef /ulx xdef /rad lry uly sub 2 div def
  newpath tMatrix currentmatrix pop ulx rad add uly rad add translate
  rad rad scale 0 0 1 90 270 arc tMatrix setmatrix lrx rad sub lry rad
  sub translate rad rad scale 0 0 1 270 90 arc tMatrix setmatrix
  closepath} bdef
/FlrRR {MlrRR stroke } bdef
/PlrRR {MlrRR fill } bdef
/MtbRR {/lry xdef /lrx xdef /uly xdef /ulx xdef /rad lrx ulx sub 2 div def
  newpath tMatrix currentmatrix pop ulx rad add uly rad add translate
  rad rad scale 0 0 1 180 360 arc tMatrix setmatrix lrx rad sub lry rad
  sub translate rad rad scale 0 0 1 0 180 arc tMatrix setmatrix
  closepath} bdef
/FtbRR {MtbRR stroke } bdef
/PtbRR {MtbRR fill } bdef
/stri 6 array def /dtri 6 array def
/smat 6 array def /dmat 6 array def
/tmat1 6 array def /tmat2 6 array def /dif 3 array def
/asub {/ind2 exch def /ind1 exch def dup dup
  ind1 get exch ind2 get sub exch } bdef
/tri_to_matrix {
  2 0 asub 3 1 asub 4 0 asub 5 1 asub
  dup 0 get exch 1 get 7 -1 roll astore } bdef
/compute_transform {
  dmat dtri tri_to_matrix tmat1 invertmatrix 
  smat stri tri_to_matrix tmat2 concatmatrix } bdef
/ds {stri astore pop} bdef
/dt {dtri astore pop} bdef
/db {2 copy /cols xdef /rows xdef mul dup 3 mul string
  currentfile 
  3 index 0 eq {/ASCIIHexDecode filter}
  {/ASCII85Decode filter 3 index 2 eq {/RunLengthDecode filter} if }
  ifelse exch readstring pop
  dup 0 3 index getinterval /rbmap xdef
  dup 2 index dup getinterval /gbmap xdef
  1 index dup 2 mul exch getinterval /bbmap xdef pop pop}bdef
/it {gs np dtri aload pop moveto lineto lineto cp c
  cols rows 8 compute_transform 
  rbmap gbmap bbmap true 3 colorimage gr}bdef
/il {newpath moveto lineto stroke}bdef
currentdict end def
%%EndProlog

%%BeginSetup
MathWorks begin

0 cap

end
%%EndSetup

%%Page: 1 1
%%BeginPageSetup
%%PageBoundingBox:    96   238   515   553
MathWorks begin
bpage
%%EndPageSetup

%%BeginObject: obj1
bplot

/dpi2point 12 def
portraitMode 1152 6636 csm

    0     0  5039  3780 rc
86 dict begin %Colortable dictionary
/c0 { 0.000000 0.000000 0.000000 sr} bdef
/c1 { 1.000000 1.000000 1.000000 sr} bdef
/c2 { 0.900000 0.000000 0.000000 sr} bdef
/c3 { 0.000000 0.820000 0.000000 sr} bdef
/c4 { 0.000000 0.000000 0.800000 sr} bdef
/c5 { 0.910000 0.820000 0.320000 sr} bdef
/c6 { 1.000000 0.260000 0.820000 sr} bdef
/c7 { 0.000000 0.820000 0.820000 sr} bdef
c0
1 j
1 sg
   0    0 5040 3781 rf
6 w
0 3081 3905 0 0 -3081 655 3364 4 MP
PP
-3905 0 0 3081 3905 0 0 -3081 655 3364 5 MP stroke
4 w
DO
SO
6 w
0 sg
 655  283 mt 4560  283 L
 655 3364 mt 4560 3364 L
4560 3364 mt 4560  283 L
 655 3364 mt  655  283 L
 655 3364 mt 4560 3364 L
 655 3364 mt  655  283 L
 655 3364 mt  655 3324 L
 655  283 mt  655  322 L
%%IncludeResource: font Helvetica
/Helvetica /WindowsLatin1Encoding 120 FMSR

 622 3509 mt 
(0) s
1631 3364 mt 1631 3324 L
1631  283 mt 1631  322 L
1598 3509 mt 
(5) s
2607 3364 mt 2607 3324 L
2607  283 mt 2607  322 L
2541 3509 mt 
(10) s
3583 3364 mt 3583 3324 L
3583  283 mt 3583  322 L
3517 3509 mt 
(15) s
4560 3364 mt 4560 3324 L
4560  283 mt 4560  322 L
4494 3509 mt 
(20) s
 655 3364 mt  694 3364 L
4560 3364 mt 4520 3364 L
 554 3408 mt 
(0) s
 655 3055 mt  694 3055 L
4560 3055 mt 4520 3055 L
 454 3099 mt 
(0.1) s
 655 2747 mt  694 2747 L
4560 2747 mt 4520 2747 L
 454 2791 mt 
(0.2) s
 655 2439 mt  694 2439 L
4560 2439 mt 4520 2439 L
 454 2483 mt 
(0.3) s
 655 2131 mt  694 2131 L
4560 2131 mt 4520 2131 L
 454 2175 mt 
(0.4) s
 655 1823 mt  694 1823 L
4560 1823 mt 4520 1823 L
 454 1867 mt 
(0.5) s
 655 1515 mt  694 1515 L
4560 1515 mt 4520 1515 L
 454 1559 mt 
(0.6) s
 655 1207 mt  694 1207 L
4560 1207 mt 4520 1207 L
 454 1251 mt 
(0.7) s
 655  899 mt  694  899 L
4560  899 mt 4520  899 L
 454  943 mt 
(0.8) s
 655  591 mt  694  591 L
4560  591 mt 4520  591 L
 454  635 mt 
(0.9) s
 655  283 mt  694  283 L
4560  283 mt 4520  283 L
 554  327 mt 
(1) s
 655  283 mt 4560  283 L
 655 3364 mt 4560 3364 L
4560 3364 mt 4560  283 L
 655 3364 mt  655  283 L
gs 655 283 3906 3082 rc
DO
14.4 w
/c8 { 1.000000 0.000000 0.000000 sr} bdef
c8
0 -205 30 0 0 -205 208 0 0 -206 34 0 0 -205 109 0 
0 -206 52 0 0 -205 175 0 0 -205 196 0 0 -206 85 0 
0 -205 102 0 0 -206 137 0 0 -205 100 0 0 -205 40 0 
0 -206 20 0 0 -205 84 0 0 -206 1923 3364 30 MP stroke
gr

14.4 w
c8
DO
SO
1902 3343 mt 1944 3385 L
1944 3343 mt 1902 3385 L
1902 3137 mt 1944 3179 L
1944 3137 mt 1902 3179 L
1986 3137 mt 2028 3179 L
2028 3137 mt 1986 3179 L
1986 2932 mt 2028 2974 L
2028 2932 mt 1986 2974 L
2006 2932 mt 2048 2974 L
2048 2932 mt 2006 2974 L
2006 2726 mt 2048 2768 L
2048 2726 mt 2006 2768 L
2046 2726 mt 2088 2768 L
2088 2726 mt 2046 2768 L
2046 2521 mt 2088 2563 L
2088 2521 mt 2046 2563 L
2146 2521 mt 2188 2563 L
2188 2521 mt 2146 2563 L
2146 2316 mt 2188 2358 L
2188 2316 mt 2146 2358 L
2283 2316 mt 2325 2358 L
2325 2316 mt 2283 2358 L
2283 2110 mt 2325 2152 L
2325 2110 mt 2283 2152 L
2385 2110 mt 2427 2152 L
2427 2110 mt 2385 2152 L
2385 1905 mt 2427 1947 L
2427 1905 mt 2385 1947 L
2470 1905 mt 2512 1947 L
2512 1905 mt 2470 1947 L
2470 1699 mt 2512 1741 L
2512 1699 mt 2470 1741 L
2666 1699 mt 2708 1741 L
2708 1699 mt 2666 1741 L
2666 1494 mt 2708 1536 L
2708 1494 mt 2666 1536 L
2841 1494 mt 2883 1536 L
2883 1494 mt 2841 1536 L
2841 1289 mt 2883 1331 L
2883 1289 mt 2841 1331 L
2893 1289 mt 2935 1331 L
2935 1289 mt 2893 1331 L
2893 1083 mt 2935 1125 L
2935 1083 mt 2893 1125 L
3002 1083 mt 3044 1125 L
3044 1083 mt 3002 1125 L
3002  878 mt 3044  920 L
3044  878 mt 3002  920 L
3036  878 mt 3078  920 L
3078  878 mt 3036  920 L
3036  672 mt 3078  714 L
3078  672 mt 3036  714 L
3244  672 mt 3286  714 L
3286  672 mt 3244  714 L
3244  467 mt 3286  509 L
3286  467 mt 3244  509 L
3274  467 mt 3316  509 L
3316  467 mt 3274  509 L
3274  262 mt 3316  304 L
3316  262 mt 3274  304 L
DO
gs 655 283 3906 3082 rc
gr

0 sg
2255 3652 mt 
(RMSE \(Watt\)) s
 372 1947 mt  -90 rotate
(CDF) s
90 rotate
%%IncludeResource: font Helvetica
/Helvetica /WindowsLatin1Encoding 156 FMSR

2585  180 mt 
( ) s
gs 655 283 3906 3082 rc
SO
6 w
c8
0 -205 39 0 0 -205 251 0 0 -206 14 0 0 -205 68 0 
0 -206 63 0 0 -205 215 0 0 -205 558 0 0 -206 18 0 
0 -205 132 0 0 -206 36 0 0 -205 41 0 0 -205 54 0 
0 -206 65 0 0 -205 23 0 0 -206 1697 3364 30 MP stroke
gr

6 w
c8
SO
  24   24 1697 3364 FO
  24   24 1697 3158 FO
  24   24 1720 3158 FO
  24   24 1720 2953 FO
  24   24 1785 2953 FO
  24   24 1785 2747 FO
  24   24 1839 2747 FO
  24   24 1839 2542 FO
  24   24 1880 2542 FO
  24   24 1880 2337 FO
  24   24 1916 2337 FO
  24   24 1916 2131 FO
  24   24 2048 2131 FO
  24   24 2048 1926 FO
  24   24 2066 1926 FO
  24   24 2066 1720 FO
  24   24 2624 1720 FO
  24   24 2624 1515 FO
  24   24 2839 1515 FO
  24   24 2839 1310 FO
  24   24 2902 1310 FO
  24   24 2902 1104 FO
  24   24 2970 1104 FO
  24   24 2970  899 FO
  24   24 2984  899 FO
  24   24 2984  693 FO
  24   24 3235  693 FO
  24   24 3235  488 FO
  24   24 3274  488 FO
  24   24 3274  283 FO
gs 655 283 3906 3082 rc
0 sg
0 -205 80 0 0 -205 209 0 0 -206 27 0 0 -205 70 0 
0 -206 30 0 0 -205 225 0 0 -205 568 0 0 -206 31 0 
0 -205 123 0 0 -206 29 0 0 -205 54 0 0 -205 55 0 
0 -206 56 0 0 -205 21 0 0 -206 1697 3364 30 MP stroke
DO
14.4 w
/c9 { 0.000000 0.000000 1.000000 sr} bdef
c9
0 -205 6 0 0 -205 69 0 0 -206 50 0 0 -205 62 0 
0 -206 117 0 0 -205 112 0 0 -205 560 0 0 -206 57 0 
0 -205 263 0 0 -206 110 0 0 -205 8 0 0 -205 31 0 
0 -206 26 0 0 -205 13 0 0 -206 1324 3364 30 MP stroke
SO
6 w
/c10 { 0.000000 0.500000 0.500000 sr} bdef
c10
0 -205 57 0 0 -205 273 0 0 -206 182 0 0 -205 3 0 
0 -206 315 0 0 -205 26 0 0 -205 474 0 0 -206 94 0 
0 -205 6 0 0 -206 38 0 0 -205 10 0 0 -205 6 0 
0 -206 25 0 0 -205 14 0 0 -206 1153 3364 30 MP stroke
gr

c10
1123 3364 mt 1183 3364 L
1153 3334 mt 1153 3394 L
1123 3158 mt 1183 3158 L
1153 3128 mt 1153 3188 L
1137 3158 mt 1197 3158 L
1167 3128 mt 1167 3188 L
1137 2953 mt 1197 2953 L
1167 2923 mt 1167 2983 L
1162 2953 mt 1222 2953 L
1192 2923 mt 1192 2983 L
1162 2747 mt 1222 2747 L
1192 2717 mt 1192 2777 L
1168 2747 mt 1228 2747 L
1198 2717 mt 1198 2777 L
1168 2542 mt 1228 2542 L
1198 2512 mt 1198 2572 L
1178 2542 mt 1238 2542 L
1208 2512 mt 1208 2572 L
1178 2337 mt 1238 2337 L
1208 2307 mt 1208 2367 L
1216 2337 mt 1276 2337 L
1246 2307 mt 1246 2367 L
1216 2131 mt 1276 2131 L
1246 2101 mt 1246 2161 L
1222 2131 mt 1282 2131 L
1252 2101 mt 1252 2161 L
1222 1926 mt 1282 1926 L
1252 1896 mt 1252 1956 L
1316 1926 mt 1376 1926 L
1346 1896 mt 1346 1956 L
1316 1720 mt 1376 1720 L
1346 1690 mt 1346 1750 L
1790 1720 mt 1850 1720 L
1820 1690 mt 1820 1750 L
1790 1515 mt 1850 1515 L
1820 1485 mt 1820 1545 L
1816 1515 mt 1876 1515 L
1846 1485 mt 1846 1545 L
1816 1310 mt 1876 1310 L
1846 1280 mt 1846 1340 L
2131 1310 mt 2191 1310 L
2161 1280 mt 2161 1340 L
2131 1104 mt 2191 1104 L
2161 1074 mt 2161 1134 L
2134 1104 mt 2194 1104 L
2164 1074 mt 2164 1134 L
2134  899 mt 2194  899 L
2164  869 mt 2164  929 L
2316  899 mt 2376  899 L
2346  869 mt 2346  929 L
2316  693 mt 2376  693 L
2346  663 mt 2346  723 L
2589  693 mt 2649  693 L
2619  663 mt 2619  723 L
2589  488 mt 2649  488 L
2619  458 mt 2619  518 L
2646  488 mt 2706  488 L
2676  458 mt 2676  518 L
2646  283 mt 2706  283 L
2676  253 mt 2676  313 L
1132 3343 mt 1174 3385 L
1174 3343 mt 1132 3385 L
1132 3137 mt 1174 3179 L
1174 3137 mt 1132 3179 L
1146 3137 mt 1188 3179 L
1188 3137 mt 1146 3179 L
1146 2932 mt 1188 2974 L
1188 2932 mt 1146 2974 L
1171 2932 mt 1213 2974 L
1213 2932 mt 1171 2974 L
1171 2726 mt 1213 2768 L
1213 2726 mt 1171 2768 L
1177 2726 mt 1219 2768 L
1219 2726 mt 1177 2768 L
1177 2521 mt 1219 2563 L
1219 2521 mt 1177 2563 L
1187 2521 mt 1229 2563 L
1229 2521 mt 1187 2563 L
1187 2316 mt 1229 2358 L
1229 2316 mt 1187 2358 L
1225 2316 mt 1267 2358 L
1267 2316 mt 1225 2358 L
1225 2110 mt 1267 2152 L
1267 2110 mt 1225 2152 L
1231 2110 mt 1273 2152 L
1273 2110 mt 1231 2152 L
1231 1905 mt 1273 1947 L
1273 1905 mt 1231 1947 L
1325 1905 mt 1367 1947 L
1367 1905 mt 1325 1947 L
1325 1699 mt 1367 1741 L
1367 1699 mt 1325 1741 L
1799 1699 mt 1841 1741 L
1841 1699 mt 1799 1741 L
1799 1494 mt 1841 1536 L
1841 1494 mt 1799 1536 L
1825 1494 mt 1867 1536 L
1867 1494 mt 1825 1536 L
1825 1289 mt 1867 1331 L
1867 1289 mt 1825 1331 L
2140 1289 mt 2182 1331 L
2182 1289 mt 2140 1331 L
2140 1083 mt 2182 1125 L
2182 1083 mt 2140 1125 L
2143 1083 mt 2185 1125 L
2185 1083 mt 2143 1125 L
2143  878 mt 2185  920 L
2185  878 mt 2143  920 L
2325  878 mt 2367  920 L
2367  878 mt 2325  920 L
2325  672 mt 2367  714 L
2367  672 mt 2325  714 L
2598  672 mt 2640  714 L
2640  672 mt 2598  714 L
2598  467 mt 2640  509 L
2640  467 mt 2598  509 L
2655  467 mt 2697  509 L
2697  467 mt 2655  509 L
2655  262 mt 2697  304 L
2697  262 mt 2655  304 L
gs 655 283 3906 3082 rc
gr

0 sg
%%IncludeResource: font Helvetica
/Helvetica /WindowsLatin1Encoding 120 FMSR

 638 3407 mt 
( ) s
4544  325 mt 
( ) s
1 sg
0 632 909 0 0 -632 3592 3305 4 MP
PP
-909 0 0 632 909 0 0 -632 3592 3305 5 MP stroke
4 w
DO
SO
6 w
0 sg
3592 2673 mt 4501 2673 L
3592 3305 mt 4501 3305 L
4501 3305 mt 4501 2673 L
3592 3305 mt 3592 2673 L
3592 3305 mt 4501 3305 L
3592 3305 mt 3592 2673 L
3592 2673 mt 4501 2673 L
3592 3305 mt 4501 3305 L
4501 3305 mt 4501 2673 L
3592 3305 mt 3592 2673 L
%%IncludeResource: font Helvetica
/Helvetica /WindowsLatin1Encoding 96 FMSR

4065 2784 mt 
(Linear) s
gs 3592 2673 910 633 rc
DO
14.4 w
c8
364 0 3664 2749 2 MP stroke
SO
gs 3770 2673 153 154 rc
3825 2728 mt 3867 2770 L
3867 2728 mt 3825 2770 L
gr

gr

14.4 w
c8
0 sg
4065 2904 mt 
(M-Linear) s
gs 3592 2673 910 633 rc
6 w
c8
364 0 3664 2869 2 MP stroke
gs 3797 2820 99 99 rc
  24   24 3846 2869 FO
gr

gr

6 w
c8
0 sg
4065 3024 mt 
(ANN) s
gs 3592 2673 910 633 rc
364 0 3664 2989 2 MP stroke
gr

4065 3143 mt 
(GMDH) s
gs 3592 2673 910 633 rc
DO
14.4 w
c9
364 0 3664 3108 2 MP stroke
SO
gr

14.4 w
c9
0 sg
4065 3263 mt 
(GMM) s
gs 3592 2673 910 633 rc
6 w
c10
364 0 3664 3228 2 MP stroke
gs 3785 3167 123 123 rc
3816 3228 mt 3876 3228 L
3846 3198 mt 3846 3258 L
3825 3207 mt 3867 3249 L
3867 3207 mt 3825 3249 L
gr

gr

6 w
c10

end %%Color Dict

eplot
%%EndObject

epage
end

showpage

%%Trailer
%%EOF
