%!PS-Adobe-3.0 EPSF-3.0
%%Creator: MATLAB, The MathWorks, Inc. Version 8.0.0.783 (R2012b). Operating System: Microsoft Windows XP.
%%Title: C:\Documents and Settings\Administrator\My Documents\mseplot\randomsize\mse_random_linpackcpuslot.eps
%%CreationDate: 04/14/2014  22:24:47
%%DocumentNeededFonts: Helvetica
%%DocumentProcessColors: Cyan Magenta Yellow Black
%%LanguageLevel: 2
%%Pages: 1
%%BoundingBox:    96   238   515   553
%%EndComments

%%BeginProlog
% MathWorks dictionary
/MathWorks 160 dict begin
% definition operators
/bdef {bind def} bind def
/ldef {load def} bind def
/xdef {exch def} bdef
/xstore {exch store} bdef
% operator abbreviations
/c  /clip ldef
/cc /concat ldef
/cp /closepath ldef
/gr /grestore ldef
/gs /gsave ldef
/mt /moveto ldef
/np /newpath ldef
/cm /currentmatrix ldef
/sm /setmatrix ldef
/rm /rmoveto ldef
/rl /rlineto ldef
/s {show newpath} bdef
/sc {setcmykcolor} bdef
/sr /setrgbcolor ldef
/sg /setgray ldef
/w /setlinewidth ldef
/j /setlinejoin ldef
/cap /setlinecap ldef
/rc {rectclip} bdef
/rf {rectfill} bdef
% page state control
/pgsv () def
/bpage {/pgsv save def} bdef
/epage {pgsv restore} bdef
/bplot /gsave ldef
/eplot {stroke grestore} bdef
% orientation switch
/portraitMode 0 def /landscapeMode 1 def /rotateMode 2 def
% coordinate system mappings
/dpi2point 0 def
% font control
/FontSize 0 def
/FMS {/FontSize xstore findfont [FontSize 0 0 FontSize neg 0 0]
  makefont setfont} bdef
/ISOLatin1Encoding where {pop /WindowsLatin1Encoding 256 array bdef
ISOLatin1Encoding WindowsLatin1Encoding copy pop
/.notdef/.notdef/quotesinglbase/florin/quotedblbase/ellipsis/dagger
/daggerdbl/circumflex/perthousand/Scaron/guilsinglleft/OE/.notdef/.notdef
/.notdef/.notdef/quoteleft/quoteright/quotedblleft/quotedblright/bullet
/endash/emdash/tilde/trademark/scaron/guilsinglright/oe/.notdef/.notdef
/Ydieresis WindowsLatin1Encoding 128 32 getinterval astore pop}
{/WindowsLatin1Encoding StandardEncoding bdef} ifelse
/reencode {exch dup where {pop load} {pop StandardEncoding} ifelse
  exch dup 3 1 roll findfont dup length dict begin
  { 1 index /FID ne {def}{pop pop} ifelse } forall
  /Encoding exch def currentdict end definefont pop} bdef
/isroman {findfont /CharStrings get /Agrave known} bdef
/FMSR {3 1 roll 1 index dup isroman {reencode} {pop pop} ifelse
  exch FMS} bdef
/csm {1 dpi2point div -1 dpi2point div scale neg translate
 dup landscapeMode eq {pop -90 rotate}
  {rotateMode eq {90 rotate} if} ifelse} bdef
% line types: solid, dotted, dashed, dotdash
/SO { [] 0 setdash } bdef
/DO { [.5 dpi2point mul 4 dpi2point mul] 0 setdash } bdef
/DA { [6 dpi2point mul] 0 setdash } bdef
/DD { [.5 dpi2point mul 4 dpi2point mul 6 dpi2point mul 4
  dpi2point mul] 0 setdash } bdef
% macros for lines and objects
/L {lineto stroke} bdef
/MP {3 1 roll moveto 1 sub {rlineto} repeat} bdef
/AP {{rlineto} repeat} bdef
/PDlw -1 def
/W {/PDlw currentlinewidth def setlinewidth} def
/PP {closepath eofill} bdef
/DP {closepath stroke} bdef
/MR {4 -2 roll moveto dup  0 exch rlineto exch 0 rlineto
  neg 0 exch rlineto closepath} bdef
/FR {MR stroke} bdef
/PR {MR fill} bdef
/L1i {{currentfile picstr readhexstring pop} image} bdef
/tMatrix matrix def
/MakeOval {newpath tMatrix currentmatrix pop translate scale
0 0 1 0 360 arc tMatrix setmatrix} bdef
/FO {MakeOval stroke} bdef
/PO {MakeOval fill} bdef
/PD {currentlinewidth 2 div 0 360 arc fill
   PDlw -1 eq not {PDlw w /PDlw -1 def} if} def
/FA {newpath tMatrix currentmatrix pop translate scale
  0 0 1 5 -2 roll arc tMatrix setmatrix stroke} bdef
/PA {newpath tMatrix currentmatrix pop	translate 0 0 moveto scale
  0 0 1 5 -2 roll arc closepath tMatrix setmatrix fill} bdef
/FAn {newpath tMatrix currentmatrix pop translate scale
  0 0 1 5 -2 roll arcn tMatrix setmatrix stroke} bdef
/PAn {newpath tMatrix currentmatrix pop translate 0 0 moveto scale
  0 0 1 5 -2 roll arcn closepath tMatrix setmatrix fill} bdef
/vradius 0 def /hradius 0 def /lry 0 def
/lrx 0 def /uly 0 def /ulx 0 def /rad 0 def
/MRR {/vradius xdef /hradius xdef /lry xdef /lrx xdef /uly xdef
  /ulx xdef newpath tMatrix currentmatrix pop ulx hradius add uly
  vradius add translate hradius vradius scale 0 0 1 180 270 arc 
  tMatrix setmatrix lrx hradius sub uly vradius add translate
  hradius vradius scale 0 0 1 270 360 arc tMatrix setmatrix
  lrx hradius sub lry vradius sub translate hradius vradius scale
  0 0 1 0 90 arc tMatrix setmatrix ulx hradius add lry vradius sub
  translate hradius vradius scale 0 0 1 90 180 arc tMatrix setmatrix
  closepath} bdef
/FRR {MRR stroke } bdef
/PRR {MRR fill } bdef
/MlrRR {/lry xdef /lrx xdef /uly xdef /ulx xdef /rad lry uly sub 2 div def
  newpath tMatrix currentmatrix pop ulx rad add uly rad add translate
  rad rad scale 0 0 1 90 270 arc tMatrix setmatrix lrx rad sub lry rad
  sub translate rad rad scale 0 0 1 270 90 arc tMatrix setmatrix
  closepath} bdef
/FlrRR {MlrRR stroke } bdef
/PlrRR {MlrRR fill } bdef
/MtbRR {/lry xdef /lrx xdef /uly xdef /ulx xdef /rad lrx ulx sub 2 div def
  newpath tMatrix currentmatrix pop ulx rad add uly rad add translate
  rad rad scale 0 0 1 180 360 arc tMatrix setmatrix lrx rad sub lry rad
  sub translate rad rad scale 0 0 1 0 180 arc tMatrix setmatrix
  closepath} bdef
/FtbRR {MtbRR stroke } bdef
/PtbRR {MtbRR fill } bdef
/stri 6 array def /dtri 6 array def
/smat 6 array def /dmat 6 array def
/tmat1 6 array def /tmat2 6 array def /dif 3 array def
/asub {/ind2 exch def /ind1 exch def dup dup
  ind1 get exch ind2 get sub exch } bdef
/tri_to_matrix {
  2 0 asub 3 1 asub 4 0 asub 5 1 asub
  dup 0 get exch 1 get 7 -1 roll astore } bdef
/compute_transform {
  dmat dtri tri_to_matrix tmat1 invertmatrix 
  smat stri tri_to_matrix tmat2 concatmatrix } bdef
/ds {stri astore pop} bdef
/dt {dtri astore pop} bdef
/db {2 copy /cols xdef /rows xdef mul dup 3 mul string
  currentfile 
  3 index 0 eq {/ASCIIHexDecode filter}
  {/ASCII85Decode filter 3 index 2 eq {/RunLengthDecode filter} if }
  ifelse exch readstring pop
  dup 0 3 index getinterval /rbmap xdef
  dup 2 index dup getinterval /gbmap xdef
  1 index dup 2 mul exch getinterval /bbmap xdef pop pop}bdef
/it {gs np dtri aload pop moveto lineto lineto cp c
  cols rows 8 compute_transform 
  rbmap gbmap bbmap true 3 colorimage gr}bdef
/il {newpath moveto lineto stroke}bdef
currentdict end def
%%EndProlog

%%BeginSetup
MathWorks begin

0 cap

end
%%EndSetup

%%Page: 1 1
%%BeginPageSetup
%%PageBoundingBox:    96   238   515   553
MathWorks begin
bpage
%%EndPageSetup

%%BeginObject: obj1
bplot

/dpi2point 12 def
portraitMode 1152 6636 csm

    0     0  5039  3780 rc
86 dict begin %Colortable dictionary
/c0 { 0.000000 0.000000 0.000000 sr} bdef
/c1 { 1.000000 1.000000 1.000000 sr} bdef
/c2 { 0.900000 0.000000 0.000000 sr} bdef
/c3 { 0.000000 0.820000 0.000000 sr} bdef
/c4 { 0.000000 0.000000 0.800000 sr} bdef
/c5 { 0.910000 0.820000 0.320000 sr} bdef
/c6 { 1.000000 0.260000 0.820000 sr} bdef
/c7 { 0.000000 0.820000 0.820000 sr} bdef
c0
1 j
1 sg
   0    0 5040 3781 rf
9 w
0 3081 3905 0 0 -3081 655 3364 4 MP
PP
-3905 0 0 3081 3905 0 0 -3081 655 3364 5 MP stroke
6 w
DO
SO
9 w
0 sg
 655  283 mt 4560  283 L
 655 3364 mt 4560 3364 L
4560 3364 mt 4560  283 L
 655 3364 mt  655  283 L
 655 3364 mt 4560 3364 L
 655 3364 mt  655  283 L
 899 3364 mt  899 3324 L
 899  283 mt  899  322 L
%%IncludeResource: font Helvetica
/Helvetica /WindowsLatin1Encoding 120 FMSR

 779 3509 mt 
(25%) s
2119 3364 mt 2119 3324 L
2119  283 mt 2119  322 L
1999 3509 mt 
(50%) s
3339 3364 mt 3339 3324 L
3339  283 mt 3339  322 L
3219 3509 mt 
(75%) s
4560 3364 mt 4560 3324 L
4560  283 mt 4560  322 L
4407 3509 mt 
(100%) s
 655 3364 mt  694 3364 L
4560 3364 mt 4520 3364 L
 487 3408 mt 
(10) s
 655 3055 mt  694 3055 L
4560 3055 mt 4520 3055 L
 487 3099 mt 
(20) s
 655 2747 mt  694 2747 L
4560 2747 mt 4520 2747 L
 487 2791 mt 
(30) s
 655 2439 mt  694 2439 L
4560 2439 mt 4520 2439 L
 487 2483 mt 
(40) s
 655 2131 mt  694 2131 L
4560 2131 mt 4520 2131 L
 487 2175 mt 
(50) s
 655 1823 mt  694 1823 L
4560 1823 mt 4520 1823 L
 487 1867 mt 
(60) s
 655 1515 mt  694 1515 L
4560 1515 mt 4520 1515 L
 487 1559 mt 
(70) s
 655 1207 mt  694 1207 L
4560 1207 mt 4520 1207 L
 487 1251 mt 
(80) s
 655  899 mt  694  899 L
4560  899 mt 4520  899 L
 487  943 mt 
(90) s
 655  591 mt  694  591 L
4560  591 mt 4520  591 L
 420  635 mt 
(100) s
 655  283 mt  694  283 L
4560  283 mt 4520  283 L
 420  327 mt 
(110) s
 655  283 mt 4560  283 L
 655 3364 mt 4560 3364 L
4560 3364 mt 4560  283 L
 655 3364 mt  655  283 L
gs 655 283 3906 3082 rc
DO
14.4 w
/c8 { 1.000000 0.000000 0.000000 sr} bdef
c8
1221 -624 1220 -1024 1220 -496 899 2669 4 MP stroke
gr

14.4 w
c8
DO
SO
 878 2648 mt  920 2690 L
 920 2648 mt  878 2690 L
2098 2152 mt 2140 2194 L
2140 2152 mt 2098 2194 L
3318 1128 mt 3360 1170 L
3360 1128 mt 3318 1170 L
4539  504 mt 4581  546 L
4581  504 mt 4539  546 L
DO
gs 655 283 3906 3082 rc
SO
6 w
1221 -211 1220 -519 1220 -48 899 3013 4 MP stroke
gr

6 w
SO
  24   24  899 3013 FO
  24   24 2119 2965 FO
  24   24 3339 2446 FO
  24   24 4560 2235 FO
gs 655 283 3906 3082 rc
0 sg
1221 -210 1220 -524 1220 9 899 3095 4 MP stroke
DO
14.4 w
/c9 { 0.000000 0.000000 1.000000 sr} bdef
c9
1221 -203 1220 -589 1220 -177 899 3276 4 MP stroke
SO
6 w
/c10 { 0.000000 0.500000 0.500000 sr} bdef
c10
1221 -357 1220 -827 1220 91 899 3123 4 MP stroke
gr

c10
 869 3123 mt  929 3123 L
 899 3093 mt  899 3153 L
2089 3214 mt 2149 3214 L
2119 3184 mt 2119 3244 L
3309 2387 mt 3369 2387 L
3339 2357 mt 3339 2417 L
4530 2030 mt 4590 2030 L
4560 2000 mt 4560 2060 L
 878 3102 mt  920 3144 L
 920 3102 mt  878 3144 L
2098 3193 mt 2140 3235 L
2140 3193 mt 2098 3235 L
3318 2366 mt 3360 2408 L
3360 2366 mt 3318 2408 L
4539 2009 mt 4581 2051 L
4581 2009 mt 4539 2051 L
gs 655 283 3906 3082 rc
DO
24 w
1221 -303 1220 -603 1220 136 899 3031 4 MP stroke
gr

24 w
DO
SO
 869 3031 mt  929 3031 L
 899 3001 mt  899 3061 L
2089 3167 mt 2149 3167 L
2119 3137 mt 2119 3197 L
3309 2564 mt 3369 2564 L
3339 2534 mt 3339 2594 L
4530 2261 mt 4590 2261 L
4560 2231 mt 4560 2291 L
 878 3010 mt  920 3052 L
 920 3010 mt  878 3052 L
2098 3146 mt 2140 3188 L
2140 3146 mt 2098 3188 L
3318 2543 mt 3360 2585 L
3360 2543 mt 3318 2585 L
4539 2240 mt 4581 2282 L
4581 2240 mt 4539 2282 L
DO
gs 655 283 3906 3082 rc
gr

0 sg
%%IncludeResource: font Helvetica
/Helvetica /WindowsLatin1Encoding 144 FMSR

1684  183 mt 
(Linpack on nodes with GPUs) s
%%IncludeResource: font Helvetica
/Helvetica /WindowsLatin1Encoding 120 FMSR

 338 2158 mt  -90 rotate
(RMSE\(Watt\)) s
90 rotate
2299 3652 mt 
(CPU usage) s
 638 3407 mt 
( ) s
4544  325 mt 
( ) s
SO
9 w
6 w
1 sg
0 942 951 0 0 -942 801 1335 4 MP
PP
-951 0 0 942 951 0 0 -942 801 1335 5 MP stroke
4 w
DO
SO
6 w
0 sg
 801  393 mt 1752  393 L
 801 1335 mt 1752 1335 L
1752 1335 mt 1752  393 L
 801 1335 mt  801  393 L
 801 1335 mt 1752 1335 L
 801 1335 mt  801  393 L
 801  393 mt 1752  393 L
 801 1335 mt 1752 1335 L
1752 1335 mt 1752  393 L
 801 1335 mt  801  393 L
%%IncludeResource: font Helvetica
/Helvetica /WindowsLatin1Encoding 96 FMSR

1282  523 mt 
(Linear) s
gs 801 393 952 943 rc
DO
14.4 w
c8
370 0 874 489 2 MP stroke
SO
gs 983 412 153 154 rc
1038  468 mt 1080  510 L
1080  468 mt 1038  510 L
gr

gr

14.4 w
c8
0 sg
1282  673 mt 
(M-Linear) s
gs 801 393 952 943 rc
6 w
c8
370 0 874 639 2 MP stroke
gs 1010 590 99 99 rc
  24   24 1059  639 FO
gr

gr

6 w
c8
0 sg
1282  823 mt 
(ANN) s
gs 801 393 952 943 rc
370 0 874 788 2 MP stroke
gr

1282  974 mt 
(GMDH) s
gs 801 393 952 943 rc
DO
14.4 w
c9
370 0 874 938 2 MP stroke
SO
gr

14.4 w
c9
0 sg
1282 1124 mt 
(GMM) s
gs 801 393 952 943 rc
6 w
c10
370 0 874 1088 2 MP stroke
gs 998 1027 123 123 rc
1029 1088 mt 1089 1088 L
1059 1058 mt 1059 1118 L
1038 1067 mt 1080 1109 L
1080 1067 mt 1038 1109 L
gr

gr

6 w
c10
0 sg
1282 1274 mt 
(GMM-Opt) s
gs 801 393 952 943 rc
DO
24 w
c10
370 0 874 1238 2 MP stroke
SO
gs 973 1152 173 173 rc
1029 1238 mt 1089 1238 L
1059 1208 mt 1059 1268 L
1038 1217 mt 1080 1259 L
1080 1217 mt 1038 1259 L
gr

6 w
gr

c10

end %%Color Dict

eplot
%%EndObject

epage
end

showpage

%%Trailer
%%EOF
