%!PS-Adobe-3.0 EPSF-3.0
%%Creator: MATLAB, The MathWorks, Inc. Version 8.0.0.783 (R2012b). Operating System: Microsoft Windows XP.
%%Title: C:\Documents and Settings\Administrator\My Documents\mseplot\learningcurves.eps
%%CreationDate: 05/14/2015  14:33:46
%%DocumentNeededFonts: Helvetica
%%DocumentProcessColors: Cyan Magenta Yellow Black
%%LanguageLevel: 2
%%Pages: 1
%%BoundingBox:    96   238   515   553
%%EndComments

%%BeginProlog
% MathWorks dictionary
/MathWorks 160 dict begin
% definition operators
/bdef {bind def} bind def
/ldef {load def} bind def
/xdef {exch def} bdef
/xstore {exch store} bdef
% operator abbreviations
/c  /clip ldef
/cc /concat ldef
/cp /closepath ldef
/gr /grestore ldef
/gs /gsave ldef
/mt /moveto ldef
/np /newpath ldef
/cm /currentmatrix ldef
/sm /setmatrix ldef
/rm /rmoveto ldef
/rl /rlineto ldef
/s {show newpath} bdef
/sc {setcmykcolor} bdef
/sr /setrgbcolor ldef
/sg /setgray ldef
/w /setlinewidth ldef
/j /setlinejoin ldef
/cap /setlinecap ldef
/rc {rectclip} bdef
/rf {rectfill} bdef
% page state control
/pgsv () def
/bpage {/pgsv save def} bdef
/epage {pgsv restore} bdef
/bplot /gsave ldef
/eplot {stroke grestore} bdef
% orientation switch
/portraitMode 0 def /landscapeMode 1 def /rotateMode 2 def
% coordinate system mappings
/dpi2point 0 def
% font control
/FontSize 0 def
/FMS {/FontSize xstore findfont [FontSize 0 0 FontSize neg 0 0]
  makefont setfont} bdef
/ISOLatin1Encoding where {pop /WindowsLatin1Encoding 256 array bdef
ISOLatin1Encoding WindowsLatin1Encoding copy pop
/.notdef/.notdef/quotesinglbase/florin/quotedblbase/ellipsis/dagger
/daggerdbl/circumflex/perthousand/Scaron/guilsinglleft/OE/.notdef/.notdef
/.notdef/.notdef/quoteleft/quoteright/quotedblleft/quotedblright/bullet
/endash/emdash/tilde/trademark/scaron/guilsinglright/oe/.notdef/.notdef
/Ydieresis WindowsLatin1Encoding 128 32 getinterval astore pop}
{/WindowsLatin1Encoding StandardEncoding bdef} ifelse
/reencode {exch dup where {pop load} {pop StandardEncoding} ifelse
  exch dup 3 1 roll findfont dup length dict begin
  { 1 index /FID ne {def}{pop pop} ifelse } forall
  /Encoding exch def currentdict end definefont pop} bdef
/isroman {findfont /CharStrings get /Agrave known} bdef
/FMSR {3 1 roll 1 index dup isroman {reencode} {pop pop} ifelse
  exch FMS} bdef
/csm {1 dpi2point div -1 dpi2point div scale neg translate
 dup landscapeMode eq {pop -90 rotate}
  {rotateMode eq {90 rotate} if} ifelse} bdef
% line types: solid, dotted, dashed, dotdash
/SO { [] 0 setdash } bdef
/DO { [.5 dpi2point mul 4 dpi2point mul] 0 setdash } bdef
/DA { [6 dpi2point mul] 0 setdash } bdef
/DD { [.5 dpi2point mul 4 dpi2point mul 6 dpi2point mul 4
  dpi2point mul] 0 setdash } bdef
% macros for lines and objects
/L {lineto stroke} bdef
/MP {3 1 roll moveto 1 sub {rlineto} repeat} bdef
/AP {{rlineto} repeat} bdef
/PDlw -1 def
/W {/PDlw currentlinewidth def setlinewidth} def
/PP {closepath eofill} bdef
/DP {closepath stroke} bdef
/MR {4 -2 roll moveto dup  0 exch rlineto exch 0 rlineto
  neg 0 exch rlineto closepath} bdef
/FR {MR stroke} bdef
/PR {MR fill} bdef
/L1i {{currentfile picstr readhexstring pop} image} bdef
/tMatrix matrix def
/MakeOval {newpath tMatrix currentmatrix pop translate scale
0 0 1 0 360 arc tMatrix setmatrix} bdef
/FO {MakeOval stroke} bdef
/PO {MakeOval fill} bdef
/PD {currentlinewidth 2 div 0 360 arc fill
   PDlw -1 eq not {PDlw w /PDlw -1 def} if} def
/FA {newpath tMatrix currentmatrix pop translate scale
  0 0 1 5 -2 roll arc tMatrix setmatrix stroke} bdef
/PA {newpath tMatrix currentmatrix pop	translate 0 0 moveto scale
  0 0 1 5 -2 roll arc closepath tMatrix setmatrix fill} bdef
/FAn {newpath tMatrix currentmatrix pop translate scale
  0 0 1 5 -2 roll arcn tMatrix setmatrix stroke} bdef
/PAn {newpath tMatrix currentmatrix pop translate 0 0 moveto scale
  0 0 1 5 -2 roll arcn closepath tMatrix setmatrix fill} bdef
/vradius 0 def /hradius 0 def /lry 0 def
/lrx 0 def /uly 0 def /ulx 0 def /rad 0 def
/MRR {/vradius xdef /hradius xdef /lry xdef /lrx xdef /uly xdef
  /ulx xdef newpath tMatrix currentmatrix pop ulx hradius add uly
  vradius add translate hradius vradius scale 0 0 1 180 270 arc 
  tMatrix setmatrix lrx hradius sub uly vradius add translate
  hradius vradius scale 0 0 1 270 360 arc tMatrix setmatrix
  lrx hradius sub lry vradius sub translate hradius vradius scale
  0 0 1 0 90 arc tMatrix setmatrix ulx hradius add lry vradius sub
  translate hradius vradius scale 0 0 1 90 180 arc tMatrix setmatrix
  closepath} bdef
/FRR {MRR stroke } bdef
/PRR {MRR fill } bdef
/MlrRR {/lry xdef /lrx xdef /uly xdef /ulx xdef /rad lry uly sub 2 div def
  newpath tMatrix currentmatrix pop ulx rad add uly rad add translate
  rad rad scale 0 0 1 90 270 arc tMatrix setmatrix lrx rad sub lry rad
  sub translate rad rad scale 0 0 1 270 90 arc tMatrix setmatrix
  closepath} bdef
/FlrRR {MlrRR stroke } bdef
/PlrRR {MlrRR fill } bdef
/MtbRR {/lry xdef /lrx xdef /uly xdef /ulx xdef /rad lrx ulx sub 2 div def
  newpath tMatrix currentmatrix pop ulx rad add uly rad add translate
  rad rad scale 0 0 1 180 360 arc tMatrix setmatrix lrx rad sub lry rad
  sub translate rad rad scale 0 0 1 0 180 arc tMatrix setmatrix
  closepath} bdef
/FtbRR {MtbRR stroke } bdef
/PtbRR {MtbRR fill } bdef
/stri 6 array def /dtri 6 array def
/smat 6 array def /dmat 6 array def
/tmat1 6 array def /tmat2 6 array def /dif 3 array def
/asub {/ind2 exch def /ind1 exch def dup dup
  ind1 get exch ind2 get sub exch } bdef
/tri_to_matrix {
  2 0 asub 3 1 asub 4 0 asub 5 1 asub
  dup 0 get exch 1 get 7 -1 roll astore } bdef
/compute_transform {
  dmat dtri tri_to_matrix tmat1 invertmatrix 
  smat stri tri_to_matrix tmat2 concatmatrix } bdef
/ds {stri astore pop} bdef
/dt {dtri astore pop} bdef
/db {2 copy /cols xdef /rows xdef mul dup 3 mul string
  currentfile 
  3 index 0 eq {/ASCIIHexDecode filter}
  {/ASCII85Decode filter 3 index 2 eq {/RunLengthDecode filter} if }
  ifelse exch readstring pop
  dup 0 3 index getinterval /rbmap xdef
  dup 2 index dup getinterval /gbmap xdef
  1 index dup 2 mul exch getinterval /bbmap xdef pop pop}bdef
/it {gs np dtri aload pop moveto lineto lineto cp c
  cols rows 8 compute_transform 
  rbmap gbmap bbmap true 3 colorimage gr}bdef
/il {newpath moveto lineto stroke}bdef
currentdict end def
%%EndProlog

%%BeginSetup
MathWorks begin

0 cap

end
%%EndSetup

%%Page: 1 1
%%BeginPageSetup
%%PageBoundingBox:    96   238   515   553
MathWorks begin
bpage
%%EndPageSetup

%%BeginObject: obj1
bplot

/dpi2point 12 def
portraitMode 1152 6636 csm

    0     0  5039  3780 rc
86 dict begin %Colortable dictionary
/c0 { 0.000000 0.000000 0.000000 sr} bdef
/c1 { 1.000000 1.000000 1.000000 sr} bdef
/c2 { 0.900000 0.000000 0.000000 sr} bdef
/c3 { 0.000000 0.820000 0.000000 sr} bdef
/c4 { 0.000000 0.000000 0.800000 sr} bdef
/c5 { 0.910000 0.820000 0.320000 sr} bdef
/c6 { 1.000000 0.260000 0.820000 sr} bdef
/c7 { 0.000000 0.820000 0.820000 sr} bdef
c0
1 j
1 sg
   0    0 5040 3781 rf
6 w
0 1235 3906 0 0 -1235 654 1573 4 MP
PP
-3906 0 0 1235 3906 0 0 -1235 654 1573 5 MP stroke
4 w
DO
SO
6 w
0 sg
 654  338 mt 4560  338 L
 654 1573 mt 4560 1573 L
4560 1573 mt 4560  338 L
 654 1573 mt  654  338 L
 654 1573 mt 4560 1573 L
 654 1573 mt  654  338 L
 654 1573 mt  654 1533 L
 654  338 mt  654  377 L
1088 1573 mt 1088 1533 L
1088  338 mt 1088  377 L
1522 1573 mt 1522 1533 L
1522  338 mt 1522  377 L
1956 1573 mt 1956 1533 L
1956  338 mt 1956  377 L
2390 1573 mt 2390 1533 L
2390  338 mt 2390  377 L
2824 1573 mt 2824 1533 L
2824  338 mt 2824  377 L
3258 1573 mt 3258 1533 L
3258  338 mt 3258  377 L
3692 1573 mt 3692 1533 L
3692  338 mt 3692  377 L
4126 1573 mt 4126 1533 L
4126  338 mt 4126  377 L
4560 1573 mt 4560 1533 L
4560  338 mt 4560  377 L
 654 1495 mt  694 1495 L
4560 1495 mt 4520 1495 L
%%IncludeResource: font Helvetica
/Helvetica /WindowsLatin1Encoding 120 FMSR

 554 1539 mt 
(5) s
 654 1109 mt  694 1109 L
4560 1109 mt 4520 1109 L
 487 1153 mt 
(10) s
 654  723 mt  694  723 L
4560  723 mt 4520  723 L
 487  767 mt 
(15) s
 654  338 mt  694  338 L
4560  338 mt 4520  338 L
 487  382 mt 
(20) s
 654  338 mt 4560  338 L
 654 1573 mt 4560 1573 L
4560 1573 mt 4560  338 L
 654 1573 mt  654  338 L
gs 654 338 3907 1236 rc
DO
14.4 w
/c8 { 1.000000 0.000000 0.000000 sr} bdef
c8
-434 -4 -434 -1 -434 -1 -434 1 -434 1 -434 -1 -434 1 -434 0 
-434 1 4560 1125 10 MP stroke
gr

14.4 w
c8
DO
gs 578 1045 4059 160 rc
SO
4539 1104 mt 4581 1146 L
4581 1104 mt 4539 1146 L
4105 1105 mt 4147 1147 L
4147 1105 mt 4105 1147 L
3671 1105 mt 3713 1147 L
3713 1105 mt 3671 1147 L
3237 1106 mt 3279 1148 L
3279 1106 mt 3237 1148 L
2803 1105 mt 2845 1147 L
2845 1105 mt 2803 1147 L
2369 1106 mt 2411 1148 L
2411 1106 mt 2369 1148 L
1935 1107 mt 1977 1149 L
1977 1107 mt 1935 1149 L
1501 1106 mt 1543 1148 L
1543 1106 mt 1501 1148 L
1067 1105 mt 1109 1147 L
1109 1105 mt 1067 1147 L
 633 1101 mt  675 1143 L
 675 1101 mt  633 1143 L
DO
gr

gs 654 338 3907 1236 rc
SO
6 w
-426 -446 -434 -108 -434 -284 -434 -21 -434 2 -434 -1 -434 -1 -434 2 
-434 -2 4560 1197 10 MP stroke
gr

6 w
SO
gs 613 289 3997 958 rc
  24   24 4560 1197 FO
  24   24 4126 1195 FO
  24   24 3692 1197 FO
  24   24 3258 1196 FO
  24   24 2824 1195 FO
  24   24 2390 1197 FO
  24   24 1956 1176 FO
  24   24 1522  892 FO
  24   24 1088  784 FO
gr

gs 654 338 3907 1236 rc
0 sg
-265 -200 -434 -431 -434 -80 -434 6 -434 -41 -434 -57 -434 -43 -434 -15 
4560 1199 9 MP stroke
DO
14.4 w
/c9 { 0.000000 0.000000 1.000000 sr} bdef
c9
-17 -451 -434 -344 -434 -105 -434 11 -434 -111 -434 42 -434 31 -434 -72 
4560 1337 9 MP stroke
SO
6 w
/c10 { 0.000000 0.500000 0.500000 sr} bdef
c10
-9 -443 -434 -119 -434 -95 -434 -425 -434 -46 -434 -21 -434 -11 -434 38 
-434 -11 4560 1471 10 MP stroke
gr

c10
gs 1018 277 3604 1283 rc
4530 1471 mt 4590 1471 L
4560 1441 mt 4560 1501 L
4096 1460 mt 4156 1460 L
4126 1430 mt 4126 1490 L
3662 1498 mt 3722 1498 L
3692 1468 mt 3692 1528 L
3228 1487 mt 3288 1487 L
3258 1457 mt 3258 1517 L
2794 1466 mt 2854 1466 L
2824 1436 mt 2824 1496 L
2360 1420 mt 2420 1420 L
2390 1390 mt 2390 1450 L
1926  995 mt 1986  995 L
1956  965 mt 1956 1025 L
1492  900 mt 1552  900 L
1522  870 mt 1522  930 L
1058  781 mt 1118  781 L
1088  751 mt 1088  811 L
4539 1450 mt 4581 1492 L
4581 1450 mt 4539 1492 L
4105 1439 mt 4147 1481 L
4147 1439 mt 4105 1481 L
3671 1477 mt 3713 1519 L
3713 1477 mt 3671 1519 L
3237 1466 mt 3279 1508 L
3279 1466 mt 3237 1508 L
2803 1445 mt 2845 1487 L
2845 1445 mt 2803 1487 L
2369 1399 mt 2411 1441 L
2411 1399 mt 2369 1441 L
1935  974 mt 1977 1016 L
1977  974 mt 1935 1016 L
1501  879 mt 1543  921 L
1543  879 mt 1501  921 L
1067  760 mt 1109  802 L
1109  760 mt 1067  802 L
gr

gs 654 338 3907 1236 rc
gr

0 sg
 405 1457 mt  -90 rotate
(Mean RMSE\(Watt\)) s
90 rotate
%%IncludeResource: font Helvetica
/Helvetica /WindowsLatin1Encoding 144 FMSR

1611  238 mt 
(\(a\) Learning curves on test set ) s
%%IncludeResource: font Helvetica
/Helvetica /WindowsLatin1Encoding 120 FMSR

 637 1616 mt 
( ) s
4544  380 mt 
( ) s
1 sg
0 792 908 0 0 -792 3603 929 4 MP
PP
-908 0 0 792 908 0 0 -792 3603 929 5 MP stroke
4 w
DO
SO
6 w
0 sg
3603  137 mt 4511  137 L
3603  929 mt 4511  929 L
4511  929 mt 4511  137 L
3603  929 mt 3603  137 L
3603  929 mt 4511  929 L
3603  929 mt 3603  137 L
3603  137 mt 4511  137 L
3603  929 mt 4511  929 L
4511  929 mt 4511  137 L
3603  929 mt 3603  137 L
%%IncludeResource: font Helvetica
/Helvetica /WindowsLatin1Encoding 96 FMSR

4076  267 mt 
(Linear) s
gs 3603 137 909 793 rc
DO
14.4 w
c8
363 0 3675 233 2 MP stroke
3857 233 PD
gs 3780 156 154 154 rc
SO
3836  212 mt 3878  254 L
3878  212 mt 3836  254 L
DO
gr

gr

14.4 w
c8
DO
0 sg
4076  417 mt 
(M-Linear) s
gs 3603 137 909 793 rc
SO
6 w
c8
363 0 3675 383 2 MP stroke
gs 3808 334 99 99 rc
  24   24 3857  383 FO
gr

gr

6 w
c8
SO
0 sg
4076  568 mt 
(ANN) s
gs 3603 137 909 793 rc
363 0 3675 533 2 MP stroke
gr

4076  718 mt 
(GMDH) s
gs 3603 137 909 793 rc
DO
14.4 w
c9
363 0 3675 683 2 MP stroke
3857 683 PD
gr

14.4 w
c9
DO
0 sg
4076  868 mt 
(GMM) s
gs 3603 137 909 793 rc
SO
6 w
c10
363 0 3675 833 2 MP stroke
gs 3796 772 123 123 rc
3827  833 mt 3887  833 L
3857  803 mt 3857  863 L
3836  812 mt 3878  854 L
3878  812 mt 3836  854 L
gr

gr

6 w
c10
SO
1 sg
0 1235 3906 0 0 -1235 654 3364 4 MP
PP
-3906 0 0 1235 3906 0 0 -1235 654 3364 5 MP stroke
4 w
DO
SO
6 w
0 sg
 654 2129 mt 4560 2129 L
 654 3364 mt 4560 3364 L
4560 3364 mt 4560 2129 L
 654 3364 mt  654 2129 L
 654 3364 mt 4560 3364 L
 654 3364 mt  654 2129 L
 654 3364 mt  654 3324 L
 654 2129 mt  654 2168 L
%%IncludeResource: font Helvetica
/Helvetica /WindowsLatin1Encoding 120 FMSR

 571 3509 mt 
(0.1) s
1088 3364 mt 1088 3324 L
1088 2129 mt 1088 2168 L
1005 3509 mt 
(0.2) s
1522 3364 mt 1522 3324 L
1522 2129 mt 1522 2168 L
1439 3509 mt 
(0.3) s
1956 3364 mt 1956 3324 L
1956 2129 mt 1956 2168 L
1873 3509 mt 
(0.4) s
2390 3364 mt 2390 3324 L
2390 2129 mt 2390 2168 L
2307 3509 mt 
(0.5) s
2824 3364 mt 2824 3324 L
2824 2129 mt 2824 2168 L
2741 3509 mt 
(0.6) s
3258 3364 mt 3258 3324 L
3258 2129 mt 3258 2168 L
3175 3509 mt 
(0.7) s
3692 3364 mt 3692 3324 L
3692 2129 mt 3692 2168 L
3609 3509 mt 
(0.8) s
4126 3364 mt 4126 3324 L
4126 2129 mt 4126 2168 L
4043 3509 mt 
(0.9) s
4560 3364 mt 4560 3324 L
4560 2129 mt 4560 2168 L
4527 3509 mt 
(1) s
 654 3364 mt  694 3364 L
4560 3364 mt 4520 3364 L
 554 3408 mt 
(0) s
 654 2746 mt  694 2746 L
4560 2746 mt 4520 2746 L
 554 2790 mt 
(5) s
 654 2129 mt  694 2129 L
4560 2129 mt 4520 2129 L
 487 2173 mt 
(10) s
 654 2129 mt 4560 2129 L
 654 3364 mt 4560 3364 L
4560 3364 mt 4560 2129 L
 654 3364 mt  654 2129 L
gs 654 2129 3907 1236 rc
DO
14.4 w
c8
-434 8 -434 13 -434 18 -434 1 -434 3 -434 10 -434 0 -434 1 
-434 25 4560 2156 10 MP stroke
gr

14.4 w
c8
DO
gs 578 2079 4059 233 rc
SO
4539 2135 mt 4581 2177 L
4581 2135 mt 4539 2177 L
4105 2160 mt 4147 2202 L
4147 2160 mt 4105 2202 L
3671 2161 mt 3713 2203 L
3713 2161 mt 3671 2203 L
3237 2161 mt 3279 2203 L
3279 2161 mt 3237 2203 L
2803 2171 mt 2845 2213 L
2845 2171 mt 2803 2213 L
2369 2174 mt 2411 2216 L
2411 2174 mt 2369 2216 L
1935 2175 mt 1977 2217 L
1977 2175 mt 1935 2217 L
1501 2193 mt 1543 2235 L
1543 2193 mt 1501 2235 L
1067 2206 mt 1109 2248 L
1109 2206 mt 1067 2248 L
 633 2214 mt  675 2256 L
 675 2214 mt  633 2256 L
DO
gr

gs 654 2129 3907 1236 rc
SO
6 w
-434 19 -434 10 -434 3 -434 17 -434 25 -434 18 -434 6 -434 1 
-434 52 4560 2268 10 MP stroke
gr

6 w
SO
gs 605 2219 4005 250 rc
  24   24 4560 2268 FO
  24   24 4126 2320 FO
  24   24 3692 2321 FO
  24   24 3258 2327 FO
  24   24 2824 2345 FO
  24   24 2390 2370 FO
  24   24 1956 2387 FO
  24   24 1522 2390 FO
  24   24 1088 2400 FO
  24   24  654 2419 FO
gr

gs 654 2129 3907 1236 rc
0 sg
-434 22 -434 27 -434 18 -434 17 -434 17 -434 27 -434 0 -434 -3 
-434 55 4560 2284 10 MP stroke
DO
14.4 w
c9
-434 21 -434 16 -434 12 -434 5 -434 16 -434 15 -434 18 -434 -6 
-434 39 4560 2548 10 MP stroke
SO
6 w
c10
-434 32 -434 8 -434 -1 -434 23 -434 -25 -434 22 -434 -25 -434 6 
-434 31 4560 2782 10 MP stroke
gr

c10
gs 593 2721 4029 194 rc
4530 2782 mt 4590 2782 L
4560 2752 mt 4560 2812 L
4096 2813 mt 4156 2813 L
4126 2783 mt 4126 2843 L
3662 2819 mt 3722 2819 L
3692 2789 mt 3692 2849 L
3228 2794 mt 3288 2794 L
3258 2764 mt 3258 2824 L
2794 2816 mt 2854 2816 L
2824 2786 mt 2824 2846 L
2360 2791 mt 2420 2791 L
2390 2761 mt 2390 2821 L
1926 2814 mt 1986 2814 L
1956 2784 mt 1956 2844 L
1492 2813 mt 1552 2813 L
1522 2783 mt 1522 2843 L
1058 2821 mt 1118 2821 L
1088 2791 mt 1088 2851 L
 624 2853 mt  684 2853 L
 654 2823 mt  654 2883 L
4539 2761 mt 4581 2803 L
4581 2761 mt 4539 2803 L
4105 2792 mt 4147 2834 L
4147 2792 mt 4105 2834 L
3671 2798 mt 3713 2840 L
3713 2798 mt 3671 2840 L
3237 2773 mt 3279 2815 L
3279 2773 mt 3237 2815 L
2803 2795 mt 2845 2837 L
2845 2795 mt 2803 2837 L
2369 2770 mt 2411 2812 L
2411 2770 mt 2369 2812 L
1935 2793 mt 1977 2835 L
1977 2793 mt 1935 2835 L
1501 2792 mt 1543 2834 L
1543 2792 mt 1501 2834 L
1067 2800 mt 1109 2842 L
1109 2800 mt 1067 2842 L
 633 2832 mt  675 2874 L
 675 2832 mt  633 2874 L
gr

gs 654 2129 3907 1236 rc
gr

0 sg
 405 3248 mt  -90 rotate
(Mean RMSE\(Watt\)) s
90 rotate
1899 3652 mt 
(Ratio of overall training set) s
%%IncludeResource: font Helvetica
/Helvetica /WindowsLatin1Encoding 144 FMSR

1512 2029 mt 
(\(b\) Learning curves on training set) s

end %%Color Dict

eplot
%%EndObject

epage
end

showpage

%%Trailer
%%EOF
