%!PS-Adobe-3.0 EPSF-3.0
%%Creator: MATLAB, The MathWorks, Inc. Version 8.0.0.783 (R2012b). Operating System: Microsoft Windows XP.
%%Title: C:\Documents and Settings\Administrator\My Documents\mseplot\randomsize\randon_migrate.eps
%%CreationDate: 04/14/2014  22:22:49
%%DocumentNeededFonts: Helvetica
%%DocumentProcessColors: Cyan Magenta Yellow Black
%%LanguageLevel: 2
%%Pages: 1
%%BoundingBox:    96   238   515   553
%%EndComments

%%BeginProlog
% MathWorks dictionary
/MathWorks 160 dict begin
% definition operators
/bdef {bind def} bind def
/ldef {load def} bind def
/xdef {exch def} bdef
/xstore {exch store} bdef
% operator abbreviations
/c  /clip ldef
/cc /concat ldef
/cp /closepath ldef
/gr /grestore ldef
/gs /gsave ldef
/mt /moveto ldef
/np /newpath ldef
/cm /currentmatrix ldef
/sm /setmatrix ldef
/rm /rmoveto ldef
/rl /rlineto ldef
/s {show newpath} bdef
/sc {setcmykcolor} bdef
/sr /setrgbcolor ldef
/sg /setgray ldef
/w /setlinewidth ldef
/j /setlinejoin ldef
/cap /setlinecap ldef
/rc {rectclip} bdef
/rf {rectfill} bdef
% page state control
/pgsv () def
/bpage {/pgsv save def} bdef
/epage {pgsv restore} bdef
/bplot /gsave ldef
/eplot {stroke grestore} bdef
% orientation switch
/portraitMode 0 def /landscapeMode 1 def /rotateMode 2 def
% coordinate system mappings
/dpi2point 0 def
% font control
/FontSize 0 def
/FMS {/FontSize xstore findfont [FontSize 0 0 FontSize neg 0 0]
  makefont setfont} bdef
/ISOLatin1Encoding where {pop /WindowsLatin1Encoding 256 array bdef
ISOLatin1Encoding WindowsLatin1Encoding copy pop
/.notdef/.notdef/quotesinglbase/florin/quotedblbase/ellipsis/dagger
/daggerdbl/circumflex/perthousand/Scaron/guilsinglleft/OE/.notdef/.notdef
/.notdef/.notdef/quoteleft/quoteright/quotedblleft/quotedblright/bullet
/endash/emdash/tilde/trademark/scaron/guilsinglright/oe/.notdef/.notdef
/Ydieresis WindowsLatin1Encoding 128 32 getinterval astore pop}
{/WindowsLatin1Encoding StandardEncoding bdef} ifelse
/reencode {exch dup where {pop load} {pop StandardEncoding} ifelse
  exch dup 3 1 roll findfont dup length dict begin
  { 1 index /FID ne {def}{pop pop} ifelse } forall
  /Encoding exch def currentdict end definefont pop} bdef
/isroman {findfont /CharStrings get /Agrave known} bdef
/FMSR {3 1 roll 1 index dup isroman {reencode} {pop pop} ifelse
  exch FMS} bdef
/csm {1 dpi2point div -1 dpi2point div scale neg translate
 dup landscapeMode eq {pop -90 rotate}
  {rotateMode eq {90 rotate} if} ifelse} bdef
% line types: solid, dotted, dashed, dotdash
/SO { [] 0 setdash } bdef
/DO { [.5 dpi2point mul 4 dpi2point mul] 0 setdash } bdef
/DA { [6 dpi2point mul] 0 setdash } bdef
/DD { [.5 dpi2point mul 4 dpi2point mul 6 dpi2point mul 4
  dpi2point mul] 0 setdash } bdef
% macros for lines and objects
/L {lineto stroke} bdef
/MP {3 1 roll moveto 1 sub {rlineto} repeat} bdef
/AP {{rlineto} repeat} bdef
/PDlw -1 def
/W {/PDlw currentlinewidth def setlinewidth} def
/PP {closepath eofill} bdef
/DP {closepath stroke} bdef
/MR {4 -2 roll moveto dup  0 exch rlineto exch 0 rlineto
  neg 0 exch rlineto closepath} bdef
/FR {MR stroke} bdef
/PR {MR fill} bdef
/L1i {{currentfile picstr readhexstring pop} image} bdef
/tMatrix matrix def
/MakeOval {newpath tMatrix currentmatrix pop translate scale
0 0 1 0 360 arc tMatrix setmatrix} bdef
/FO {MakeOval stroke} bdef
/PO {MakeOval fill} bdef
/PD {currentlinewidth 2 div 0 360 arc fill
   PDlw -1 eq not {PDlw w /PDlw -1 def} if} def
/FA {newpath tMatrix currentmatrix pop translate scale
  0 0 1 5 -2 roll arc tMatrix setmatrix stroke} bdef
/PA {newpath tMatrix currentmatrix pop	translate 0 0 moveto scale
  0 0 1 5 -2 roll arc closepath tMatrix setmatrix fill} bdef
/FAn {newpath tMatrix currentmatrix pop translate scale
  0 0 1 5 -2 roll arcn tMatrix setmatrix stroke} bdef
/PAn {newpath tMatrix currentmatrix pop translate 0 0 moveto scale
  0 0 1 5 -2 roll arcn closepath tMatrix setmatrix fill} bdef
/vradius 0 def /hradius 0 def /lry 0 def
/lrx 0 def /uly 0 def /ulx 0 def /rad 0 def
/MRR {/vradius xdef /hradius xdef /lry xdef /lrx xdef /uly xdef
  /ulx xdef newpath tMatrix currentmatrix pop ulx hradius add uly
  vradius add translate hradius vradius scale 0 0 1 180 270 arc 
  tMatrix setmatrix lrx hradius sub uly vradius add translate
  hradius vradius scale 0 0 1 270 360 arc tMatrix setmatrix
  lrx hradius sub lry vradius sub translate hradius vradius scale
  0 0 1 0 90 arc tMatrix setmatrix ulx hradius add lry vradius sub
  translate hradius vradius scale 0 0 1 90 180 arc tMatrix setmatrix
  closepath} bdef
/FRR {MRR stroke } bdef
/PRR {MRR fill } bdef
/MlrRR {/lry xdef /lrx xdef /uly xdef /ulx xdef /rad lry uly sub 2 div def
  newpath tMatrix currentmatrix pop ulx rad add uly rad add translate
  rad rad scale 0 0 1 90 270 arc tMatrix setmatrix lrx rad sub lry rad
  sub translate rad rad scale 0 0 1 270 90 arc tMatrix setmatrix
  closepath} bdef
/FlrRR {MlrRR stroke } bdef
/PlrRR {MlrRR fill } bdef
/MtbRR {/lry xdef /lrx xdef /uly xdef /ulx xdef /rad lrx ulx sub 2 div def
  newpath tMatrix currentmatrix pop ulx rad add uly rad add translate
  rad rad scale 0 0 1 180 360 arc tMatrix setmatrix lrx rad sub lry rad
  sub translate rad rad scale 0 0 1 0 180 arc tMatrix setmatrix
  closepath} bdef
/FtbRR {MtbRR stroke } bdef
/PtbRR {MtbRR fill } bdef
/stri 6 array def /dtri 6 array def
/smat 6 array def /dmat 6 array def
/tmat1 6 array def /tmat2 6 array def /dif 3 array def
/asub {/ind2 exch def /ind1 exch def dup dup
  ind1 get exch ind2 get sub exch } bdef
/tri_to_matrix {
  2 0 asub 3 1 asub 4 0 asub 5 1 asub
  dup 0 get exch 1 get 7 -1 roll astore } bdef
/compute_transform {
  dmat dtri tri_to_matrix tmat1 invertmatrix 
  smat stri tri_to_matrix tmat2 concatmatrix } bdef
/ds {stri astore pop} bdef
/dt {dtri astore pop} bdef
/db {2 copy /cols xdef /rows xdef mul dup 3 mul string
  currentfile 
  3 index 0 eq {/ASCIIHexDecode filter}
  {/ASCII85Decode filter 3 index 2 eq {/RunLengthDecode filter} if }
  ifelse exch readstring pop
  dup 0 3 index getinterval /rbmap xdef
  dup 2 index dup getinterval /gbmap xdef
  1 index dup 2 mul exch getinterval /bbmap xdef pop pop}bdef
/it {gs np dtri aload pop moveto lineto lineto cp c
  cols rows 8 compute_transform 
  rbmap gbmap bbmap true 3 colorimage gr}bdef
/il {newpath moveto lineto stroke}bdef
currentdict end def
%%EndProlog

%%BeginSetup
MathWorks begin

0 cap

end
%%EndSetup

%%Page: 1 1
%%BeginPageSetup
%%PageBoundingBox:    96   238   515   553
MathWorks begin
bpage
%%EndPageSetup

%%BeginObject: obj1
bplot

/dpi2point 12 def
portraitMode 1152 6636 csm

    0     0  5039  3780 rc
85 dict begin %Colortable dictionary
/c0 { 0.000000 0.000000 0.000000 sr} bdef
/c1 { 1.000000 1.000000 1.000000 sr} bdef
/c2 { 0.900000 0.000000 0.000000 sr} bdef
/c3 { 0.000000 0.820000 0.000000 sr} bdef
/c4 { 0.000000 0.000000 0.800000 sr} bdef
/c5 { 0.910000 0.820000 0.320000 sr} bdef
/c6 { 1.000000 0.260000 0.820000 sr} bdef
/c7 { 0.000000 0.820000 0.820000 sr} bdef
c0
1 j
1 sg
   0    0 5040 3781 rf
6 w
0 3080 1686 0 0 -3080 2874 3364 4 MP
PP
-1686 0 0 3080 1686 0 0 -3080 2874 3364 5 MP stroke
4 w
DO
SO
6 w
0 sg
2874  284 mt 4560  284 L
2874 3364 mt 4560 3364 L
4560 3364 mt 4560  284 L
2874 3364 mt 2874  284 L
2874 3364 mt 4560 3364 L
2874 3364 mt 2874  284 L
3295 3364 mt 3295 3333 L
3295  284 mt 3295  314 L
%%IncludeResource: font Helvetica
/Helvetica /WindowsLatin1Encoding 120 FMSR

3175 3509 mt 
(Best) s
4138 3364 mt 4138 3333 L
4138  284 mt 4138  314 L
3984 3509 mt 
(Worst) s
2874 3364 mt 2904 3364 L
4560 3364 mt 4529 3364 L
2773 3408 mt 
(0) s
2874 2979 mt 2904 2979 L
4560 2979 mt 4529 2979 L
2673 3023 mt 
(0.1) s
2874 2594 mt 2904 2594 L
4560 2594 mt 4529 2594 L
2673 2638 mt 
(0.2) s
2874 2209 mt 2904 2209 L
4560 2209 mt 4529 2209 L
2673 2253 mt 
(0.3) s
2874 1824 mt 2904 1824 L
4560 1824 mt 4529 1824 L
2673 1868 mt 
(0.4) s
2874 1439 mt 2904 1439 L
4560 1439 mt 4529 1439 L
2673 1483 mt 
(0.5) s
2874 1053 mt 2904 1053 L
4560 1053 mt 4529 1053 L
2673 1097 mt 
(0.6) s
2874  669 mt 2904  669 L
4560  669 mt 4529  669 L
2673  713 mt 
(0.7) s
2874  284 mt 2904  284 L
4560  284 mt 4529  284 L
2673  328 mt 
(0.8) s
2874  284 mt 4560  284 L
2874 3364 mt 4560 3364 L
4560 3364 mt 4560  284 L
2874 3364 mt 2874  284 L
gs 2874 284 1687 3081 rc
/c8 { 0.000000 0.000000 0.562500 sr} bdef
c8
0 237 103 0 0 -237 2984 3364 4 MP
PP
0 sg
-103 0 0 237 103 0 0 -237 2984 3364 5 MP stroke
c8
0 251 103 0 0 -251 3827 3364 4 MP
PP
0 sg
-103 0 0 251 103 0 0 -251 3827 3364 5 MP stroke
1686 0 2874 3364 2 MP stroke
/c9 { 0.000000 0.562500 1.000000 sr} bdef
c9
0 369 104 0 0 -369 3113 3364 4 MP
PP
0 sg
-104 0 0 369 104 0 0 -369 3113 3364 5 MP stroke
c9
0 995 104 0 0 -995 3956 3364 4 MP
PP
0 sg
-104 0 0 995 104 0 0 -995 3956 3364 5 MP stroke
/c10 { 0.562500 1.000000 0.437500 sr} bdef
c10
0 916 104 0 0 -916 3243 3364 4 MP
PP
0 sg
-104 0 0 916 104 0 0 -916 3243 3364 5 MP stroke
c10
0 1344 104 0 0 -1344 4086 3364 4 MP
PP
0 sg
-104 0 0 1344 104 0 0 -1344 4086 3364 5 MP stroke
/c11 { 1.000000 0.437500 0.000000 sr} bdef
c11
0 1262 104 0 0 -1262 3373 3364 4 MP
PP
0 sg
-104 0 0 1262 104 0 0 -1262 3373 3364 5 MP stroke
c11
0 1775 104 0 0 -1775 4216 3364 4 MP
PP
0 sg
-104 0 0 1775 104 0 0 -1775 4216 3364 5 MP stroke
/c12 { 0.500000 0.000000 0.000000 sr} bdef
c12
0 16 103 0 0 -16 3503 3364 4 MP
PP
0 sg
-103 0 0 16 103 0 0 -16 3503 3364 5 MP stroke
c12
0 810 103 0 0 -810 4346 3364 4 MP
PP
0 sg
-103 0 0 810 103 0 0 -810 4346 3364 5 MP stroke
gr

3153  189 mt 
(\(b\) Nodes with GPUs) s
2591 2048 mt  -90 rotate
(Fit Ratio) s
90 rotate
1 sg
0 3080 1686 0 0 -3080 655 3364 4 MP
PP
-1686 0 0 3080 1686 0 0 -3080 655 3364 5 MP stroke
4 w
DO
SO
6 w
0 sg
 655  284 mt 2341  284 L
 655 3364 mt 2341 3364 L
2341 3364 mt 2341  284 L
 655 3364 mt  655  284 L
 655 3364 mt 2341 3364 L
 655 3364 mt  655  284 L
1076 3364 mt 1076 3333 L
1076  284 mt 1076  314 L
 956 3509 mt 
(Best) s
1919 3364 mt 1919 3333 L
1919  284 mt 1919  314 L
1765 3509 mt 
(Worst) s
 655 3364 mt  685 3364 L
2341 3364 mt 2310 3364 L
 554 3408 mt 
(0) s
 655 2979 mt  685 2979 L
2341 2979 mt 2310 2979 L
 454 3023 mt 
(0.1) s
 655 2594 mt  685 2594 L
2341 2594 mt 2310 2594 L
 454 2638 mt 
(0.2) s
 655 2209 mt  685 2209 L
2341 2209 mt 2310 2209 L
 454 2253 mt 
(0.3) s
 655 1824 mt  685 1824 L
2341 1824 mt 2310 1824 L
 454 1868 mt 
(0.4) s
 655 1439 mt  685 1439 L
2341 1439 mt 2310 1439 L
 454 1483 mt 
(0.5) s
 655 1053 mt  685 1053 L
2341 1053 mt 2310 1053 L
 454 1097 mt 
(0.6) s
 655  669 mt  685  669 L
2341  669 mt 2310  669 L
 454  713 mt 
(0.7) s
 655  284 mt  685  284 L
2341  284 mt 2310  284 L
 454  328 mt 
(0.8) s
 655  284 mt 2341  284 L
 655 3364 mt 2341 3364 L
2341 3364 mt 2341  284 L
 655 3364 mt  655  284 L
gs 655 284 1687 3081 rc
c8
0 421 103 0 0 -421 765 3364 4 MP
PP
0 sg
-103 0 0 421 103 0 0 -421 765 3364 5 MP stroke
c8
0 2503 103 0 0 -2503 1608 3364 4 MP
PP
0 sg
-103 0 0 2503 103 0 0 -2503 1608 3364 5 MP stroke
1686 0 655 3364 2 MP stroke
c9
0 243 104 0 0 -243 894 3364 4 MP
PP
0 sg
-104 0 0 243 104 0 0 -243 894 3364 5 MP stroke
c9
0 1086 104 0 0 -1086 1737 3364 4 MP
PP
0 sg
-104 0 0 1086 104 0 0 -1086 1737 3364 5 MP stroke
c10
0 493 104 0 0 -493 1024 3364 4 MP
PP
0 sg
-104 0 0 493 104 0 0 -493 1024 3364 5 MP stroke
c10
0 948 104 0 0 -948 1867 3364 4 MP
PP
0 sg
-104 0 0 948 104 0 0 -948 1867 3364 5 MP stroke
c11
0 806 104 0 0 -806 1154 3364 4 MP
PP
0 sg
-104 0 0 806 104 0 0 -806 1154 3364 5 MP stroke
c11
0 1942 104 0 0 -1942 1997 3364 4 MP
PP
0 sg
-104 0 0 1942 104 0 0 -1942 1997 3364 5 MP stroke
c12
0 40 103 0 0 -40 1284 3364 4 MP
PP
0 sg
-103 0 0 40 103 0 0 -40 1284 3364 5 MP stroke
c12
0 1105 103 0 0 -1105 2127 3364 4 MP
PP
0 sg
-103 0 0 1105 103 0 0 -1105 2127 3364 5 MP stroke
gr

 372 2048 mt  -90 rotate
(Fit Ratio) s
90 rotate
1007  189 mt 
(\(a\) Hadoop Nodes) s
 638 3407 mt 
( ) s
2325  326 mt 
( ) s
1 sg
0 612 808 0 0 -612 3032 1005 4 MP
PP
-808 0 0 612 808 0 0 -612 3032 1005 5 MP stroke
4 w
DO
SO
6 w
0 sg
3032  393 mt 3840  393 L
3032 1005 mt 3840 1005 L
3840 1005 mt 3840  393 L
3032 1005 mt 3032  393 L
3032 1005 mt 3840 1005 L
3032 1005 mt 3032  393 L
3032  393 mt 3840  393 L
3032 1005 mt 3840 1005 L
3840 1005 mt 3840  393 L
3032 1005 mt 3032  393 L
%%IncludeResource: font Helvetica
/Helvetica /WindowsLatin1Encoding 72 FMSR

3505  497 mt 
(Linear) s
gs 3032 393 809 613 rc
c8
-363 0 0 81 363 0 0 -81 3104 511 5 MP
PP
0 sg
0 0 -363 0 0 81 363 0 0 -81 3104 511 6 MP stroke
gr

3505  611 mt 
(M-Linear) s
gs 3032 393 809 613 rc
c9
-363 0 0 81 363 0 0 -81 3104 625 5 MP
PP
0 sg
0 0 -363 0 0 81 363 0 0 -81 3104 625 6 MP stroke
gr

3505  726 mt 
(ANN) s
gs 3032 393 809 613 rc
c10
-363 0 0 81 363 0 0 -81 3104 739 5 MP
PP
0 sg
0 0 -363 0 0 81 363 0 0 -81 3104 739 6 MP stroke
gr

3505  840 mt 
(GMDH) s
gs 3032 393 809 613 rc
c11
-363 0 0 81 363 0 0 -81 3104 853 5 MP
PP
0 sg
0 0 -363 0 0 81 363 0 0 -81 3104 853 6 MP stroke
gr

3505  954 mt 
(GMM) s
gs 3032 393 809 613 rc
c12
-363 0 0 81 363 0 0 -81 3104 967 5 MP
PP
0 sg
0 0 -363 0 0 81 363 0 0 -81 3104 967 6 MP stroke
gr


end %%Color Dict

eplot
%%EndObject

epage
end

showpage

%%Trailer
%%EOF
