%!PS-Adobe-3.0 EPSF-3.0
%%Creator: MATLAB, The MathWorks, Inc. Version 8.0.0.783 (R2012b). Operating System: Microsoft Windows XP.
%%Title: C:\Documents and Settings\Administrator\My Documents\mseplot\randomsize\sr_bar_4subplot.eps
%%CreationDate: 04/14/2014  22:31:12
%%DocumentNeededFonts: Helvetica
%%DocumentProcessColors: Cyan Magenta Yellow Black
%%LanguageLevel: 2
%%Pages: 1
%%BoundingBox:    96   238   515   553
%%EndComments

%%BeginProlog
% MathWorks dictionary
/MathWorks 160 dict begin
% definition operators
/bdef {bind def} bind def
/ldef {load def} bind def
/xdef {exch def} bdef
/xstore {exch store} bdef
% operator abbreviations
/c  /clip ldef
/cc /concat ldef
/cp /closepath ldef
/gr /grestore ldef
/gs /gsave ldef
/mt /moveto ldef
/np /newpath ldef
/cm /currentmatrix ldef
/sm /setmatrix ldef
/rm /rmoveto ldef
/rl /rlineto ldef
/s {show newpath} bdef
/sc {setcmykcolor} bdef
/sr /setrgbcolor ldef
/sg /setgray ldef
/w /setlinewidth ldef
/j /setlinejoin ldef
/cap /setlinecap ldef
/rc {rectclip} bdef
/rf {rectfill} bdef
% page state control
/pgsv () def
/bpage {/pgsv save def} bdef
/epage {pgsv restore} bdef
/bplot /gsave ldef
/eplot {stroke grestore} bdef
% orientation switch
/portraitMode 0 def /landscapeMode 1 def /rotateMode 2 def
% coordinate system mappings
/dpi2point 0 def
% font control
/FontSize 0 def
/FMS {/FontSize xstore findfont [FontSize 0 0 FontSize neg 0 0]
  makefont setfont} bdef
/ISOLatin1Encoding where {pop /WindowsLatin1Encoding 256 array bdef
ISOLatin1Encoding WindowsLatin1Encoding copy pop
/.notdef/.notdef/quotesinglbase/florin/quotedblbase/ellipsis/dagger
/daggerdbl/circumflex/perthousand/Scaron/guilsinglleft/OE/.notdef/.notdef
/.notdef/.notdef/quoteleft/quoteright/quotedblleft/quotedblright/bullet
/endash/emdash/tilde/trademark/scaron/guilsinglright/oe/.notdef/.notdef
/Ydieresis WindowsLatin1Encoding 128 32 getinterval astore pop}
{/WindowsLatin1Encoding StandardEncoding bdef} ifelse
/reencode {exch dup where {pop load} {pop StandardEncoding} ifelse
  exch dup 3 1 roll findfont dup length dict begin
  { 1 index /FID ne {def}{pop pop} ifelse } forall
  /Encoding exch def currentdict end definefont pop} bdef
/isroman {findfont /CharStrings get /Agrave known} bdef
/FMSR {3 1 roll 1 index dup isroman {reencode} {pop pop} ifelse
  exch FMS} bdef
/csm {1 dpi2point div -1 dpi2point div scale neg translate
 dup landscapeMode eq {pop -90 rotate}
  {rotateMode eq {90 rotate} if} ifelse} bdef
% line types: solid, dotted, dashed, dotdash
/SO { [] 0 setdash } bdef
/DO { [.5 dpi2point mul 4 dpi2point mul] 0 setdash } bdef
/DA { [6 dpi2point mul] 0 setdash } bdef
/DD { [.5 dpi2point mul 4 dpi2point mul 6 dpi2point mul 4
  dpi2point mul] 0 setdash } bdef
% macros for lines and objects
/L {lineto stroke} bdef
/MP {3 1 roll moveto 1 sub {rlineto} repeat} bdef
/AP {{rlineto} repeat} bdef
/PDlw -1 def
/W {/PDlw currentlinewidth def setlinewidth} def
/PP {closepath eofill} bdef
/DP {closepath stroke} bdef
/MR {4 -2 roll moveto dup  0 exch rlineto exch 0 rlineto
  neg 0 exch rlineto closepath} bdef
/FR {MR stroke} bdef
/PR {MR fill} bdef
/L1i {{currentfile picstr readhexstring pop} image} bdef
/tMatrix matrix def
/MakeOval {newpath tMatrix currentmatrix pop translate scale
0 0 1 0 360 arc tMatrix setmatrix} bdef
/FO {MakeOval stroke} bdef
/PO {MakeOval fill} bdef
/PD {currentlinewidth 2 div 0 360 arc fill
   PDlw -1 eq not {PDlw w /PDlw -1 def} if} def
/FA {newpath tMatrix currentmatrix pop translate scale
  0 0 1 5 -2 roll arc tMatrix setmatrix stroke} bdef
/PA {newpath tMatrix currentmatrix pop	translate 0 0 moveto scale
  0 0 1 5 -2 roll arc closepath tMatrix setmatrix fill} bdef
/FAn {newpath tMatrix currentmatrix pop translate scale
  0 0 1 5 -2 roll arcn tMatrix setmatrix stroke} bdef
/PAn {newpath tMatrix currentmatrix pop translate 0 0 moveto scale
  0 0 1 5 -2 roll arcn closepath tMatrix setmatrix fill} bdef
/vradius 0 def /hradius 0 def /lry 0 def
/lrx 0 def /uly 0 def /ulx 0 def /rad 0 def
/MRR {/vradius xdef /hradius xdef /lry xdef /lrx xdef /uly xdef
  /ulx xdef newpath tMatrix currentmatrix pop ulx hradius add uly
  vradius add translate hradius vradius scale 0 0 1 180 270 arc 
  tMatrix setmatrix lrx hradius sub uly vradius add translate
  hradius vradius scale 0 0 1 270 360 arc tMatrix setmatrix
  lrx hradius sub lry vradius sub translate hradius vradius scale
  0 0 1 0 90 arc tMatrix setmatrix ulx hradius add lry vradius sub
  translate hradius vradius scale 0 0 1 90 180 arc tMatrix setmatrix
  closepath} bdef
/FRR {MRR stroke } bdef
/PRR {MRR fill } bdef
/MlrRR {/lry xdef /lrx xdef /uly xdef /ulx xdef /rad lry uly sub 2 div def
  newpath tMatrix currentmatrix pop ulx rad add uly rad add translate
  rad rad scale 0 0 1 90 270 arc tMatrix setmatrix lrx rad sub lry rad
  sub translate rad rad scale 0 0 1 270 90 arc tMatrix setmatrix
  closepath} bdef
/FlrRR {MlrRR stroke } bdef
/PlrRR {MlrRR fill } bdef
/MtbRR {/lry xdef /lrx xdef /uly xdef /ulx xdef /rad lrx ulx sub 2 div def
  newpath tMatrix currentmatrix pop ulx rad add uly rad add translate
  rad rad scale 0 0 1 180 360 arc tMatrix setmatrix lrx rad sub lry rad
  sub translate rad rad scale 0 0 1 0 180 arc tMatrix setmatrix
  closepath} bdef
/FtbRR {MtbRR stroke } bdef
/PtbRR {MtbRR fill } bdef
/stri 6 array def /dtri 6 array def
/smat 6 array def /dmat 6 array def
/tmat1 6 array def /tmat2 6 array def /dif 3 array def
/asub {/ind2 exch def /ind1 exch def dup dup
  ind1 get exch ind2 get sub exch } bdef
/tri_to_matrix {
  2 0 asub 3 1 asub 4 0 asub 5 1 asub
  dup 0 get exch 1 get 7 -1 roll astore } bdef
/compute_transform {
  dmat dtri tri_to_matrix tmat1 invertmatrix 
  smat stri tri_to_matrix tmat2 concatmatrix } bdef
/ds {stri astore pop} bdef
/dt {dtri astore pop} bdef
/db {2 copy /cols xdef /rows xdef mul dup 3 mul string
  currentfile 
  3 index 0 eq {/ASCIIHexDecode filter}
  {/ASCII85Decode filter 3 index 2 eq {/RunLengthDecode filter} if }
  ifelse exch readstring pop
  dup 0 3 index getinterval /rbmap xdef
  dup 2 index dup getinterval /gbmap xdef
  1 index dup 2 mul exch getinterval /bbmap xdef pop pop}bdef
/it {gs np dtri aload pop moveto lineto lineto cp c
  cols rows 8 compute_transform 
  rbmap gbmap bbmap true 3 colorimage gr}bdef
/il {newpath moveto lineto stroke}bdef
currentdict end def
%%EndProlog

%%BeginSetup
MathWorks begin

0 cap

end
%%EndSetup

%%Page: 1 1
%%BeginPageSetup
%%PageBoundingBox:    96   238   515   553
MathWorks begin
bpage
%%EndPageSetup

%%BeginObject: obj1
bplot

/dpi2point 12 def
portraitMode 1152 6636 csm

    0     0  5039  3780 rc
85 dict begin %Colortable dictionary
/c0 { 0.000000 0.000000 0.000000 sr} bdef
/c1 { 1.000000 1.000000 1.000000 sr} bdef
/c2 { 0.900000 0.000000 0.000000 sr} bdef
/c3 { 0.000000 0.820000 0.000000 sr} bdef
/c4 { 0.000000 0.000000 0.800000 sr} bdef
/c5 { 0.910000 0.820000 0.320000 sr} bdef
/c6 { 1.000000 0.260000 0.820000 sr} bdef
/c7 { 0.000000 0.820000 0.820000 sr} bdef
c0
1 j
1 sg
   0    0 5040 3781 rf
9 w
0 1235 1686 0 0 -1235 655 1573 4 MP
PP
-1686 0 0 1235 1686 0 0 -1235 655 1573 5 MP stroke
6 w
DO
SO
9 w
0 sg
 655  338 mt 2341  338 L
 655 1573 mt 2341 1573 L
2341 1573 mt 2341  338 L
 655 1573 mt  655  338 L
 655 1573 mt 2341 1573 L
 655 1573 mt  655  338 L
1076 1573 mt 1076 1556 L
1076  338 mt 1076  354 L
%%IncludeResource: font Helvetica
/Helvetica /WindowsLatin1Encoding 120 FMSR

 916 1718 mt 
(Writer) s
1919 1573 mt 1919 1556 L
1919  338 mt 1919  354 L
1807 1718 mt 
(Sort) s
 655 1573 mt  671 1573 L
2341 1573 mt 2324 1573 L
 554 1617 mt 
(0) s
 655 1326 mt  671 1326 L
2341 1326 mt 2324 1326 L
 454 1370 mt 
(0.2) s
 655 1079 mt  671 1079 L
2341 1079 mt 2324 1079 L
 454 1123 mt 
(0.4) s
 655  832 mt  671  832 L
2341  832 mt 2324  832 L
 454  876 mt 
(0.6) s
 655  585 mt  671  585 L
2341  585 mt 2324  585 L
 454  629 mt 
(0.8) s
 655  338 mt  671  338 L
2341  338 mt 2324  338 L
 554  382 mt 
(1) s
 655  338 mt 2341  338 L
 655 1573 mt 2341 1573 L
2341 1573 mt 2341  338 L
 655 1573 mt  655  338 L
gs 655 338 1687 1236 rc
/c8 { 0.000000 0.000000 0.562500 sr} bdef
c8
0 26 103 0 0 -26 765 1573 4 MP
PP
6 w
0 sg
-103 0 0 26 103 0 0 -26 765 1573 5 MP stroke
c8
0 9 103 0 0 -9 1608 1573 4 MP
PP
0 sg
-103 0 0 9 103 0 0 -9 1608 1573 5 MP stroke
1686 0 655 1573 2 MP stroke
/c9 { 0.000000 0.562500 1.000000 sr} bdef
c9
0 138 104 0 0 -138 894 1573 4 MP
PP
0 sg
-104 0 0 138 104 0 0 -138 894 1573 5 MP stroke
c9
0 6 104 0 0 -6 1737 1573 4 MP
PP
0 sg
-104 0 0 6 104 0 0 -6 1737 1573 5 MP stroke
/c10 { 0.562500 1.000000 0.437500 sr} bdef
c10
0 185 104 0 0 -185 1024 1573 4 MP
PP
0 sg
-104 0 0 185 104 0 0 -185 1024 1573 5 MP stroke
c10
0 4 104 0 0 -4 1867 1573 4 MP
PP
0 sg
-104 0 0 4 104 0 0 -4 1867 1573 5 MP stroke
/c11 { 1.000000 0.437500 0.000000 sr} bdef
c11
0 369 104 0 0 -369 1154 1573 4 MP
PP
0 sg
-104 0 0 369 104 0 0 -369 1154 1573 5 MP stroke
c11
0 58 104 0 0 -58 1997 1573 4 MP
PP
0 sg
-104 0 0 58 104 0 0 -58 1997 1573 5 MP stroke
/c12 { 0.500000 0.000000 0.000000 sr} bdef
c12
0 444 103 0 0 -444 1284 1573 4 MP
PP
0 sg
-103 0 0 444 103 0 0 -444 1284 1573 5 MP stroke
c12
0 124 103 0 0 -124 2127 1573 4 MP
PP
0 sg
-103 0 0 124 103 0 0 -124 2127 1573 5 MP stroke
gr

6 w
%%IncludeResource: font Helvetica
/Helvetica /WindowsLatin1Encoding 144 FMSR

 530  238 mt 
(\(a\) delta=0.01, Hadoop Nodes) s
%%IncludeResource: font Helvetica
/Helvetica /WindowsLatin1Encoding 120 FMSR

 372 1339 mt  -90 rotate
(Success Ratio) s
90 rotate
 638 1616 mt 
( ) s
2325  380 mt 
( ) s
9 w
6 w
1 sg
0 792 908 0 0 -792 1520 1122 4 MP
PP
-908 0 0 792 908 0 0 -792 1520 1122 5 MP stroke
4 w
DO
SO
6 w
0 sg
1520  330 mt 2428  330 L
1520 1122 mt 2428 1122 L
2428 1122 mt 2428  330 L
1520 1122 mt 1520  330 L
1520 1122 mt 2428 1122 L
1520 1122 mt 1520  330 L
1520  330 mt 2428  330 L
1520 1122 mt 2428 1122 L
2428 1122 mt 2428  330 L
1520 1122 mt 1520  330 L
%%IncludeResource: font Helvetica
/Helvetica /WindowsLatin1Encoding 96 FMSR

1993  460 mt 
(Linear) s
gs 1520 330 909 793 rc
c8
-363 0 0 109 363 0 0 -109 1592 480 5 MP
PP
0 sg
0 0 -363 0 0 109 363 0 0 -109 1592 480 6 MP stroke
gr

1993  610 mt 
(M-Linear) s
gs 1520 330 909 793 rc
c9
-363 0 0 109 363 0 0 -109 1592 630 5 MP
PP
0 sg
0 0 -363 0 0 109 363 0 0 -109 1592 630 6 MP stroke
gr

1993  761 mt 
(ANN) s
gs 1520 330 909 793 rc
c10
-363 0 0 109 363 0 0 -109 1592 780 5 MP
PP
0 sg
0 0 -363 0 0 109 363 0 0 -109 1592 780 6 MP stroke
gr

1993  911 mt 
(GMDH) s
gs 1520 330 909 793 rc
c11
-363 0 0 109 363 0 0 -109 1592 930 5 MP
PP
0 sg
0 0 -363 0 0 109 363 0 0 -109 1592 930 6 MP stroke
gr

1993 1061 mt 
(GMM) s
gs 1520 330 909 793 rc
c12
-363 0 0 109 363 0 0 -109 1592 1080 5 MP
PP
0 sg
0 0 -363 0 0 109 363 0 0 -109 1592 1080 6 MP stroke
gr

9 w
1 sg
0 1235 1686 0 0 -1235 2874 1573 4 MP
PP
-1686 0 0 1235 1686 0 0 -1235 2874 1573 5 MP stroke
6 w
DO
SO
9 w
0 sg
2874  338 mt 4560  338 L
2874 1573 mt 4560 1573 L
4560 1573 mt 4560  338 L
2874 1573 mt 2874  338 L
2874 1573 mt 4560 1573 L
2874 1573 mt 2874  338 L
3295 1573 mt 3295 1556 L
3295  338 mt 3295  354 L
%%IncludeResource: font Helvetica
/Helvetica /WindowsLatin1Encoding 120 FMSR

3135 1718 mt 
(Writer) s
4138 1573 mt 4138 1556 L
4138  338 mt 4138  354 L
4026 1718 mt 
(Sort) s
2874 1573 mt 2890 1573 L
4560 1573 mt 4543 1573 L
2773 1617 mt 
(0) s
2874 1326 mt 2890 1326 L
4560 1326 mt 4543 1326 L
2673 1370 mt 
(0.2) s
2874 1079 mt 2890 1079 L
4560 1079 mt 4543 1079 L
2673 1123 mt 
(0.4) s
2874  832 mt 2890  832 L
4560  832 mt 4543  832 L
2673  876 mt 
(0.6) s
2874  585 mt 2890  585 L
4560  585 mt 4543  585 L
2673  629 mt 
(0.8) s
2874  338 mt 2890  338 L
4560  338 mt 4543  338 L
2773  382 mt 
(1) s
2874  338 mt 4560  338 L
2874 1573 mt 4560 1573 L
4560 1573 mt 4560  338 L
2874 1573 mt 2874  338 L
gs 2874 338 1687 1236 rc
c8
0 173 103 0 0 -173 2984 1573 4 MP
PP
6 w
0 sg
-103 0 0 173 103 0 0 -173 2984 1573 5 MP stroke
c8
0 150 103 0 0 -150 3827 1573 4 MP
PP
0 sg
-103 0 0 150 103 0 0 -150 3827 1573 5 MP stroke
1686 0 2874 1573 2 MP stroke
c9
0 845 104 0 0 -845 3113 1573 4 MP
PP
0 sg
-104 0 0 845 104 0 0 -845 3113 1573 5 MP stroke
c9
0 80 104 0 0 -80 3956 1573 4 MP
PP
0 sg
-104 0 0 80 104 0 0 -80 3956 1573 5 MP stroke
c10
0 932 104 0 0 -932 3243 1573 4 MP
PP
0 sg
-104 0 0 932 104 0 0 -932 3243 1573 5 MP stroke
c10
0 83 104 0 0 -83 4086 1573 4 MP
PP
0 sg
-104 0 0 83 104 0 0 -83 4086 1573 5 MP stroke
c11
0 1090 104 0 0 -1090 3373 1573 4 MP
PP
0 sg
-104 0 0 1090 104 0 0 -1090 3373 1573 5 MP stroke
c11
0 178 104 0 0 -178 4216 1573 4 MP
PP
0 sg
-104 0 0 178 104 0 0 -178 4216 1573 5 MP stroke
c12
0 1019 103 0 0 -1019 3503 1573 4 MP
PP
0 sg
-103 0 0 1019 103 0 0 -1019 3503 1573 5 MP stroke
c12
0 591 103 0 0 -591 4346 1573 4 MP
PP
0 sg
-103 0 0 591 103 0 0 -591 4346 1573 5 MP stroke
gr

6 w
%%IncludeResource: font Helvetica
/Helvetica /WindowsLatin1Encoding 144 FMSR

2749  238 mt 
(\(b\) delta=0.05, Hadoop Nodes) s
%%IncludeResource: font Helvetica
/Helvetica /WindowsLatin1Encoding 120 FMSR

2591 1339 mt  -90 rotate
(Success Ratio) s
90 rotate
9 w
1 sg
0 1235 1686 0 0 -1235 655 3364 4 MP
PP
-1686 0 0 1235 1686 0 0 -1235 655 3364 5 MP stroke
6 w
DO
SO
9 w
0 sg
 655 2129 mt 2341 2129 L
 655 3364 mt 2341 3364 L
2341 3364 mt 2341 2129 L
 655 3364 mt  655 2129 L
 655 3364 mt 2341 3364 L
 655 3364 mt  655 2129 L
1076 3364 mt 1076 3347 L
1076 2129 mt 1076 2145 L
 871 3509 mt 
(Linpack) s
1919 3364 mt 1919 3347 L
1919 2129 mt 1919 2145 L
1549 3509 mt 
(Linpack-GPU) s
 655 3364 mt  671 3364 L
2341 3364 mt 2324 3364 L
 554 3408 mt 
(0) s
 655 3117 mt  671 3117 L
2341 3117 mt 2324 3117 L
 454 3161 mt 
(0.2) s
 655 2870 mt  671 2870 L
2341 2870 mt 2324 2870 L
 454 2914 mt 
(0.4) s
 655 2623 mt  671 2623 L
2341 2623 mt 2324 2623 L
 454 2667 mt 
(0.6) s
 655 2376 mt  671 2376 L
2341 2376 mt 2324 2376 L
 454 2420 mt 
(0.8) s
 655 2129 mt  671 2129 L
2341 2129 mt 2324 2129 L
 554 2173 mt 
(1) s
 655 2129 mt 2341 2129 L
 655 3364 mt 2341 3364 L
2341 3364 mt 2341 2129 L
 655 3364 mt  655 2129 L
gs 655 2129 1687 1236 rc
c8
0 5 103 0 0 -5 765 3364 4 MP
PP
6 w
0 sg
-103 0 0 5 103 0 0 -5 765 3364 5 MP stroke
c8
0 14 103 0 0 -14 1608 3364 4 MP
PP
0 sg
-103 0 0 14 103 0 0 -14 1608 3364 5 MP stroke
1686 0 655 3364 2 MP stroke
c9
0 6 104 0 0 -6 894 3364 4 MP
PP
0 sg
-104 0 0 6 104 0 0 -6 894 3364 5 MP stroke
c9
0 12 104 0 0 -12 1737 3364 4 MP
PP
0 sg
-104 0 0 12 104 0 0 -12 1737 3364 5 MP stroke
c10
0 34 104 0 0 -34 1024 3364 4 MP
PP
0 sg
-104 0 0 34 104 0 0 -34 1024 3364 5 MP stroke
c10
0 34 104 0 0 -34 1867 3364 4 MP
PP
0 sg
-104 0 0 34 104 0 0 -34 1867 3364 5 MP stroke
c11
0 86 104 0 0 -86 1154 3364 4 MP
PP
0 sg
-104 0 0 86 104 0 0 -86 1154 3364 5 MP stroke
c11
0 339 104 0 0 -339 1997 3364 4 MP
PP
0 sg
-104 0 0 339 104 0 0 -339 1997 3364 5 MP stroke
c12
0 224 103 0 0 -224 1284 3364 4 MP
PP
0 sg
-103 0 0 224 103 0 0 -224 1284 3364 5 MP stroke
c12
0 555 103 0 0 -555 2127 3364 4 MP
PP
0 sg
-103 0 0 555 103 0 0 -555 2127 3364 5 MP stroke
gr

6 w
%%IncludeResource: font Helvetica
/Helvetica /WindowsLatin1Encoding 144 FMSR

 447 2029 mt 
(\(c\) delta=0.01, Nodes with GPUs) s
%%IncludeResource: font Helvetica
/Helvetica /WindowsLatin1Encoding 120 FMSR

 372 3130 mt  -90 rotate
(Success Ratio) s
90 rotate
9 w
1 sg
0 1235 1686 0 0 -1235 2874 3364 4 MP
PP
-1686 0 0 1235 1686 0 0 -1235 2874 3364 5 MP stroke
6 w
DO
SO
9 w
0 sg
2874 2129 mt 4560 2129 L
2874 3364 mt 4560 3364 L
4560 3364 mt 4560 2129 L
2874 3364 mt 2874 2129 L
2874 3364 mt 4560 3364 L
2874 3364 mt 2874 2129 L
3295 3364 mt 3295 3347 L
3295 2129 mt 3295 2145 L
3090 3509 mt 
(Linpack) s
4138 3364 mt 4138 3347 L
4138 2129 mt 4138 2145 L
3768 3509 mt 
(Linpack-GPU) s
2874 3364 mt 2890 3364 L
4560 3364 mt 4543 3364 L
2773 3408 mt 
(0) s
2874 3117 mt 2890 3117 L
4560 3117 mt 4543 3117 L
2673 3161 mt 
(0.2) s
2874 2870 mt 2890 2870 L
4560 2870 mt 4543 2870 L
2673 2914 mt 
(0.4) s
2874 2623 mt 2890 2623 L
4560 2623 mt 4543 2623 L
2673 2667 mt 
(0.6) s
2874 2376 mt 2890 2376 L
4560 2376 mt 4543 2376 L
2673 2420 mt 
(0.8) s
2874 2129 mt 2890 2129 L
4560 2129 mt 4543 2129 L
2773 2173 mt 
(1) s
2874 2129 mt 4560 2129 L
2874 3364 mt 4560 3364 L
4560 3364 mt 4560 2129 L
2874 3364 mt 2874 2129 L
gs 2874 2129 1687 1236 rc
c8
0 170 103 0 0 -170 2984 3364 4 MP
PP
6 w
0 sg
-103 0 0 170 103 0 0 -170 2984 3364 5 MP stroke
c8
0 740 103 0 0 -740 3827 3364 4 MP
PP
0 sg
-103 0 0 740 103 0 0 -740 3827 3364 5 MP stroke
1686 0 2874 3364 2 MP stroke
c9
0 180 104 0 0 -180 3113 3364 4 MP
PP
0 sg
-104 0 0 180 104 0 0 -180 3113 3364 5 MP stroke
c9
0 729 104 0 0 -729 3956 3364 4 MP
PP
0 sg
-104 0 0 729 104 0 0 -729 3956 3364 5 MP stroke
c10
0 286 104 0 0 -286 3243 3364 4 MP
PP
0 sg
-104 0 0 286 104 0 0 -286 3243 3364 5 MP stroke
c10
0 723 104 0 0 -723 4086 3364 4 MP
PP
0 sg
-104 0 0 723 104 0 0 -723 4086 3364 5 MP stroke
c11
0 317 104 0 0 -317 3373 3364 4 MP
PP
0 sg
-104 0 0 317 104 0 0 -317 3373 3364 5 MP stroke
c11
0 756 104 0 0 -756 4216 3364 4 MP
PP
0 sg
-104 0 0 756 104 0 0 -756 4216 3364 5 MP stroke
c12
0 748 103 0 0 -748 3503 3364 4 MP
PP
0 sg
-103 0 0 748 103 0 0 -748 3503 3364 5 MP stroke
c12
0 739 103 0 0 -739 4346 3364 4 MP
PP
0 sg
-103 0 0 739 103 0 0 -739 4346 3364 5 MP stroke
gr

6 w
%%IncludeResource: font Helvetica
/Helvetica /WindowsLatin1Encoding 144 FMSR

2662 2029 mt 
(\(d\) delta=0.05, Nodes with GPUs) s
%%IncludeResource: font Helvetica
/Helvetica /WindowsLatin1Encoding 120 FMSR

2591 3130 mt  -90 rotate
(Success Ratio) s
90 rotate
9 w

end %%Color Dict

eplot
%%EndObject

epage
end

showpage

%%Trailer
%%EOF
