%!PS-Adobe-3.0 EPSF-3.0
%%Creator: MATLAB, The MathWorks, Inc. Version 8.0.0.783 (R2012b). Operating System: Microsoft Windows XP.
%%Title: C:\Documents and Settings\Administrator\My Documents\mseplot\randomsize\sr_cdf_3subplot.eps
%%CreationDate: 06/18/2014  13:03:33
%%DocumentNeededFonts: Helvetica
%%DocumentProcessColors: Cyan Magenta Yellow Black
%%LanguageLevel: 2
%%Pages: 1
%%BoundingBox:    96   238   515   553
%%EndComments

%%BeginProlog
% MathWorks dictionary
/MathWorks 160 dict begin
% definition operators
/bdef {bind def} bind def
/ldef {load def} bind def
/xdef {exch def} bdef
/xstore {exch store} bdef
% operator abbreviations
/c  /clip ldef
/cc /concat ldef
/cp /closepath ldef
/gr /grestore ldef
/gs /gsave ldef
/mt /moveto ldef
/np /newpath ldef
/cm /currentmatrix ldef
/sm /setmatrix ldef
/rm /rmoveto ldef
/rl /rlineto ldef
/s {show newpath} bdef
/sc {setcmykcolor} bdef
/sr /setrgbcolor ldef
/sg /setgray ldef
/w /setlinewidth ldef
/j /setlinejoin ldef
/cap /setlinecap ldef
/rc {rectclip} bdef
/rf {rectfill} bdef
% page state control
/pgsv () def
/bpage {/pgsv save def} bdef
/epage {pgsv restore} bdef
/bplot /gsave ldef
/eplot {stroke grestore} bdef
% orientation switch
/portraitMode 0 def /landscapeMode 1 def /rotateMode 2 def
% coordinate system mappings
/dpi2point 0 def
% font control
/FontSize 0 def
/FMS {/FontSize xstore findfont [FontSize 0 0 FontSize neg 0 0]
  makefont setfont} bdef
/ISOLatin1Encoding where {pop /WindowsLatin1Encoding 256 array bdef
ISOLatin1Encoding WindowsLatin1Encoding copy pop
/.notdef/.notdef/quotesinglbase/florin/quotedblbase/ellipsis/dagger
/daggerdbl/circumflex/perthousand/Scaron/guilsinglleft/OE/.notdef/.notdef
/.notdef/.notdef/quoteleft/quoteright/quotedblleft/quotedblright/bullet
/endash/emdash/tilde/trademark/scaron/guilsinglright/oe/.notdef/.notdef
/Ydieresis WindowsLatin1Encoding 128 32 getinterval astore pop}
{/WindowsLatin1Encoding StandardEncoding bdef} ifelse
/reencode {exch dup where {pop load} {pop StandardEncoding} ifelse
  exch dup 3 1 roll findfont dup length dict begin
  { 1 index /FID ne {def}{pop pop} ifelse } forall
  /Encoding exch def currentdict end definefont pop} bdef
/isroman {findfont /CharStrings get /Agrave known} bdef
/FMSR {3 1 roll 1 index dup isroman {reencode} {pop pop} ifelse
  exch FMS} bdef
/csm {1 dpi2point div -1 dpi2point div scale neg translate
 dup landscapeMode eq {pop -90 rotate}
  {rotateMode eq {90 rotate} if} ifelse} bdef
% line types: solid, dotted, dashed, dotdash
/SO { [] 0 setdash } bdef
/DO { [.5 dpi2point mul 4 dpi2point mul] 0 setdash } bdef
/DA { [6 dpi2point mul] 0 setdash } bdef
/DD { [.5 dpi2point mul 4 dpi2point mul 6 dpi2point mul 4
  dpi2point mul] 0 setdash } bdef
% macros for lines and objects
/L {lineto stroke} bdef
/MP {3 1 roll moveto 1 sub {rlineto} repeat} bdef
/AP {{rlineto} repeat} bdef
/PDlw -1 def
/W {/PDlw currentlinewidth def setlinewidth} def
/PP {closepath eofill} bdef
/DP {closepath stroke} bdef
/MR {4 -2 roll moveto dup  0 exch rlineto exch 0 rlineto
  neg 0 exch rlineto closepath} bdef
/FR {MR stroke} bdef
/PR {MR fill} bdef
/L1i {{currentfile picstr readhexstring pop} image} bdef
/tMatrix matrix def
/MakeOval {newpath tMatrix currentmatrix pop translate scale
0 0 1 0 360 arc tMatrix setmatrix} bdef
/FO {MakeOval stroke} bdef
/PO {MakeOval fill} bdef
/PD {currentlinewidth 2 div 0 360 arc fill
   PDlw -1 eq not {PDlw w /PDlw -1 def} if} def
/FA {newpath tMatrix currentmatrix pop translate scale
  0 0 1 5 -2 roll arc tMatrix setmatrix stroke} bdef
/PA {newpath tMatrix currentmatrix pop	translate 0 0 moveto scale
  0 0 1 5 -2 roll arc closepath tMatrix setmatrix fill} bdef
/FAn {newpath tMatrix currentmatrix pop translate scale
  0 0 1 5 -2 roll arcn tMatrix setmatrix stroke} bdef
/PAn {newpath tMatrix currentmatrix pop translate 0 0 moveto scale
  0 0 1 5 -2 roll arcn closepath tMatrix setmatrix fill} bdef
/vradius 0 def /hradius 0 def /lry 0 def
/lrx 0 def /uly 0 def /ulx 0 def /rad 0 def
/MRR {/vradius xdef /hradius xdef /lry xdef /lrx xdef /uly xdef
  /ulx xdef newpath tMatrix currentmatrix pop ulx hradius add uly
  vradius add translate hradius vradius scale 0 0 1 180 270 arc 
  tMatrix setmatrix lrx hradius sub uly vradius add translate
  hradius vradius scale 0 0 1 270 360 arc tMatrix setmatrix
  lrx hradius sub lry vradius sub translate hradius vradius scale
  0 0 1 0 90 arc tMatrix setmatrix ulx hradius add lry vradius sub
  translate hradius vradius scale 0 0 1 90 180 arc tMatrix setmatrix
  closepath} bdef
/FRR {MRR stroke } bdef
/PRR {MRR fill } bdef
/MlrRR {/lry xdef /lrx xdef /uly xdef /ulx xdef /rad lry uly sub 2 div def
  newpath tMatrix currentmatrix pop ulx rad add uly rad add translate
  rad rad scale 0 0 1 90 270 arc tMatrix setmatrix lrx rad sub lry rad
  sub translate rad rad scale 0 0 1 270 90 arc tMatrix setmatrix
  closepath} bdef
/FlrRR {MlrRR stroke } bdef
/PlrRR {MlrRR fill } bdef
/MtbRR {/lry xdef /lrx xdef /uly xdef /ulx xdef /rad lrx ulx sub 2 div def
  newpath tMatrix currentmatrix pop ulx rad add uly rad add translate
  rad rad scale 0 0 1 180 360 arc tMatrix setmatrix lrx rad sub lry rad
  sub translate rad rad scale 0 0 1 0 180 arc tMatrix setmatrix
  closepath} bdef
/FtbRR {MtbRR stroke } bdef
/PtbRR {MtbRR fill } bdef
/stri 6 array def /dtri 6 array def
/smat 6 array def /dmat 6 array def
/tmat1 6 array def /tmat2 6 array def /dif 3 array def
/asub {/ind2 exch def /ind1 exch def dup dup
  ind1 get exch ind2 get sub exch } bdef
/tri_to_matrix {
  2 0 asub 3 1 asub 4 0 asub 5 1 asub
  dup 0 get exch 1 get 7 -1 roll astore } bdef
/compute_transform {
  dmat dtri tri_to_matrix tmat1 invertmatrix 
  smat stri tri_to_matrix tmat2 concatmatrix } bdef
/ds {stri astore pop} bdef
/dt {dtri astore pop} bdef
/db {2 copy /cols xdef /rows xdef mul dup 3 mul string
  currentfile 
  3 index 0 eq {/ASCIIHexDecode filter}
  {/ASCII85Decode filter 3 index 2 eq {/RunLengthDecode filter} if }
  ifelse exch readstring pop
  dup 0 3 index getinterval /rbmap xdef
  dup 2 index dup getinterval /gbmap xdef
  1 index dup 2 mul exch getinterval /bbmap xdef pop pop}bdef
/it {gs np dtri aload pop moveto lineto lineto cp c
  cols rows 8 compute_transform 
  rbmap gbmap bbmap true 3 colorimage gr}bdef
/il {newpath moveto lineto stroke}bdef
currentdict end def
%%EndProlog

%%BeginSetup
MathWorks begin

0 cap

end
%%EndSetup

%%Page: 1 1
%%BeginPageSetup
%%PageBoundingBox:    96   238   515   553
MathWorks begin
bpage
%%EndPageSetup

%%BeginObject: obj1
bplot

/dpi2point 12 def
portraitMode 1152 6636 csm

    0     0  5039  3780 rc
86 dict begin %Colortable dictionary
/c0 { 0.000000 0.000000 0.000000 sr} bdef
/c1 { 1.000000 1.000000 1.000000 sr} bdef
/c2 { 0.900000 0.000000 0.000000 sr} bdef
/c3 { 0.000000 0.820000 0.000000 sr} bdef
/c4 { 0.000000 0.000000 0.800000 sr} bdef
/c5 { 0.910000 0.820000 0.320000 sr} bdef
/c6 { 1.000000 0.260000 0.820000 sr} bdef
/c7 { 0.000000 0.820000 0.820000 sr} bdef
c0
1 j
1 sg
   0    0 5040 3781 rf
6 w
0 1235 1686 0 0 -1235 655 1573 4 MP
PP
-1686 0 0 1235 1686 0 0 -1235 655 1573 5 MP stroke
4 w
DO
SO
6 w
0 sg
 655  338 mt 2341  338 L
 655 1573 mt 2341 1573 L
2341 1573 mt 2341  338 L
 655 1573 mt  655  338 L
 655 1573 mt 2341 1573 L
 655 1573 mt  655  338 L
 655 1573 mt  655 1556 L
 655  338 mt  655  354 L
%%IncludeResource: font Helvetica
/Helvetica /WindowsLatin1Encoding 120 FMSR

 622 1718 mt 
(0) s
 992 1573 mt  992 1556 L
 992  338 mt  992  354 L
 909 1718 mt 
(0.2) s
1329 1573 mt 1329 1556 L
1329  338 mt 1329  354 L
1246 1718 mt 
(0.4) s
1666 1573 mt 1666 1556 L
1666  338 mt 1666  354 L
1583 1718 mt 
(0.6) s
2003 1573 mt 2003 1556 L
2003  338 mt 2003  354 L
1920 1718 mt 
(0.8) s
2341 1573 mt 2341 1556 L
2341  338 mt 2341  354 L
2308 1718 mt 
(1) s
 655 1573 mt  671 1573 L
2341 1573 mt 2324 1573 L
 554 1617 mt 
(0) s
 655 1326 mt  671 1326 L
2341 1326 mt 2324 1326 L
 454 1370 mt 
(0.2) s
 655 1079 mt  671 1079 L
2341 1079 mt 2324 1079 L
 454 1123 mt 
(0.4) s
 655  832 mt  671  832 L
2341  832 mt 2324  832 L
 454  876 mt 
(0.6) s
 655  585 mt  671  585 L
2341  585 mt 2324  585 L
 454  629 mt 
(0.8) s
 655  338 mt  671  338 L
2341  338 mt 2324  338 L
 554  382 mt 
(1) s
 655  338 mt 2341  338 L
 655 1573 mt 2341 1573 L
2341 1573 mt 2341  338 L
 655 1573 mt  655  338 L
gs 655 338 1687 1236 rc
DO
14.4 w
/c8 { 1.000000 0.000000 0.000000 sr} bdef
c8
0 -82 2 0 0 -82 42 0 0 -83 8 0 0 -82 2 0 
0 -82 15 0 0 -83 1 0 0 -82 6 0 0 -82 1 0 
0 -83 6 0 0 -82 0 -82 2 0 0 -83 1 0 0 -82 
0 -82 3 0 0 -83 662 1573 28 MP stroke
gr

14.4 w
c8
DO
gs 586 261 243 1389 rc
SO
 641 1552 mt  683 1594 L
 683 1552 mt  641 1594 L
 641 1469 mt  683 1511 L
 683 1469 mt  641 1511 L
 644 1469 mt  686 1511 L
 686 1469 mt  644 1511 L
 644 1387 mt  686 1429 L
 686 1387 mt  644 1429 L
 644 1305 mt  686 1347 L
 686 1305 mt  644 1347 L
 645 1305 mt  687 1347 L
 687 1305 mt  645 1347 L
 645 1222 mt  687 1264 L
 687 1222 mt  645 1264 L
 647 1222 mt  689 1264 L
 689 1222 mt  647 1264 L
 647 1140 mt  689 1182 L
 689 1140 mt  647 1182 L
 647 1058 mt  689 1100 L
 689 1058 mt  647 1100 L
 653 1058 mt  695 1100 L
 695 1058 mt  653 1100 L
 653  975 mt  695 1017 L
 695  975 mt  653 1017 L
 654  975 mt  696 1017 L
 696  975 mt  654 1017 L
 654  893 mt  696  935 L
 696  893 mt  654  935 L
 660  893 mt  702  935 L
 702  893 mt  660  935 L
 660  811 mt  702  853 L
 702  811 mt  660  853 L
 661  811 mt  703  853 L
 703  811 mt  661  853 L
 661  728 mt  703  770 L
 703  728 mt  661  770 L
 676  728 mt  718  770 L
 718  728 mt  676  770 L
 676  646 mt  718  688 L
 718  646 mt  676  688 L
 678  646 mt  720  688 L
 720  646 mt  678  688 L
 678  564 mt  720  606 L
 720  564 mt  678  606 L
 686  564 mt  728  606 L
 728  564 mt  686  606 L
 686  481 mt  728  523 L
 728  481 mt  686  523 L
 728  481 mt  770  523 L
 770  481 mt  728  523 L
 728  399 mt  770  441 L
 770  399 mt  728  441 L
 730  399 mt  772  441 L
 772  399 mt  730  441 L
 730  317 mt  772  359 L
 772  317 mt  730  359 L
DO
gr

gs 655 338 1687 1236 rc
gr

0 sg
1097 1861 mt 
(Success Ratio ) s
 372 1079 mt  -90 rotate
(CDF) s
90 rotate
%%IncludeResource: font Helvetica
/Helvetica /WindowsLatin1Encoding 144 FMSR

1031  238 mt 
(\(a\) delta=0.01 ) s
gs 655 338 1687 1236 rc
SO
6 w
c8
0 -82 60 0 0 -82 38 0 0 -83 94 0 0 -82 17 0 
0 -82 4 0 0 -83 18 0 0 -82 208 0 0 -82 41 0 
0 -83 41 0 0 -82 62 0 0 -82 9 0 0 -83 2 0 
0 -82 2 0 0 -82 26 0 0 -83 683 1573 30 MP stroke
gr

6 w
c8
SO
gs 634 289 721 1334 rc
  24   24  683 1573 FO
  24   24  683 1490 FO
  24   24  709 1490 FO
  24   24  709 1408 FO
  24   24  711 1408 FO
  24   24  711 1326 FO
  24   24  713 1326 FO
  24   24  713 1243 FO
  24   24  722 1243 FO
  24   24  722 1161 FO
  24   24  784 1161 FO
  24   24  784 1079 FO
  24   24  825 1079 FO
  24   24  825  996 FO
  24   24  866  996 FO
  24   24  866  914 FO
  24   24 1074  914 FO
  24   24 1074  832 FO
  24   24 1092  832 FO
  24   24 1092  749 FO
  24   24 1096  749 FO
  24   24 1096  667 FO
  24   24 1113  667 FO
  24   24 1113  585 FO
  24   24 1207  585 FO
  24   24 1207  502 FO
  24   24 1245  502 FO
  24   24 1245  420 FO
  24   24 1305  420 FO
  24   24 1305  338 FO
gr

gs 655 338 1687 1236 rc
0 sg
0 -82 41 0 0 -82 82 0 0 -83 55 0 0 -82 36 0 
0 -82 12 0 0 -83 6 0 0 -82 32 0 0 -82 147 0 
0 -83 23 0 0 -82 40 0 0 -82 21 0 0 -83 42 0 
0 -82 11 0 0 -82 15 0 0 -83 721 1573 30 MP stroke
DO
14.4 w
/c9 { 0.000000 0.000000 1.000000 sr} bdef
c9
0 -82 3 0 0 -82 102 0 0 -83 15 0 0 -82 1 0 
0 -82 34 0 0 -83 11 0 0 -82 57 0 0 -82 143 0 
0 -83 255 0 0 -82 28 0 0 -82 37 0 0 -83 166 0 
0 -82 10 0 0 -82 47 0 0 -83 934 1573 30 MP stroke
SO
6 w
/c10 { 0.000000 0.500000 0.500000 sr} bdef
c10
0 -82 12 0 0 -82 8 0 0 -83 2 0 0 -82 3 0 
0 -82 14 0 0 -83 0 -82 15 0 0 -82 249 0 0 -83 
41 0 0 -82 19 0 0 -82 3 0 0 -83 96 0 0 -82 
100 0 0 -82 233 0 0 -83 1363 1573 29 MP stroke
gr

c10
gs 1302 277 918 1358 rc
1333 1573 mt 1393 1573 L
1363 1543 mt 1363 1603 L
1333 1490 mt 1393 1490 L
1363 1460 mt 1363 1520 L
1566 1490 mt 1626 1490 L
1596 1460 mt 1596 1520 L
1566 1408 mt 1626 1408 L
1596 1378 mt 1596 1438 L
1666 1408 mt 1726 1408 L
1696 1378 mt 1696 1438 L
1666 1326 mt 1726 1326 L
1696 1296 mt 1696 1356 L
1762 1326 mt 1822 1326 L
1792 1296 mt 1792 1356 L
1762 1243 mt 1822 1243 L
1792 1213 mt 1792 1273 L
1765 1243 mt 1825 1243 L
1795 1213 mt 1795 1273 L
1765 1161 mt 1825 1161 L
1795 1131 mt 1795 1191 L
1784 1161 mt 1844 1161 L
1814 1131 mt 1814 1191 L
1784 1079 mt 1844 1079 L
1814 1049 mt 1814 1109 L
1825 1079 mt 1885 1079 L
1855 1049 mt 1855 1109 L
1825  996 mt 1885  996 L
1855  966 mt 1855 1026 L
2074  996 mt 2134  996 L
2104  966 mt 2104 1026 L
2074  914 mt 2134  914 L
2104  884 mt 2104  944 L
2089  914 mt 2149  914 L
2119  884 mt 2119  944 L
2089  832 mt 2149  832 L
2119  802 mt 2119  862 L
2089  749 mt 2149  749 L
2119  719 mt 2119  779 L
2103  749 mt 2163  749 L
2133  719 mt 2133  779 L
2103  667 mt 2163  667 L
2133  637 mt 2133  697 L
2106  667 mt 2166  667 L
2136  637 mt 2136  697 L
2106  585 mt 2166  585 L
2136  555 mt 2136  615 L
2108  585 mt 2168  585 L
2138  555 mt 2138  615 L
2108  502 mt 2168  502 L
2138  472 mt 2138  532 L
2116  502 mt 2176  502 L
2146  472 mt 2146  532 L
2116  420 mt 2176  420 L
2146  390 mt 2146  450 L
2128  420 mt 2188  420 L
2158  390 mt 2158  450 L
2128  338 mt 2188  338 L
2158  308 mt 2158  368 L
1342 1552 mt 1384 1594 L
1384 1552 mt 1342 1594 L
1342 1469 mt 1384 1511 L
1384 1469 mt 1342 1511 L
1575 1469 mt 1617 1511 L
1617 1469 mt 1575 1511 L
1575 1387 mt 1617 1429 L
1617 1387 mt 1575 1429 L
1675 1387 mt 1717 1429 L
1717 1387 mt 1675 1429 L
1675 1305 mt 1717 1347 L
1717 1305 mt 1675 1347 L
1771 1305 mt 1813 1347 L
1813 1305 mt 1771 1347 L
1771 1222 mt 1813 1264 L
1813 1222 mt 1771 1264 L
1774 1222 mt 1816 1264 L
1816 1222 mt 1774 1264 L
1774 1140 mt 1816 1182 L
1816 1140 mt 1774 1182 L
1793 1140 mt 1835 1182 L
1835 1140 mt 1793 1182 L
1793 1058 mt 1835 1100 L
1835 1058 mt 1793 1100 L
1834 1058 mt 1876 1100 L
1876 1058 mt 1834 1100 L
1834  975 mt 1876 1017 L
1876  975 mt 1834 1017 L
2083  975 mt 2125 1017 L
2125  975 mt 2083 1017 L
2083  893 mt 2125  935 L
2125  893 mt 2083  935 L
2098  893 mt 2140  935 L
2140  893 mt 2098  935 L
2098  811 mt 2140  853 L
2140  811 mt 2098  853 L
2098  728 mt 2140  770 L
2140  728 mt 2098  770 L
2112  728 mt 2154  770 L
2154  728 mt 2112  770 L
2112  646 mt 2154  688 L
2154  646 mt 2112  688 L
2115  646 mt 2157  688 L
2157  646 mt 2115  688 L
2115  564 mt 2157  606 L
2157  564 mt 2115  606 L
2117  564 mt 2159  606 L
2159  564 mt 2117  606 L
2117  481 mt 2159  523 L
2159  481 mt 2117  523 L
2125  481 mt 2167  523 L
2167  481 mt 2125  523 L
2125  399 mt 2167  441 L
2167  399 mt 2125  441 L
2137  399 mt 2179  441 L
2179  399 mt 2137  441 L
2137  317 mt 2179  359 L
2179  317 mt 2137  359 L
gr

gs 655 338 1687 1236 rc
gr

0 sg
%%IncludeResource: font Helvetica
/Helvetica /WindowsLatin1Encoding 120 FMSR

 638 1616 mt 
( ) s
2325  380 mt 
( ) s
1 sg
0 1235 1686 0 0 -1235 2874 1573 4 MP
PP
-1686 0 0 1235 1686 0 0 -1235 2874 1573 5 MP stroke
4 w
DO
SO
6 w
0 sg
2874  338 mt 4560  338 L
2874 1573 mt 4560 1573 L
4560 1573 mt 4560  338 L
2874 1573 mt 2874  338 L
2874 1573 mt 4560 1573 L
2874 1573 mt 2874  338 L
2874 1573 mt 2874 1556 L
2874  338 mt 2874  354 L
2841 1718 mt 
(0) s
3211 1573 mt 3211 1556 L
3211  338 mt 3211  354 L
3128 1718 mt 
(0.2) s
3548 1573 mt 3548 1556 L
3548  338 mt 3548  354 L
3465 1718 mt 
(0.4) s
3885 1573 mt 3885 1556 L
3885  338 mt 3885  354 L
3802 1718 mt 
(0.6) s
4222 1573 mt 4222 1556 L
4222  338 mt 4222  354 L
4139 1718 mt 
(0.8) s
4560 1573 mt 4560 1556 L
4560  338 mt 4560  354 L
4527 1718 mt 
(1) s
2874 1573 mt 2890 1573 L
4560 1573 mt 4543 1573 L
2773 1617 mt 
(0) s
2874 1326 mt 2890 1326 L
4560 1326 mt 4543 1326 L
2673 1370 mt 
(0.2) s
2874 1079 mt 2890 1079 L
4560 1079 mt 4543 1079 L
2673 1123 mt 
(0.4) s
2874  832 mt 2890  832 L
4560  832 mt 4543  832 L
2673  876 mt 
(0.6) s
2874  585 mt 2890  585 L
4560  585 mt 4543  585 L
2673  629 mt 
(0.8) s
2874  338 mt 2890  338 L
4560  338 mt 4543  338 L
2773  382 mt 
(1) s
2874  338 mt 4560  338 L
2874 1573 mt 4560 1573 L
4560 1573 mt 4560  338 L
2874 1573 mt 2874  338 L
gs 2874 338 1687 1236 rc
DO
14.4 w
c8
0 -82 152 0 0 -82 5 0 0 -83 65 0 0 -82 9 0 
0 -82 2 0 0 -83 8 0 0 -82 11 0 0 -82 0 -83 
18 0 0 -82 7 0 0 -82 15 0 0 -83 20 0 0 -82 
0 -82 38 0 0 -83 4095 1573 28 MP stroke
gr

14.4 w
c8
DO
gs 4019 261 503 1389 rc
SO
4074 1552 mt 4116 1594 L
4116 1552 mt 4074 1594 L
4074 1469 mt 4116 1511 L
4116 1469 mt 4074 1511 L
4112 1469 mt 4154 1511 L
4154 1469 mt 4112 1511 L
4112 1387 mt 4154 1429 L
4154 1387 mt 4112 1429 L
4112 1305 mt 4154 1347 L
4154 1305 mt 4112 1347 L
4132 1305 mt 4174 1347 L
4174 1305 mt 4132 1347 L
4132 1222 mt 4174 1264 L
4174 1222 mt 4132 1264 L
4147 1222 mt 4189 1264 L
4189 1222 mt 4147 1264 L
4147 1140 mt 4189 1182 L
4189 1140 mt 4147 1182 L
4154 1140 mt 4196 1182 L
4196 1140 mt 4154 1182 L
4154 1058 mt 4196 1100 L
4196 1058 mt 4154 1100 L
4172 1058 mt 4214 1100 L
4214 1058 mt 4172 1100 L
4172  975 mt 4214 1017 L
4214  975 mt 4172 1017 L
4172  893 mt 4214  935 L
4214  893 mt 4172  935 L
4183  893 mt 4225  935 L
4225  893 mt 4183  935 L
4183  811 mt 4225  853 L
4225  811 mt 4183  853 L
4191  811 mt 4233  853 L
4233  811 mt 4191  853 L
4191  728 mt 4233  770 L
4233  728 mt 4191  770 L
4193  728 mt 4235  770 L
4235  728 mt 4193  770 L
4193  646 mt 4235  688 L
4235  646 mt 4193  688 L
4202  646 mt 4244  688 L
4244  646 mt 4202  688 L
4202  564 mt 4244  606 L
4244  564 mt 4202  606 L
4267  564 mt 4309  606 L
4309  564 mt 4267  606 L
4267  481 mt 4309  523 L
4309  481 mt 4267  523 L
4272  481 mt 4314  523 L
4314  481 mt 4272  523 L
4272  399 mt 4314  441 L
4314  399 mt 4272  441 L
4424  399 mt 4466  441 L
4466  399 mt 4424  441 L
4424  317 mt 4466  359 L
4466  317 mt 4424  359 L
DO
gr

gs 2874 338 1687 1236 rc
gr

0 sg
3316 1861 mt 
(Success Ratio ) s
2591 1079 mt  -90 rotate
(CDF) s
90 rotate
%%IncludeResource: font Helvetica
/Helvetica /WindowsLatin1Encoding 144 FMSR

3270  238 mt 
(\(b\) delta=0.05) s
gs 2874 338 1687 1236 rc
SO
6 w
c8
0 -82 9 0 0 -82 17 0 0 -83 19 0 0 -82 12 0 
0 -82 4 0 0 -83 1 0 0 -82 42 0 0 -82 27 0 
0 -83 27 0 0 -82 81 0 0 -82 4 0 0 -83 10 0 
0 -82 31 0 0 -82 0 -83 4156 1573 29 MP stroke
gr

6 w
c8
SO
gs 4107 289 383 1334 rc
  24   24 4156 1573 FO
  24   24 4156 1490 FO
  24   24 4156 1408 FO
  24   24 4187 1408 FO
  24   24 4187 1326 FO
  24   24 4197 1326 FO
  24   24 4197 1243 FO
  24   24 4201 1243 FO
  24   24 4201 1161 FO
  24   24 4282 1161 FO
  24   24 4282 1079 FO
  24   24 4309 1079 FO
  24   24 4309  996 FO
  24   24 4336  996 FO
  24   24 4336  914 FO
  24   24 4378  914 FO
  24   24 4378  832 FO
  24   24 4379  832 FO
  24   24 4379  749 FO
  24   24 4383  749 FO
  24   24 4383  667 FO
  24   24 4395  667 FO
  24   24 4395  585 FO
  24   24 4414  585 FO
  24   24 4414  502 FO
  24   24 4431  502 FO
  24   24 4431  420 FO
  24   24 4440  420 FO
  24   24 4440  338 FO
gr

gs 2874 338 1687 1236 rc
0 sg
0 -82 5 0 0 -82 6 0 0 -83 27 0 0 -82 14 0 
0 -82 6 0 0 -83 2 0 0 -82 48 0 0 -82 19 0 
0 -83 31 0 0 -82 77 0 0 -82 13 0 0 -83 7 0 
0 -82 31 0 0 -82 9 0 0 -83 4139 1573 30 MP stroke
DO
14.4 w
c9
0 -164 2 0 0 -83 3 0 0 -82 16 0 0 -82 1 0 
0 -83 6 0 0 -82 2 0 0 -82 85 0 0 -83 193 0 
0 -82 5 0 0 -82 3 0 0 -83 8 0 0 -82 48 0 
0 -82 21 0 0 -83 4131 1573 28 MP stroke
SO
6 w
c10
0 -82 0 -82 1 0 0 -83 1 0 0 -82 2 0 0 -82 
0 -83 1 0 0 -82 5 0 0 -82 6 0 0 -83 102 0 
0 -82 28 0 0 -82 7 0 0 -83 11 0 0 -82 14 0 
0 -82 226 0 0 -83 4124 1573 28 MP stroke
gr

c10
gs 4063 277 527 1358 rc
4094 1573 mt 4154 1573 L
4124 1543 mt 4124 1603 L
4094 1490 mt 4154 1490 L
4124 1460 mt 4124 1520 L
4320 1490 mt 4380 1490 L
4350 1460 mt 4350 1520 L
4320 1408 mt 4380 1408 L
4350 1378 mt 4350 1438 L
4334 1408 mt 4394 1408 L
4364 1378 mt 4364 1438 L
4334 1326 mt 4394 1326 L
4364 1296 mt 4364 1356 L
4345 1326 mt 4405 1326 L
4375 1296 mt 4375 1356 L
4345 1243 mt 4405 1243 L
4375 1213 mt 4375 1273 L
4352 1243 mt 4412 1243 L
4382 1213 mt 4382 1273 L
4352 1161 mt 4412 1161 L
4382 1131 mt 4382 1191 L
4380 1161 mt 4440 1161 L
4410 1131 mt 4410 1191 L
4380 1079 mt 4440 1079 L
4410 1049 mt 4410 1109 L
4482 1079 mt 4542 1079 L
4512 1049 mt 4512 1109 L
4482  996 mt 4542  996 L
4512  966 mt 4512 1026 L
4488  996 mt 4548  996 L
4518  966 mt 4518 1026 L
4488  914 mt 4548  914 L
4518  884 mt 4518  944 L
4493  914 mt 4553  914 L
4523  884 mt 4523  944 L
4493  832 mt 4553  832 L
4523  802 mt 4523  862 L
4494  832 mt 4554  832 L
4524  802 mt 4524  862 L
4494  749 mt 4554  749 L
4524  719 mt 4524  779 L
4494  667 mt 4554  667 L
4524  637 mt 4524  697 L
4496  667 mt 4556  667 L
4526  637 mt 4526  697 L
4496  585 mt 4556  585 L
4526  555 mt 4526  615 L
4497  585 mt 4557  585 L
4527  555 mt 4527  615 L
4497  502 mt 4557  502 L
4527  472 mt 4527  532 L
4498  502 mt 4558  502 L
4528  472 mt 4528  532 L
4498  420 mt 4558  420 L
4528  390 mt 4528  450 L
4498  338 mt 4558  338 L
4528  308 mt 4528  368 L
4103 1552 mt 4145 1594 L
4145 1552 mt 4103 1594 L
4103 1469 mt 4145 1511 L
4145 1469 mt 4103 1511 L
4329 1469 mt 4371 1511 L
4371 1469 mt 4329 1511 L
4329 1387 mt 4371 1429 L
4371 1387 mt 4329 1429 L
4343 1387 mt 4385 1429 L
4385 1387 mt 4343 1429 L
4343 1305 mt 4385 1347 L
4385 1305 mt 4343 1347 L
4354 1305 mt 4396 1347 L
4396 1305 mt 4354 1347 L
4354 1222 mt 4396 1264 L
4396 1222 mt 4354 1264 L
4361 1222 mt 4403 1264 L
4403 1222 mt 4361 1264 L
4361 1140 mt 4403 1182 L
4403 1140 mt 4361 1182 L
4389 1140 mt 4431 1182 L
4431 1140 mt 4389 1182 L
4389 1058 mt 4431 1100 L
4431 1058 mt 4389 1100 L
4491 1058 mt 4533 1100 L
4533 1058 mt 4491 1100 L
4491  975 mt 4533 1017 L
4533  975 mt 4491 1017 L
4497  975 mt 4539 1017 L
4539  975 mt 4497 1017 L
4497  893 mt 4539  935 L
4539  893 mt 4497  935 L
4502  893 mt 4544  935 L
4544  893 mt 4502  935 L
4502  811 mt 4544  853 L
4544  811 mt 4502  853 L
4503  811 mt 4545  853 L
4545  811 mt 4503  853 L
4503  728 mt 4545  770 L
4545  728 mt 4503  770 L
4503  646 mt 4545  688 L
4545  646 mt 4503  688 L
4505  646 mt 4547  688 L
4547  646 mt 4505  688 L
4505  564 mt 4547  606 L
4547  564 mt 4505  606 L
4506  564 mt 4548  606 L
4548  564 mt 4506  606 L
4506  481 mt 4548  523 L
4548  481 mt 4506  523 L
4507  481 mt 4549  523 L
4549  481 mt 4507  523 L
4507  399 mt 4549  441 L
4549  399 mt 4507  441 L
4507  317 mt 4549  359 L
4549  317 mt 4507  359 L
gr

gs 2874 338 1687 1236 rc
gr

0 sg
%%IncludeResource: font Helvetica
/Helvetica /WindowsLatin1Encoding 120 FMSR

2857 1616 mt 
( ) s
4544  380 mt 
( ) s
1 sg
0 1235 1686 0 0 -1235 655 3364 4 MP
PP
-1686 0 0 1235 1686 0 0 -1235 655 3364 5 MP stroke
4 w
DO
SO
6 w
0 sg
 655 2129 mt 2341 2129 L
 655 3364 mt 2341 3364 L
2341 3364 mt 2341 2129 L
 655 3364 mt  655 2129 L
 655 3364 mt 2341 3364 L
 655 3364 mt  655 2129 L
 655 3364 mt  655 3347 L
 655 2129 mt  655 2145 L
 622 3509 mt 
(0) s
 992 3364 mt  992 3347 L
 992 2129 mt  992 2145 L
 909 3509 mt 
(0.2) s
1329 3364 mt 1329 3347 L
1329 2129 mt 1329 2145 L
1246 3509 mt 
(0.4) s
1666 3364 mt 1666 3347 L
1666 2129 mt 1666 2145 L
1583 3509 mt 
(0.6) s
2003 3364 mt 2003 3347 L
2003 2129 mt 2003 2145 L
1920 3509 mt 
(0.8) s
2341 3364 mt 2341 3347 L
2341 2129 mt 2341 2145 L
2308 3509 mt 
(1) s
 655 3364 mt  671 3364 L
2341 3364 mt 2324 3364 L
 554 3408 mt 
(0) s
 655 3117 mt  671 3117 L
2341 3117 mt 2324 3117 L
 454 3161 mt 
(0.2) s
 655 2870 mt  671 2870 L
2341 2870 mt 2324 2870 L
 454 2914 mt 
(0.4) s
 655 2623 mt  671 2623 L
2341 2623 mt 2324 2623 L
 454 2667 mt 
(0.6) s
 655 2376 mt  671 2376 L
2341 2376 mt 2324 2376 L
 454 2420 mt 
(0.8) s
 655 2129 mt  671 2129 L
2341 2129 mt 2324 2129 L
 554 2173 mt 
(1) s
 655 2129 mt 2341 2129 L
 655 3364 mt 2341 3364 L
2341 3364 mt 2341 2129 L
 655 3364 mt  655 2129 L
gs 655 2129 1687 1236 rc
DO
14.4 w
c8
0 -82 3 0 0 -82 1 0 0 -83 12 0 0 -82 5 0 
0 -82 9 0 0 -83 9 0 0 -82 9 0 0 -82 7 0 
0 -83 7 0 0 -82 31 0 0 -82 9 0 0 -83 9 0 
0 -82 5 0 0 -82 10 0 0 -83 2160 3364 30 MP stroke
gr

14.4 w
c8
DO
gs 2083 2052 281 1389 rc
SO
2139 3343 mt 2181 3385 L
2181 3343 mt 2139 3385 L
2139 3260 mt 2181 3302 L
2181 3260 mt 2139 3302 L
2149 3260 mt 2191 3302 L
2191 3260 mt 2149 3302 L
2149 3178 mt 2191 3220 L
2191 3178 mt 2149 3220 L
2154 3178 mt 2196 3220 L
2196 3178 mt 2154 3220 L
2154 3096 mt 2196 3138 L
2196 3096 mt 2154 3138 L
2163 3096 mt 2205 3138 L
2205 3096 mt 2163 3138 L
2163 3013 mt 2205 3055 L
2205 3013 mt 2163 3055 L
2172 3013 mt 2214 3055 L
2214 3013 mt 2172 3055 L
2172 2931 mt 2214 2973 L
2214 2931 mt 2172 2973 L
2203 2931 mt 2245 2973 L
2245 2931 mt 2203 2973 L
2203 2849 mt 2245 2891 L
2245 2849 mt 2203 2891 L
2210 2849 mt 2252 2891 L
2252 2849 mt 2210 2891 L
2210 2766 mt 2252 2808 L
2252 2766 mt 2210 2808 L
2217 2766 mt 2259 2808 L
2259 2766 mt 2217 2808 L
2217 2684 mt 2259 2726 L
2259 2684 mt 2217 2726 L
2226 2684 mt 2268 2726 L
2268 2684 mt 2226 2726 L
2226 2602 mt 2268 2644 L
2268 2602 mt 2226 2644 L
2235 2602 mt 2277 2644 L
2277 2602 mt 2235 2644 L
2235 2519 mt 2277 2561 L
2277 2519 mt 2235 2561 L
2244 2519 mt 2286 2561 L
2286 2519 mt 2244 2561 L
2244 2437 mt 2286 2479 L
2286 2437 mt 2244 2479 L
2249 2437 mt 2291 2479 L
2291 2437 mt 2249 2479 L
2249 2355 mt 2291 2397 L
2291 2355 mt 2249 2397 L
2261 2355 mt 2303 2397 L
2303 2355 mt 2261 2397 L
2261 2272 mt 2303 2314 L
2303 2272 mt 2261 2314 L
2262 2272 mt 2304 2314 L
2304 2272 mt 2262 2314 L
2262 2190 mt 2304 2232 L
2304 2190 mt 2262 2232 L
2265 2190 mt 2307 2232 L
2307 2190 mt 2265 2232 L
2265 2108 mt 2307 2150 L
2307 2108 mt 2265 2150 L
DO
gr

gs 655 2129 1687 1236 rc
gr

0 sg
1097 3652 mt 
(Success Ratio ) s
 372 2870 mt  -90 rotate
(CDF) s
90 rotate
%%IncludeResource: font Helvetica
/Helvetica /WindowsLatin1Encoding 144 FMSR

1095 2029 mt 
(\(c\) delta=0.1) s
gs 655 2129 1687 1236 rc
SO
6 w
c8
0 -82 2 0 0 -82 4 0 0 -83 4 0 0 -82 1 0 
0 -82 1 0 0 -83 7 0 0 -82 3 0 0 -82 3 0 
0 -83 4 0 0 -82 3 0 0 -82 5 0 0 -83 6 0 
0 -82 8 0 0 -82 54 0 0 -83 2165 3364 30 MP stroke
gr

6 w
c8
SO
gs 2116 2080 204 1334 rc
  24   24 2165 3364 FO
  24   24 2165 3281 FO
  24   24 2219 3281 FO
  24   24 2219 3199 FO
  24   24 2227 3199 FO
  24   24 2227 3117 FO
  24   24 2233 3117 FO
  24   24 2233 3034 FO
  24   24 2238 3034 FO
  24   24 2238 2952 FO
  24   24 2241 2952 FO
  24   24 2241 2870 FO
  24   24 2245 2870 FO
  24   24 2245 2787 FO
  24   24 2248 2787 FO
  24   24 2248 2705 FO
  24   24 2251 2705 FO
  24   24 2251 2623 FO
  24   24 2258 2623 FO
  24   24 2258 2540 FO
  24   24 2259 2540 FO
  24   24 2259 2458 FO
  24   24 2260 2458 FO
  24   24 2260 2376 FO
  24   24 2264 2376 FO
  24   24 2264 2293 FO
  24   24 2268 2293 FO
  24   24 2268 2211 FO
  24   24 2270 2211 FO
  24   24 2270 2129 FO
gr

gs 655 2129 1687 1236 rc
0 sg
0 -82 7 0 0 -82 6 0 0 -83 7 0 0 -82 1 0 
0 -82 4 0 0 -83 5 0 0 -82 1 0 0 -82 4 0 
0 -83 3 0 0 -82 2 0 0 -82 7 0 0 -83 15 0 
0 -82 3 0 0 -82 60 0 0 -83 2153 3364 30 MP stroke
DO
14.4 w
c9
0 -164 1 0 0 -83 1 0 0 -164 1 0 0 -83 1 0 
0 -82 2 0 0 -82 43 0 0 -83 4 0 0 -82 13 0 
0 -82 9 0 0 -83 7 0 0 -82 29 0 0 -82 60 0 
0 -83 2155 3364 26 MP stroke
SO
6 w
c10
0 -82 0 -82 2 0 0 -83 1 0 0 -82 0 -82 1 0 
0 -83 2 0 0 -82 0 -82 5 0 0 -83 6 0 0 -82 
8 0 0 -82 1 0 0 -83 12 0 0 -82 20 0 0 -82 
72 0 0 -83 2199 3364 27 MP stroke
gr

c10
gs 2138 2068 253 1358 rc
2169 3364 mt 2229 3364 L
2199 3334 mt 2199 3394 L
2169 3281 mt 2229 3281 L
2199 3251 mt 2199 3311 L
2241 3281 mt 2301 3281 L
2271 3251 mt 2271 3311 L
2241 3199 mt 2301 3199 L
2271 3169 mt 2271 3229 L
2261 3199 mt 2321 3199 L
2291 3169 mt 2291 3229 L
2261 3117 mt 2321 3117 L
2291 3087 mt 2291 3147 L
2273 3117 mt 2333 3117 L
2303 3087 mt 2303 3147 L
2273 3034 mt 2333 3034 L
2303 3004 mt 2303 3064 L
2274 3034 mt 2334 3034 L
2304 3004 mt 2304 3064 L
2274 2952 mt 2334 2952 L
2304 2922 mt 2304 2982 L
2282 2952 mt 2342 2952 L
2312 2922 mt 2312 2982 L
2282 2870 mt 2342 2870 L
2312 2840 mt 2312 2900 L
2288 2870 mt 2348 2870 L
2318 2840 mt 2318 2900 L
2288 2787 mt 2348 2787 L
2318 2757 mt 2318 2817 L
2293 2787 mt 2353 2787 L
2323 2757 mt 2323 2817 L
2293 2705 mt 2353 2705 L
2323 2675 mt 2323 2735 L
2293 2623 mt 2353 2623 L
2323 2593 mt 2323 2653 L
2295 2623 mt 2355 2623 L
2325 2593 mt 2325 2653 L
2295 2540 mt 2355 2540 L
2325 2510 mt 2325 2570 L
2296 2540 mt 2356 2540 L
2326 2510 mt 2326 2570 L
2296 2458 mt 2356 2458 L
2326 2428 mt 2326 2488 L
2296 2376 mt 2356 2376 L
2326 2346 mt 2326 2406 L
2297 2376 mt 2357 2376 L
2327 2346 mt 2327 2406 L
2297 2293 mt 2357 2293 L
2327 2263 mt 2327 2323 L
2299 2293 mt 2359 2293 L
2329 2263 mt 2329 2323 L
2299 2211 mt 2359 2211 L
2329 2181 mt 2329 2241 L
2299 2129 mt 2359 2129 L
2329 2099 mt 2329 2159 L
2178 3343 mt 2220 3385 L
2220 3343 mt 2178 3385 L
2178 3260 mt 2220 3302 L
2220 3260 mt 2178 3302 L
2250 3260 mt 2292 3302 L
2292 3260 mt 2250 3302 L
2250 3178 mt 2292 3220 L
2292 3178 mt 2250 3220 L
2270 3178 mt 2312 3220 L
2312 3178 mt 2270 3220 L
2270 3096 mt 2312 3138 L
2312 3096 mt 2270 3138 L
2282 3096 mt 2324 3138 L
2324 3096 mt 2282 3138 L
2282 3013 mt 2324 3055 L
2324 3013 mt 2282 3055 L
2283 3013 mt 2325 3055 L
2325 3013 mt 2283 3055 L
2283 2931 mt 2325 2973 L
2325 2931 mt 2283 2973 L
2291 2931 mt 2333 2973 L
2333 2931 mt 2291 2973 L
2291 2849 mt 2333 2891 L
2333 2849 mt 2291 2891 L
2297 2849 mt 2339 2891 L
2339 2849 mt 2297 2891 L
2297 2766 mt 2339 2808 L
2339 2766 mt 2297 2808 L
2302 2766 mt 2344 2808 L
2344 2766 mt 2302 2808 L
2302 2684 mt 2344 2726 L
2344 2684 mt 2302 2726 L
2302 2602 mt 2344 2644 L
2344 2602 mt 2302 2644 L
2304 2602 mt 2346 2644 L
2346 2602 mt 2304 2644 L
2304 2519 mt 2346 2561 L
2346 2519 mt 2304 2561 L
2305 2519 mt 2347 2561 L
2347 2519 mt 2305 2561 L
2305 2437 mt 2347 2479 L
2347 2437 mt 2305 2479 L
2305 2355 mt 2347 2397 L
2347 2355 mt 2305 2397 L
2306 2355 mt 2348 2397 L
2348 2355 mt 2306 2397 L
2306 2272 mt 2348 2314 L
2348 2272 mt 2306 2314 L
2308 2272 mt 2350 2314 L
2350 2272 mt 2308 2314 L
2308 2190 mt 2350 2232 L
2350 2190 mt 2308 2232 L
2308 2108 mt 2350 2150 L
2350 2108 mt 2308 2150 L
gr

gs 655 2129 1687 1236 rc
gr

0 sg
%%IncludeResource: font Helvetica
/Helvetica /WindowsLatin1Encoding 120 FMSR

 638 3407 mt 
( ) s
2325 2171 mt 
( ) s
1 sg
0 792 908 0 0 -792 731 2976 4 MP
PP
-908 0 0 792 908 0 0 -792 731 2976 5 MP stroke
4 w
DO
SO
6 w
0 sg
 731 2184 mt 1639 2184 L
 731 2976 mt 1639 2976 L
1639 2976 mt 1639 2184 L
 731 2976 mt  731 2184 L
 731 2976 mt 1639 2976 L
 731 2976 mt  731 2184 L
 731 2184 mt 1639 2184 L
 731 2976 mt 1639 2976 L
1639 2976 mt 1639 2184 L
 731 2976 mt  731 2184 L
%%IncludeResource: font Helvetica
/Helvetica /WindowsLatin1Encoding 96 FMSR

1204 2314 mt 
(Linear) s
gs 731 2184 909 793 rc
DO
14.4 w
c8
363 0 803 2280 2 MP stroke
SO
gs 908 2203 154 154 rc
 964 2259 mt 1006 2301 L
1006 2259 mt  964 2301 L
gr

gr

14.4 w
c8
0 sg
1204 2464 mt 
(M-Linear) s
gs 731 2184 909 793 rc
6 w
c8
363 0 803 2430 2 MP stroke
gs 936 2381 99 99 rc
  24   24  985 2430 FO
gr

gr

6 w
c8
0 sg
1204 2615 mt 
(ANN) s
gs 731 2184 909 793 rc
363 0 803 2580 2 MP stroke
gr

1204 2765 mt 
(GMDH) s
gs 731 2184 909 793 rc
DO
14.4 w
c9
363 0 803 2730 2 MP stroke
SO
gr

14.4 w
c9
0 sg
1204 2915 mt 
(GMM) s
gs 731 2184 909 793 rc
6 w
c10
363 0 803 2880 2 MP stroke
gs 924 2819 123 123 rc
 955 2880 mt 1015 2880 L
 985 2850 mt  985 2910 L
 964 2859 mt 1006 2901 L
1006 2859 mt  964 2901 L
gr

gr

6 w
c10

end %%Color Dict

eplot
%%EndObject

epage
end

showpage

%%Trailer
%%EOF
