11.2179782977 11.02478151 25.661500131  0.013698630137 0.027397260274 0.041095890411 node083
11.8451597055 11.8421677387 25.9871417491  0.013698630137 0.027397260274 0.041095890411 node080
13.347003373 13.5183726116 25.5946648489  0.0013698630137 0.027397260274 0.041095890411 node081
12.0974332823 12.085019832 8.2495227809  0.167808219178 0.964383561644 0.983561643836 node082
