6.66825669739 6.65185908577 5.14011114547  0.224166666667 0.860833333333 0.983333333333 node086
6.18635480948 6.19669982847 7.97506212312  0.035 0.594583333333 0.954583333333 node088
7.28597083389 7.28742121091 7.69686548005  0.0733333333333 0.6175 0.982916666667 node090
5.62145652446 5.57774592025 6.77095783906  0.112083333333 0.66125 0.983333333333 node092
